BT024210_BT029117,DU,DI,0.71,NO,0,True,0.87,YES,0.01,0.87,0.00003,NO,YES,YES,0.03,0.79,0.018,YES,YES,YES,0.05,0.46,0.03,YES,DU,EF
EU541213_AY119272,DU,DI,0.15,NO,0,False,0.11,YES,0,1,0.25,YES,YES,YES,0,1,2.6,YES,YES,YES,0.01,0.45,7.8,YES,DU,LI
EU541214_AY119272,DU,DI,0.17,NO,0,False,0.1,YES,0,1,2.7,YES,YES,YES,0,1,1.8,YES,YES,NO,0,0,5,YES,DU,LI
AF189221_AY113293,DU,DI,0.2,NO,0,False,0.84,YES,0.01,0.86,0.0001,NO,YES,YES,0.01,0.94,0.15,YES,YES,YES,0.01,0.31,1.3,YES,DU,EF
X84409_X14397,DU,DI,0.09,YES,0,N/A,0.4,YES,0.02,1,0.31,YES,YES,YES,0.02,1,0.31,YES,YES,NO,0,0,5,YES,DU,LI
X84409_X14395,DU,DI,0.09,YES,0,N/A,0.4,YES,0.01,0.92,0.58,YES,YES,YES,0.01,0.92,0.58,YES,YES,YES,0.08,0.25,0.00003,NO,DU,LI
X84409_X14394,DU,DI,0.09,YES,0,N/A,0.33,YES,0.01,0.87,0.71,YES,YES,YES,0.01,0.87,0.71,YES,YES,YES,0.03,0.35,0.001,YES,DU,LI
X84409_X14396,DU,DI,0.09,YES,0,N/A,0.31,YES,0.01,0.93,0.22,YES,YES,YES,0.01,0.93,0.22,YES,YES,YES,0.13,0.24,0,NO,DU,LI
AF214650_X75498,DU,DI,0.06,YES,0,False,0.4,YES,0.01,0.93,0.52,YES,YES,YES,0.01,0.92,0.77,YES,YES,NO,0,0,5,YES,DU,LI
AF214650_AY061580,DU,DI,0.11,NO,0,False,0.54,YES,0.01,0.85,0.11,YES,YES,YES,0.01,1,1,YES,YES,NO,0,0,5,YES,DU,LI
AF214650_AJ277188,DU,DI,0.31,YES,0,False,0.35,YES,0.01,0.83,0.59,YES,YES,YES,0.01,0.91,2.8,YES,YES,NO,0,0,5,YES,DU,LI
AF214650_AJ277189,DU,DI,0.31,YES,0,False,0.3,YES,0.01,0.93,0.69,YES,YES,YES,0.01,0.86,0.82,YES,YES,YES,0.01,0.57,0.68,YES,DU,LI
AF214650_AJ277181,DU,DI,0.38,YES,0,False,0.4,YES,0.01,0.93,0.51,YES,YES,YES,0.01,0.91,2.6,YES,YES,NO,0,0,5,YES,DU,LI
AF214650_BT029698,DU,DI,0.11,NO,0,False,0.42,YES,0.01,0.93,0.49,YES,YES,YES,0.01,0.86,0.71,YES,YES,NO,0,0,5,YES,DU,LI
AF214650_AJ277183,DU,DI,0.38,YES,0,False,0.31,YES,0.01,0.93,0.66,YES,YES,YES,0.01,0.83,0.21,YES,YES,NO,0,0,5,YES,DU,LI
AF214650_AJ277184,DU,DI,0.38,YES,0,False,0.78,YES,0.01,1,0.92,YES,YES,YES,0.01,0.85,1.4,YES,YES,NO,0,0,5,YES,DU,LI
AF214650_AJ277185,DU,DI,0.31,YES,0,False,0.3,YES,0.01,0.93,0.69,YES,YES,YES,0.01,0.91,2.7,YES,YES,NO,0,0,5,YES,DU,LI
AF214650_AJ277186,DU,DI,0.31,YES,0,False,0.34,YES,0.01,0.93,0.61,YES,YES,YES,0.01,0.91,2.7,YES,YES,NO,0,0,5,YES,DU,LI
AF214650_AJ277187,DU,DI,0.31,YES,0,False,0.37,YES,0.01,0.93,0.56,YES,YES,YES,0.01,0.91,2.7,YES,YES,NO,0,0,5,YES,DU,LI
AF214650_AJ277180,DU,DI,0.38,YES,0,False,0.34,YES,0.01,0.93,0.61,YES,YES,YES,0.01,0.91,2.6,YES,YES,NO,0,0,5,YES,DU,LI
AF214650_AJ277174,DU,DI,0.31,YES,0,False,0.42,YES,0.01,0.93,0.5,YES,YES,YES,0.01,0.91,2.4,YES,YES,NO,0,0,5,YES,DU,LI
AF214650_AJ277175,DU,DI,0.31,YES,0,False,0.52,YES,0.01,0.83,0.4,YES,YES,YES,0.01,0.92,0.57,YES,YES,NO,0,0,5,YES,DU,LI
AF214650_AJ277177,DU,DI,0.31,YES,0,False,0.4,YES,0.01,0.93,0.51,YES,YES,YES,0.01,0.91,2.5,YES,YES,NO,0,0,5,YES,DU,LI
AF214650_AJ277176,DU,DI,0.31,YES,0,False,0.33,YES,0.01,0.93,0.18,YES,YES,YES,0.01,0.91,2.5,YES,YES,NO,0,0,5,YES,DU,LI
AF214650_U62802,DU,DI,0.38,YES,0,False,0.4,YES,0.01,0.93,0.51,YES,YES,YES,0.01,0.82,0.74,YES,YES,NO,0,0,5,YES,DU,LI
AF214650_AJ277179,DU,DI,0.38,YES,0,False,0.37,YES,0.01,0.93,0.56,YES,YES,YES,0.01,0.91,2.6,YES,YES,NO,0,0,5,YES,DU,LI
AF214650_BT003579,DU,DI,0.11,NO,0,False,0.25,YES,0,1,0.83,YES,YES,YES,0.01,0.86,0.78,YES,YES,NO,0,0,5,YES,DU,LI
AF214650_U30914,DU,DI,0.44,YES,0,False,0.38,YES,0.01,0.83,0.55,YES,YES,YES,0.01,1,2.7,YES,YES,NO,0,0,5,YES,DU,LI
AF214650_AJ277182,DU,DI,0.38,YES,0,False,0.33,YES,0.01,0.93,0.63,YES,YES,YES,0.01,0.91,2.6,YES,YES,YES,0.01,0.8,0.14,YES,DU,LI
AF214650_AJ277193,DU,DI,0.38,YES,0,False,0.58,YES,0.02,0.83,0.36,YES,YES,YES,0.01,0.91,1.7,YES,YES,YES,0.01,0.8,0.67,YES,DU,LI
AF214650_AJ277191,DU,DI,0.38,YES,0,False,0.33,YES,0.01,0.83,0.64,YES,YES,YES,0.01,0.86,0.87,YES,YES,NO,0,0,5,YES,DU,LI
AF214650_AJ277190,DU,DI,0.31,YES,0,False,0.33,YES,0.01,0.83,0.63,YES,YES,YES,0.01,0.86,0.84,YES,YES,NO,0,0,5,YES,DU,LI
AF214650_AJ277194,DU,DI,0.38,YES,0,False,0.32,YES,0.01,0.93,0.66,YES,YES,YES,0.01,0.92,0.77,YES,YES,NO,0,0,5,YES,DU,LI
AF214650_AJ320165,DU,DI,0.44,YES,0,False,0.7,YES,0.01,1,0.5,YES,YES,YES,0.02,1,0.79,YES,YES,NO,0,0,5,YES,DU,LI
AF214650_AJ320164,DU,DI,0.44,YES,0,False,0.92,YES,0.01,1,0.78,YES,YES,YES,0.01,0.85,1.3,YES,YES,NO,0,0,5,YES,DU,LI
AF214650_AJ320161,DU,DI,0.38,YES,0,False,0.46,YES,0.01,0.83,0.45,YES,YES,YES,0.01,1,2.4,YES,YES,NO,0,0,5,YES,DU,LI
AF214650_AJ320163,DU,DI,0.38,YES,0,False,0.36,YES,0.01,0.93,0.58,YES,YES,YES,0.01,1,2.5,YES,YES,NO,0,0,5,YES,DU,LI
AF214650_AJ320162,DU,DI,0.44,YES,0,False,0.44,YES,0.01,1,0.31,YES,YES,YES,0.03,1,0.53,YES,YES,YES,0.05,0.71,0.021,YES,DU,LI
AF214650_AJ277178,DU,DI,0.38,YES,0,False,0.68,YES,0.02,0.84,0.3,YES,YES,YES,0.03,0.87,0.7,YES,YES,NO,0,0,5,YES,DU,LI
AF214650_BT003484,DU,DI,0.11,NO,0,False,0.21,YES,0.01,0.9,0.007,YES,YES,YES,0.01,0.86,0.74,YES,YES,NO,0,0,5,YES,DU,LI
AY122193_AL034544,DU,DI,0.22,NO,0,False,0.2,YES,0,0.92,0.0007,NO,NO,NO,0,0,5,YES,NO,NO,0,0,5,YES,DU,EF
U51619_M18022,DU,DI,0.18,YES,0,N/A,0.49,YES,0.03,0.78,0.0001,NO,YES,YES,0.04,0.84,0.002,YES,YES,YES,0.02,0.38,1.6,YES,DU,EF
U31961_X15080,DU,DI,0.24,YES,0,N/A,0.01,YES,0,0.99,0,NO,YES,YES,0,0.93,0.13,YES,YES,YES,0.02,0.42,1.3,YES,DU,EF
X73219_M16428,DU,DI,0.25,YES,0,N/A,0.07,YES,0,1,0.14,YES,YES,YES,0.02,1,0.8,YES,YES,YES,0.03,0.36,1.3,YES,DU,LI
X73219_M16429,DU,DI,0.25,YES,0,N/A,0.15,YES,0,0.89,0.027,YES,YES,YES,0.02,0.92,0.88,YES,YES,YES,0.03,0.36,1.3,YES,DU,LI
AB120952_AB120943,DU,DI,0.5,YES,0.5,True,0.32,YES,0.01,0.93,0.26,YES,YES,YES,0.01,0.93,0.17,YES,YES,YES,0.04,0.24,0.22,YES,DU,LI
AB120952_AB120942,DU,DI,0.5,YES,0.5,True,0.32,YES,0.01,0.93,0.27,YES,YES,YES,0.01,0.93,0.23,YES,YES,YES,0.03,0.31,0.98,YES,DU,LI
X60196_X53155,DU,DI,0.14,YES,0,True,0.33,YES,0,0.8,0.068,YES,YES,YES,0,0.8,0.059,YES,YES,YES,0.01,0.53,1.6,YES,DU,LI
S60740_X16825,DU,DI,0.29,YES,0,N/A,0.27,YES,0.01,0.86,0.017,YES,YES,YES,0.1,0.89,0.79,YES,YES,NO,0,0,5,YES,DU,LI
X12946_X12945,DU,DI,0.5,YES,0,False,0.31,YES,0.01,0.92,5.8,YES,NO,NO,0,0,5,YES,NO,NO,0,0,5,YES,DU,LI
X75027_AY061233,DU,DI,0,NO,0,False,0.47,YES,0.03,1,0,NO,YES,YES,0.01,1,0.27,YES,YES,YES,0.01,0.75,2.9,YES,DU,EF
X54652_AY051808,DU,DI,0.09,NO,0,False,0.89,YES,0.01,1,0.059,YES,NO,NO,0,0,5,YES,NO,NO,0,0,5,YES,DU,LI
AY051501_L25122,DU,DI,0.15,NO,0,N/A,0.13,YES,0.01,0.79,0.13,YES,YES,YES,0.01,0.79,0.11,YES,YES,YES,0.01,0.33,0.48,YES,DU,LI
AF220180_U72492,DU,DI,0.5,YES,0,False,0.02,YES,0,1,0.26,YES,YES,YES,0,1,0.39,YES,YES,NO,0,0,5,YES,DU,LI
AF220180_U14403,DU,DI,0.33,YES,0,False,0.29,YES,0.02,1,0.24,YES,YES,YES,0.01,1,0.28,YES,YES,NO,0,0,5,YES,DU,LI
AF220180_AF039231,DU,DI,0.5,YES,0,False,0.03,YES,0,1,0.18,YES,YES,YES,0,1,0.45,YES,YES,NO,0,0,5,YES,DU,LI
AF220180_AY152838,DU,DI,0.6,YES,0,True,0.21,YES,0.02,1,0.33,YES,YES,YES,0.01,1,0.33,YES,YES,NO,0,0,5,YES,DU,LI
AF220180_D84437,DU,DI,0.6,YES,0,True,0.04,YES,0,1,0.14,YES,YES,YES,0,1,0.5,YES,YES,NO,0,0,5,YES,DU,LI
AF220180_D84438,DU,DI,0.5,YES,0,True,0.15,YES,0.02,0.79,0.46,YES,YES,YES,0.02,1,1.5,YES,YES,NO,0,0,5,YES,DU,LI
AF220180_BT024450,DU,DI,0.17,NO,0,False,0.03,YES,0,1,0.17,YES,YES,YES,0,1,0.56,YES,YES,NO,0,0,5,YES,DU,LI
AF220181_U14403,DU,DI,0.33,YES,0,False,0.5,YES,0.03,0.86,0.43,YES,YES,YES,0.03,0.86,0.43,YES,YES,YES,0.03,0.57,1.8,YES,DU,LI
AF220181_D84438,DU,DI,0.5,YES,0,True,0.26,YES,0.01,0.85,2.9,YES,YES,YES,0.05,0.91,0.64,YES,YES,NO,0,0,5,YES,DU,LI
AJ001722_AJ001718,DU,DI,0.47,YES,0.5,True,0.62,YES,0.02,0.86,1.3,YES,YES,YES,0.01,1,0.81,YES,YES,YES,0.02,0.4,2.4,YES,DU,LI
AY075365_AY058793,DU,DI,0.5,NO,0,True,0.75,YES,0.02,0.96,0,NO,YES,YES,0.01,0.88,0.38,YES,YES,YES,0.02,0.28,9.5,YES,DU,EF
BT015234_S63761,DU,DI,0.13,NO,0,N/A,0.26,YES,0,0.93,0.54,YES,YES,YES,0.01,0.84,0.66,YES,YES,YES,0.01,0.4,2.3,YES,DU,LI
AY084175_BT150052,DU,DI,0.71,NO,0,True,0.52,YES,0.07,0.99,0,NO,YES,YES,0.01,1,0.45,YES,YES,YES,0.01,0.3,1.2,YES,DU,EF
AY052066_AL035312,DU,DI,0.22,NO,0,False,0.29,YES,0.01,0.77,0,NO,YES,YES,0.01,0.96,0,NO,YES,YES,0.02,0.39,0.47,YES,DU,EF
BT022150_BT150052,DU,DI,0.71,NO,0,True,0.94,YES,0.01,0.96,0.000001,NO,YES,YES,0.01,1,0.39,YES,YES,YES,0.01,0.3,0.94,YES,DU,EF
AF070062_BT024968,DU,DI,0.14,NO,0,False,0.54,YES,0.01,0.85,0.00001,NO,YES,YES,0.01,1,0.75,YES,YES,YES,0.02,0.53,0.41,YES,DU,EF
AF070063_BT024968,DU,DI,0.13,NO,0,False,0.42,YES,0.01,0.77,0.00002,NO,YES,YES,0.01,0.76,0.008,YES,YES,YES,0.01,0.53,0.62,YES,DU,EF
BT003484_X75499,DU,DI,0,NO,0,False,0.27,YES,0.01,0.84,0,NO,YES,YES,0.01,0.78,0.12,YES,YES,YES,0.01,0.26,1.7,YES,DU,EF
BT003484_AF214649,DU,DI,0.14,NO,0,False,0.37,YES,0.01,0.78,0.49,YES,YES,YES,0.01,0.78,0.074,YES,YES,YES,0.01,0.4,6.5,YES,DU,LI
BT003484_AF214648,DU,DI,0.17,NO,0,False,0.37,YES,0.01,0.78,0.49,YES,YES,YES,0.01,0.78,0.098,YES,YES,YES,0.01,0.38,9.9,YES,DU,LI
BT003484_AY061580,DU,DI,0.71,NO,0,True,0.39,YES,0.01,0.96,0.000007,NO,YES,YES,0.01,1,0.11,YES,YES,YES,0.02,0.45,0.76,YES,DU,EF
AY368098_M27292,DU,DI,0.05,YES,0,N/A,0.29,YES,0.01,0.89,0.054,YES,YES,YES,0.01,0.89,0.024,YES,YES,YES,0.02,0.63,5.8,YES,DU,LI
AY368099_M27292,DU,DI,0.05,YES,0,N/A,0.29,YES,0.01,0.89,0.054,YES,YES,YES,0.01,0.89,0.024,YES,YES,YES,0.02,0.63,5.8,YES,DU,LI
J03927_M13786,DU,DI,0.5,YES,0,N/A,0.06,YES,0,1,1.1,YES,YES,YES,0.01,1,0.75,YES,YES,NO,0,0,5,YES,DU,LI
AF509933_BT011082,DU,DI,0.17,NO,0,False,0.94,YES,0.01,0.82,0.0002,NO,YES,YES,0.01,0.82,0.00008,NO,YES,NO,0,0,5,YES,DU,EF
M74078_S63761,DU,DI,0.12,YES,0,N/A,0.19,YES,0,1,0.005,YES,YES,YES,0.01,0.84,0.66,YES,YES,YES,0.01,0.4,2.3,YES,DU,LI
AY051776_BT022131,DU,DI,0.5,NO,0,True,0.65,YES,0,1,0.0007,NO,YES,YES,0.01,0.9,0.019,YES,YES,NO,0,0,5,YES,DU,EF
AY051776_BT023142,DU,DI,0.5,NO,0,True,0.65,YES,0,1,0.009,YES,YES,YES,0.01,0.9,0.019,YES,YES,NO,0,0,5,YES,DU,LI
AY069302_S51722,DU,DI,0.12,NO,0,N/A,0.05,YES,0.01,0.88,0.027,YES,YES,YES,0.02,0.88,0.008,YES,YES,NO,0,0,5,YES,DU,LI
X59436_X59448,DU,DI,0.27,YES,0,False,0.31,YES,0,0.94,0.1,YES,YES,YES,0.01,0.87,0.53,YES,YES,YES,0,1,7.9,YES,DU,LI
X05948_Y00133,DU,DI,0.3,YES,0,False,0.42,YES,0.01,1,2.4,YES,YES,NO,0,0,5,YES,YES,NO,0,0,5,YES,DU,LI
AJ400900_AF045778,DU,DI,0.27,YES,0,False,0.23,YES,0.01,0.84,0.52,YES,YES,YES,0.02,0.8,0.62,YES,YES,NO,0,0,5,YES,DU,LI
AJ400900_AJ012279,DU,DI,0.36,YES,0,False,0.74,YES,0.04,0.77,0.085,YES,YES,YES,0.04,0.77,0.085,YES,YES,NO,0,0,5,YES,DU,LI
AJ400900_AJ400902,DU,DI,0.5,YES,0.5,True,0.33,YES,0.01,0.89,0.029,YES,YES,YES,0.01,0.89,0.029,YES,YES,YES,0.01,0.6,0.27,YES,DU,LI
AJ400900_AF135062,DU,DI,0.4,YES,0,False,0.55,YES,0.01,0.92,0.74,YES,YES,YES,0.01,0.92,0.74,YES,YES,YES,0.02,0.63,4.9,YES,DU,LI
AJ400900_AB026845,DU,DI,0.27,YES,0,False,0.03,YES,0,1,0.0005,NO,YES,YES,0,1,0.0005,NO,YES,YES,0,0.33,0.31,YES,DU,EF
AJ400900_AF045777,DU,DI,0.4,YES,0,False,0.59,YES,0.03,0.89,0.006,YES,YES,YES,0.03,0.89,0.006,YES,YES,YES,0.02,0.2,1.8,YES,DU,LI
AJ400900_AJ012280,DU,DI,0.36,YES,0,False,0.77,YES,0.02,0.92,0.53,YES,YES,YES,0.02,0.92,0.53,YES,YES,YES,0.02,0.63,3.2,YES,DU,LI
AJ400900_AF241648,DU,DI,0.4,YES,0,False,0.55,YES,0.01,0.92,0.74,YES,YES,YES,0.01,0.92,0.74,YES,YES,YES,0.02,0.63,4.9,YES,DU,LI
AJ400900_AF241649,DU,DI,0.27,YES,0,False,0.48,YES,0.01,0.87,0.85,YES,YES,YES,0.01,0.87,0.85,YES,YES,YES,0.01,0.71,1.4,YES,DU,LI
AJ400900_AF045775,DU,DI,0.4,YES,0,False,0.17,YES,0.01,0.77,0.68,YES,YES,YES,0.01,0.77,0.59,YES,YES,YES,0.01,0.33,0.055,YES,DU,LI
AJ400900_AF045776,DU,DI,0.4,YES,0,False,0.5,YES,0.02,0.84,0.24,YES,YES,YES,0.02,0.84,0.24,YES,YES,YES,0.03,0.33,0.54,YES,DU,LI
AJ400901_AJ012279,DU,DI,0.36,YES,0,False,0.89,YES,0.05,0.78,0.02,YES,YES,YES,0.05,0.78,0.011,YES,YES,NO,0,0,5,YES,DU,LI
AJ400901_AF045778,DU,DI,0.27,YES,0,False,0.19,YES,0.01,0.9,0.035,YES,YES,YES,0.01,1,0.27,YES,YES,YES,0.02,0.83,3.2,YES,DU,LI
AJ400901_AF135062,DU,DI,0.4,YES,0,False,0.46,YES,0.01,1,2.1,YES,YES,YES,0.01,0.92,1.1,YES,YES,YES,0.02,0.71,4.9,YES,DU,LI
AJ400901_AJ245406,DU,DI,0.3,YES,0,False,0.01,YES,0,0.81,0.56,YES,YES,YES,0,0.78,0.4,YES,YES,YES,0,0.56,3.5,YES,DU,LI
AJ400901_AB026845,DU,DI,0.27,YES,0,False,0.03,YES,0,0.78,0.81,YES,YES,YES,0,0.78,0.4,YES,YES,YES,0,0.56,4.3,YES,DU,LI
AJ400901_BK000146,DU,DI,0.25,YES,0,False,0.01,YES,0,0.95,0.23,YES,YES,YES,0,0.95,0.12,YES,YES,YES,0,0.42,0.67,YES,DU,LI
AJ400901_AJ012280,DU,DI,0.36,YES,0,False,0.64,YES,0.02,0.92,1.5,YES,YES,YES,0.02,0.92,0.81,YES,YES,YES,0.02,0.71,3.3,YES,DU,LI
AJ400901_AF241648,DU,DI,0.4,YES,0,False,0.46,YES,0.01,1,2.1,YES,YES,YES,0.01,0.92,1.1,YES,YES,YES,0.02,0.71,4.9,YES,DU,LI
AJ400901_AF241649,DU,DI,0.27,YES,0,False,0.4,YES,0.01,1,2.5,YES,YES,YES,0.01,1,1.3,YES,YES,NO,0,0,5,YES,DU,LI
AJ400901_AF045775,DU,DI,0.4,YES,0,False,0.15,YES,0.01,0.78,0.16,YES,YES,YES,0.01,0.78,0.074,YES,YES,NO,0,0,5,YES,DU,LI
AJ400901_AF045776,DU,DI,0.4,YES,0,False,0.41,YES,0.01,1,0.056,YES,YES,YES,0.01,1,0.03,YES,YES,NO,0,0,5,YES,DU,LI
AJ400901_AF045777,DU,DI,0.4,YES,0,False,0.71,YES,0.05,0.81,0.057,YES,YES,YES,0.04,0.92,0.1,YES,YES,YES,0.04,0.8,2.1,YES,DU,LI
AJ400902_AJ012279,DU,DI,0.4,YES,0,False,0.25,YES,0.01,1,0.26,YES,YES,YES,0.01,1,0.26,YES,YES,YES,0.01,0.67,6.5,YES,DU,LI
AJ400902_AJ012280,DU,DI,0.4,YES,0,False,0.43,YES,0.01,1,1.6,YES,YES,YES,0.01,1,1.6,YES,YES,YES,0.02,0.32,0.33,YES,DU,LI
AJ400902_AF045778,DU,DI,0.3,YES,0,False,0.68,YES,0.01,0.94,0.13,YES,YES,YES,0.01,0.93,0.16,YES,YES,YES,0.04,0.42,0.034,YES,DU,LI
AJ400902_AF135062,DU,DI,0.44,YES,0,False,0.6,YES,0.01,1,2.3,YES,YES,YES,0.01,1,2.3,YES,YES,YES,0.02,0.32,0.43,YES,DU,LI
AJ400902_AJ245406,DU,DI,0.33,YES,0,False,0.04,YES,0,0.86,0.014,YES,YES,YES,0,1,0.82,YES,YES,YES,0,0.43,0.15,YES,DU,LI
AJ400902_AB026845,DU,DI,0.3,YES,0,False,0.1,YES,0,0.83,0.86,YES,YES,YES,0,0.83,0.81,YES,YES,YES,0,0.43,0.17,YES,DU,LI
AJ400902_AF045777,DU,DI,0.44,YES,0,False,0.2,YES,0.01,0.93,0.059,YES,YES,YES,0.01,0.93,0.059,YES,YES,YES,0.03,0.35,0.12,YES,DU,LI
AJ400902_AF241648,DU,DI,0.44,YES,0,False,0.6,YES,0.01,1,2.3,YES,YES,YES,0.01,1,2.3,YES,YES,YES,0.02,0.32,0.43,YES,DU,LI
AJ400902_AF241649,DU,DI,0.3,YES,0,False,0.69,YES,0.02,0.8,0.018,YES,YES,YES,0.02,0.8,0.018,YES,YES,YES,0.02,0.31,1.9,YES,DU,LI
AJ400902_AF045775,DU,DI,0.44,YES,0,False,0.52,YES,0,1,2.1,YES,YES,YES,0,1,1.8,YES,YES,YES,0.01,0.83,2.5,YES,DU,LI
AJ400902_AF045776,DU,DI,0.44,YES,0,False,0.67,YES,0.01,1,0.059,YES,YES,YES,0.01,1,0.059,YES,YES,YES,0.02,0.35,6.3,YES,DU,LI
X70866_AL034544,DU,DI,0.09,YES,0,False,0.08,YES,0,0.76,0.13,YES,NO,NO,0,0,5,YES,NO,NO,0,0,5,YES,DU,LI
X70865_AL034544,DU,DI,0.09,YES,0,False,0.06,YES,0,0.86,0.1,YES,NO,NO,0,0,5,YES,NO,NO,0,0,5,YES,DU,LI
X70863_AL034544,DU,DI,0.09,YES,0,False,0.23,YES,0,0.83,0,NO,NO,NO,0,0,5,YES,NO,NO,0,0,5,YES,DU,EF
X70862_AL034544,DU,DI,0.09,YES,0,False,0.21,YES,0,1,0.0007,NO,NO,NO,0,0,5,YES,NO,NO,0,0,5,YES,DU,EF
AF039231_AF220179,DU,DI,0.5,YES,0,False,0.21,YES,0.01,0.83,0,NO,YES,YES,0.01,0.85,0,NO,YES,YES,0.01,0.56,1.3,YES,DU,EF
AF545819_U03883,DU,DI,0.31,YES,0,False,0.62,YES,0.02,0.78,0,NO,YES,YES,0.03,0.78,0,NO,YES,YES,0.21,0.36,0,NO,DU,EF
BT003583_S88324,DU,DI,0.17,NO,0,N/A,0.07,YES,0,0.89,0.04,YES,YES,YES,0.01,1,0.031,YES,YES,YES,0.01,0.4,2.8,YES,DU,LI
AJ320165_X75499,DU,DI,0.09,YES,0,True,0.56,YES,0.02,0.88,0.18,YES,YES,YES,0.03,0.78,0.43,YES,YES,YES,0.04,0.3,0.26,YES,DU,LI
AJ320165_AY061580,DU,DI,0.15,NO,0,False,0.38,YES,0.01,0.88,0.26,YES,YES,YES,0.03,0.88,0.4,YES,YES,YES,0.05,0.3,1.5,YES,DU,LI
AJ320165_U30913,DU,DI,0.5,YES,0,False,0.26,YES,0.01,1,0.0002,NO,YES,YES,0.01,1,0.0002,NO,YES,YES,0.02,0.3,0.76,YES,DU,EF
AJ320164_X75499,DU,DI,0.09,YES,0,True,0.87,YES,0.01,1,0.08,YES,YES,YES,0.02,1,0.058,YES,YES,NO,0,0,5,YES,DU,LI
AJ320164_AF214649,DU,DI,0.58,YES,0,False,0.62,YES,0.01,1,0.003,YES,YES,YES,0.01,1,0.13,YES,YES,YES,0.02,0.63,5.1,YES,DU,LI
AJ320164_AY061580,DU,DI,0.15,NO,0,False,0.59,YES,0.01,0.93,0.12,YES,YES,YES,0.02,0.93,0.054,YES,YES,YES,0.04,0.28,0.21,YES,DU,LI
AJ320163_AY061580,DU,DI,0.17,NO,0,False,0.66,YES,0.01,0.9,0.000004,NO,YES,YES,0.01,1,0.11,YES,YES,YES,0.03,0.35,0.062,YES,DU,EF
AJ320162_U30913,DU,DI,0.5,YES,0,False,0.16,YES,0.01,1,0.0001,NO,YES,YES,0.01,1,0.0001,NO,YES,YES,0.03,0.31,0.002,YES,DU,EF
AJ320162_AY061580,DU,DI,0.15,NO,0,False,0.24,YES,0.01,0.84,0.58,YES,YES,YES,0.03,0.84,0.26,YES,YES,YES,0.03,0.38,1.3,YES,DU,LI
AY069323_AY094733,DU,DI,0.5,NO,0,True,0.71,YES,0.01,1,0.0002,NO,YES,YES,0.01,0.9,0.029,YES,YES,YES,0.01,0.3,5,YES,DU,EF
AY069323_AY075578,DU,DI,0.71,NO,0,True,0.87,YES,0.01,1,0.0002,NO,YES,YES,0.01,0.94,0.038,YES,YES,YES,0.01,0.3,6,YES,DU,EF
AL109630_AL132651,DU,DI,0.43,YES,0.5,True,0.2,YES,0,1,0,NO,YES,YES,0,1,0.1,YES,YES,YES,0.01,0.26,0.12,YES,DU,EF
L07818_AB029251,DU,DI,0.27,YES,0,N/A,0.33,YES,0.01,0.88,0.14,YES,YES,YES,0.01,0.88,0.13,YES,YES,YES,0.01,0.47,0.6,YES,DU,LI
L07818_AB029250,DU,DI,0.27,YES,0,N/A,0.33,YES,0.01,0.88,0.14,YES,YES,YES,0.01,0.88,0.13,YES,YES,YES,0.01,0.47,0.6,YES,DU,LI
L07818_AB029252,DU,DI,0.27,YES,0,N/A,0.33,YES,0.01,0.88,0.14,YES,YES,YES,0.01,0.88,0.13,YES,YES,YES,0.01,0.47,0.6,YES,DU,LI
AY069184_U55767,DU,DI,0.14,NO,0,False,0.56,YES,0.01,0.78,0,NO,YES,YES,0,0.85,0.7,YES,YES,NO,0,0,5,YES,DU,EF
AF241649_AJ012279,DU,DI,0.3,YES,0,False,0.36,YES,0.02,0.81,0.18,YES,YES,YES,0.02,0.81,0.18,YES,YES,YES,0.07,0.31,0,NO,DU,LI
AF241649_AF135062,DU,DI,0.71,YES,0,True,0.87,YES,0.02,0.91,0.0002,NO,YES,YES,0.02,0.91,0.0002,NO,YES,YES,0.15,0.25,0,NO,DU,EF
AF241649_AB026845,DU,DI,0.33,YES,0,False,0.07,YES,0,0.75,0.0003,NO,YES,YES,0,0.75,0.0003,NO,YES,YES,0.01,0.22,0,NO,DU,EF
AF241649_AJ012280,DU,DI,0.3,YES,0,False,0.63,YES,0.02,0.91,0.0002,NO,YES,YES,0.02,0.91,0.0002,NO,YES,YES,0.12,0.23,0,NO,DU,EF
AF241649_AF045777,DU,DI,0.71,YES,0,False,0.28,YES,0.01,0.87,0.5,YES,YES,YES,0.01,0.87,0.5,YES,YES,YES,0.04,0.3,3.1,YES,DU,LI
X78919_AJ002912,DU,DI,0.11,YES,0,N/A,0.16,YES,0.04,1,0.6,YES,YES,YES,0.04,1,0.6,YES,YES,NO,0,0,5,YES,DU,LI
X78919_X02293,DU,DI,0,YES,0,N/A,0.07,YES,0.02,1,0.39,YES,YES,YES,0.02,1,0.39,YES,YES,NO,0,0,5,YES,DU,LI
X78919_K03417,DU,DI,0.06,YES,0,N/A,0.04,YES,0.02,0.85,0.16,YES,YES,YES,0.02,0.85,0.15,YES,YES,NO,0,0,5,YES,DU,LI
X78919_K03416,DU,DI,0.06,YES,0,N/A,0.05,YES,0.01,1,1.6,YES,YES,YES,0.02,1,1.4,YES,YES,NO,0,0,5,YES,DU,LI
X78918_AJ002912,DU,DI,0.11,YES,0,N/A,0.1,YES,0.04,1,0.3,YES,YES,YES,0.04,1,0.3,YES,YES,NO,0,0,5,YES,DU,LI
X78918_AF052753,DU,DI,0.07,YES,0,N/A,0.03,YES,0.01,1,0.78,YES,YES,YES,0.02,1,0.63,YES,YES,YES,0,1,0.16,YES,DU,LI
X78918_K03417,DU,DI,0.06,YES,0,N/A,0.03,YES,0.01,1,0.28,YES,YES,YES,0.01,1,0.27,YES,YES,NO,0,0,5,YES,DU,LI
X78918_AF109084,DU,DI,0.06,YES,0,N/A,0.03,YES,0.01,1,0.79,YES,YES,YES,0.02,1,0.64,YES,YES,YES,0,1,0.16,YES,DU,LI
X78918_AF109083,DU,DI,0.06,YES,0,N/A,0.03,YES,0.01,1,0.79,YES,YES,YES,0.02,1,0.64,YES,YES,YES,0,1,0.16,YES,DU,LI
BT100187_AY118468,DU,DI,0.71,NO,0,True,0.56,YES,0.01,0.85,0,NO,YES,YES,0.02,0.85,0,NO,YES,YES,0.01,0.44,0.94,YES,DU,EF
AY048023_D00009,DU,DI,0.45,YES,0,N/A,0.75,YES,0.01,0.78,0.27,YES,YES,YES,0.01,1,0.19,YES,YES,YES,0.01,0.37,0.4,YES,DU,LI
S55971_X72830,DU,DI,0.08,YES,0,N/A,0.16,YES,0.01,0.86,0.84,YES,YES,YES,0.02,0.86,0.6,YES,YES,YES,0.03,0.46,2.2,YES,DU,LI
U29592_U03883,DU,DI,0.15,YES,0,False,0.11,YES,0.02,0.75,0.03,YES,YES,YES,0.02,0.75,0.021,YES,YES,YES,0.07,0.41,0,NO,DU,LI
AY069048_AY052091,DU,DI,0.71,NO,0,True,0.85,YES,0.01,1,0.0002,NO,YES,YES,0.01,0.88,0.088,YES,YES,YES,0.02,0.5,2.5,YES,DU,EF
AL035395_M16150,DU,DI,0.15,YES,0,False,0.03,YES,0,0.86,0.001,YES,YES,YES,0.01,1,1.8,YES,YES,YES,0,0.43,0.99,YES,DU,LI
AL035395_M16151,DU,DI,0.17,YES,0,False,0.03,YES,0,0.73,0.14,YES,YES,YES,0.01,0.93,0.039,YES,YES,YES,0,0.43,0.99,YES,DU,LI
AL035395_M16153,DU,DI,0.17,YES,0,False,0.05,YES,0,0.88,0.000003,NO,YES,YES,0.01,0.92,0.84,YES,YES,YES,0,0.43,0.99,YES,DU,EF
AL035395_M13689,DU,DI,0.05,YES,0,N/A,0.03,YES,0,0.88,0.000002,NO,YES,YES,0.02,0.92,0.33,YES,YES,YES,0,0.43,0.99,YES,DU,EF
AL035395_M16025,DU,DI,0,YES,0,N/A,0.02,YES,0,0.88,0.000001,NO,YES,YES,0.04,0.92,0.027,YES,YES,NO,0,0,5,YES,DU,EF
AL035395_M16149,DU,DI,0.17,YES,0,False,0.02,YES,0,0.95,0.002,YES,YES,YES,0.02,1,0.09,YES,YES,YES,0,0.43,0.99,YES,DU,LI
AL035395_K03507,DU,DI,0.05,YES,0,N/A,0.02,YES,0,0.95,0.002,YES,YES,YES,0.02,1,0.06,YES,YES,YES,0,0.43,0.99,YES,DU,LI
AY060257_M25294,DU,DI,0.2,NO,0,N/A,0.48,YES,0.01,0.78,0.015,YES,YES,YES,0.02,0.81,0.006,YES,YES,YES,0.02,0.58,3.9,YES,DU,LI
AY060250_M88473,DU,DI,0.13,NO,0,N/A,0.19,YES,0.01,0.94,0.008,YES,YES,YES,0.04,0.92,0.24,YES,YES,NO,0,0,5,YES,DU,LI
S64534_X76230,DU,DI,0.14,YES,0,N/A,0.31,YES,0.01,0.93,0.2,YES,YES,YES,0.01,0.93,0.19,YES,YES,YES,0.01,0.28,3.9,YES,DU,LI
S64531_X76230,DU,DI,0.14,YES,0,N/A,0.44,YES,0.01,0.88,0.28,YES,YES,YES,0.01,0.88,0.27,YES,YES,YES,0.01,0.28,5.3,YES,DU,LI
S64530_X76230,DU,DI,0.14,YES,0,N/A,0.44,YES,0.01,0.88,0.28,YES,YES,YES,0.01,0.88,0.27,YES,YES,YES,0.01,0.28,5.4,YES,DU,LI
S64532_X76230,DU,DI,0.14,YES,0,N/A,0.37,YES,0.01,0.88,0.24,YES,YES,YES,0.01,0.88,0.23,YES,YES,YES,0.01,0.28,4.7,YES,DU,LI
AB029251_AY575847,DU,DI,0.36,YES,0,False,0.31,YES,0.01,0.88,0.15,YES,YES,YES,0.01,0.88,0.13,YES,YES,YES,0.01,0.47,0.91,YES,DU,LI
AB029251_L07825,DU,DI,0.27,YES,0,N/A,0.33,YES,0.01,0.88,0.14,YES,YES,YES,0.01,0.88,0.13,YES,YES,YES,0.01,0.47,0.88,YES,DU,LI
AB029251_AF251241,DU,DI,0.55,YES,0,False,0.85,YES,0.02,1,0.19,YES,YES,YES,0.02,1,0.17,YES,YES,YES,0.02,0.36,3.1,YES,DU,LI
AB029251_D00009,DU,DI,0.42,YES,0,N/A,0.36,YES,0.01,1,0.037,YES,YES,YES,0.01,1,0.033,YES,YES,YES,0.01,0.36,6.3,YES,DU,LI
AB029250_AY575847,DU,DI,0.36,YES,0,False,0.31,YES,0.01,0.88,0.15,YES,YES,YES,0.01,0.88,0.13,YES,YES,YES,0.01,0.47,0.92,YES,DU,LI
AB029250_L07825,DU,DI,0.27,YES,0,N/A,0.33,YES,0.01,0.88,0.14,YES,YES,YES,0.01,0.88,0.13,YES,YES,YES,0.01,0.47,0.88,YES,DU,LI
AB029250_AF251241,DU,DI,0.55,YES,0,False,0.85,YES,0.02,1,0.19,YES,YES,YES,0.02,1,0.17,YES,YES,YES,0.02,0.36,3.1,YES,DU,LI
AB029250_D00009,DU,DI,0.42,YES,0,N/A,0.36,YES,0.01,1,0.037,YES,YES,YES,0.01,1,0.033,YES,YES,YES,0.01,0.37,3.9,YES,DU,LI
AB029252_L07825,DU,DI,0.27,YES,0,N/A,0.33,YES,0.01,0.88,0.14,YES,YES,YES,0.01,0.88,0.13,YES,YES,YES,0.01,0.47,0.88,YES,DU,LI
AB029252_D00009,DU,DI,0.42,YES,0,N/A,0.36,YES,0.01,1,0.037,YES,YES,YES,0.01,1,0.033,YES,YES,YES,0.01,0.37,3.9,YES,DU,LI
AB029252_AY575847,DU,DI,0.36,YES,0,False,0.31,YES,0.01,0.88,0.15,YES,YES,YES,0.01,0.88,0.13,YES,YES,YES,0.01,0.47,0.92,YES,DU,LI
AB029252_AF251241,DU,DI,0.55,YES,0,False,0.85,YES,0.02,1,0.19,YES,YES,YES,0.02,1,0.17,YES,YES,YES,0.02,0.36,3.1,YES,DU,LI
AF135167_AJ400900,DU,DI,0.36,YES,0,False,0.32,YES,0.01,0.87,1.3,YES,YES,YES,0.01,0.87,0.85,YES,YES,YES,0.01,0.71,1.5,YES,DU,LI
AF135167_AJ400901,DU,DI,0.36,YES,0,False,0.26,YES,0.01,1,3.8,YES,YES,YES,0.01,1,1.3,YES,YES,NO,0,0,5,YES,DU,LI
AF135167_AJ400902,DU,DI,0.4,YES,0,False,0.95,YES,0.01,0.8,0.027,YES,YES,YES,0.02,0.8,0.018,YES,YES,YES,0.03,0.22,3.4,YES,DU,LI
AF135167_AJ238577,DU,DI,0.36,YES,0,False,0.59,YES,0.01,0.95,0.004,YES,YES,YES,0.01,0.95,0.003,YES,YES,YES,0.06,0.25,0,NO,DU,LI
AF135167_AF045778,DU,DI,0.63,YES,0,False,0.72,YES,0.01,0.89,0.039,YES,YES,YES,0.01,0.93,0.37,YES,YES,NO,0,0,5,YES,DU,LI
AY058278_BT024951,DU,DI,0.5,NO,0,True,0.75,YES,0.01,0.95,0.0001,NO,YES,YES,0.01,0.9,0.003,YES,YES,YES,0.03,0.33,1.2,YES,DU,EF
AY058278_BT001424,DU,DI,0.5,NO,0,True,0.57,YES,0.01,0.95,0.00008,NO,YES,YES,0.01,0.83,0.013,YES,YES,NO,0,0,5,YES,DU,EF
M14978_X55175,DU,DI,0.08,YES,0,N/A,0.89,YES,0.02,1,1.6,YES,NO,NO,0,0,5,YES,NO,NO,0,0,5,YES,DU,LI
M14978_X55169,DU,DI,0.08,YES,0,N/A,0.4,YES,0.02,1,1.9,YES,NO,NO,0,0,5,YES,NO,NO,0,0,5,YES,DU,LI
M14979_X55174,DU,DI,0.08,YES,0,N/A,0.34,YES,0.02,1,3.1,YES,NO,NO,0,0,5,YES,NO,NO,0,0,5,YES,DU,LI
AF186651_X12558,DU,DI,0.25,YES,0,N/A,0.38,YES,0.01,1,1.2,YES,YES,YES,0.02,0.85,0.4,YES,YES,NO,0,0,5,YES,DU,LI
AF186651_X07255,DU,DI,0.18,YES,0,False,0.62,YES,0.01,1,1.9,YES,YES,YES,0.02,0.85,0.79,YES,YES,NO,0,0,5,YES,DU,LI
X07627_M13587,DU,DI,0.18,YES,0,N/A,0.19,YES,0.02,0.83,2.3,YES,YES,YES,0.25,0.82,0.22,YES,YES,NO,0,0,5,YES,DU,LI
X07627_X06383,DU,DI,0.36,YES,0,N/A,0.36,YES,0.02,0.88,0.0005,NO,YES,YES,0.04,0.91,0.13,YES,YES,YES,0.06,0.71,0.013,YES,DU,EF
AF251241_L07821,DU,DI,0.33,YES,0,N/A,0.39,YES,0.01,0.8,0.004,YES,YES,YES,0.01,0.8,0.004,YES,YES,YES,0.02,0.5,0.19,YES,DU,LI
AF251241_AY575847,DU,DI,0.6,YES,0,False,0.37,YES,0.01,0.8,0.004,YES,YES,YES,0.01,0.8,0.004,YES,YES,YES,0.02,0.53,0.19,YES,DU,LI
AF251241_L07825,DU,DI,0.33,YES,0,N/A,0.39,YES,0.01,0.8,0.004,YES,YES,YES,0.01,0.8,0.004,YES,YES,YES,0.02,0.5,0.19,YES,DU,LI
AF251241_L07823,DU,DI,0.33,YES,0,N/A,0.39,YES,0.01,0.8,0.004,YES,YES,YES,0.01,0.8,0.004,YES,YES,YES,0.02,0.5,0.19,YES,DU,LI
L07817_AB029251,DU,DI,0.27,YES,0,N/A,0.33,YES,0.01,0.88,0.14,YES,YES,YES,0.01,0.88,0.12,YES,YES,YES,0.01,0.47,0.59,YES,DU,LI
L07817_AB029250,DU,DI,0.27,YES,0,N/A,0.33,YES,0.01,0.88,0.14,YES,YES,YES,0.01,0.88,0.12,YES,YES,YES,0.01,0.47,0.59,YES,DU,LI
L07817_AB029252,DU,DI,0.27,YES,0,N/A,0.33,YES,0.01,0.88,0.14,YES,YES,YES,0.01,0.88,0.12,YES,YES,YES,0.01,0.47,0.59,YES,DU,LI
AL138972_AY118386,DU,DI,0.22,NO,0,False,0.01,YES,0,1,0,NO,YES,YES,0,0.82,0.75,YES,YES,YES,0.01,0.43,0.83,YES,DU,EF
M16431_X12558,DU,DI,0.1,YES,0,N/A,0.57,YES,0.02,1,0.79,YES,YES,YES,0.03,0.85,0.31,YES,YES,YES,0.04,1,0.016,YES,DU,LI
M37495_BT024968,DU,DI,0.17,NO,0,N/A,0.78,YES,0.01,0.82,0.72,YES,YES,YES,0.01,1,0.75,YES,YES,YES,0.02,0.53,0.39,YES,DU,LI
AY565835_BT029038,DU,DI,0.14,NO,0,False,0.45,YES,0.01,0.86,0.027,YES,YES,YES,0.02,0.86,0.012,YES,YES,YES,0.02,0.55,2.9,YES,DU,LI
K01948_AY060407,DU,DI,0,NO,0,N/A,0.05,YES,0,0.84,0.37,YES,YES,YES,0.01,0.91,3.4,YES,YES,NO,0,0,5,YES,DU,LI
K01947_X78905,DU,DI,0.21,YES,0,N/A,0.16,YES,0.04,0.9,0.41,YES,YES,YES,0.04,0.9,0.41,YES,YES,NO,0,0,5,YES,DU,LI
AB026845_AJ238577,DU,DI,0.17,YES,0,False,0.19,YES,0,1,0.44,YES,YES,YES,0,1,0.42,YES,YES,YES,0.01,0.26,0,NO,DU,LI
AY094763_BT004875,DU,DI,0.71,NO,0,True,0.58,YES,0.02,1,0,NO,YES,YES,0.01,1,2.1,YES,YES,NO,0,0,5,YES,DU,EF
AY094763_M15765,DU,DI,0,NO,0,N/A,0.88,YES,0.03,1,0,NO,YES,YES,0.01,1,1.9,YES,YES,NO,0,0,5,YES,DU,EF
AY094763_L37083,DU,DI,0.15,NO,0,N/A,0.58,YES,0.02,1,0,NO,YES,YES,0.01,1,2.1,YES,YES,NO,0,0,5,YES,DU,EF
AY094763_U13178,DU,DI,0.14,NO,0,False,0.6,YES,0.02,1,0,NO,YES,YES,0.01,1,2.1,YES,YES,NO,0,0,5,YES,DU,EF
U72492_AF220179,DU,DI,0.5,YES,0,False,0.15,YES,0.01,0.83,0,NO,YES,YES,0.02,0.85,0,NO,YES,YES,0.02,0.21,0.86,YES,DU,EF
U72492_AF220181,DU,DI,0.5,YES,0,False,0.04,YES,0,0.93,0.46,YES,YES,YES,0.01,0.93,0.17,YES,YES,YES,0.04,0.43,0,NO,DU,LI
BT029698_X75499,DU,DI,0,NO,0,False,0.53,YES,0.02,0.97,0,NO,YES,YES,0.01,0.78,0.11,YES,YES,YES,0.01,0.26,1.6,YES,DU,EF
BT029698_AF214649,DU,DI,0.14,NO,0,False,0.73,YES,0.01,0.78,0.25,YES,YES,YES,0.01,0.78,0.072,YES,YES,YES,0.01,0.4,6.7,YES,DU,LI
BT029698_AY061580,DU,DI,0.71,NO,0,True,0.77,YES,0.01,1,0,NO,YES,YES,0.01,1,0.11,YES,YES,YES,0.02,0.45,0.73,YES,DU,EF
BT029698_AF214648,DU,DI,0.17,NO,0,False,0.73,YES,0.01,0.78,0.25,YES,YES,YES,0.01,0.78,0.095,YES,YES,YES,0.01,0.38,9.4,YES,DU,LI
M73529_AY075410,DU,DI,0.17,NO,0,False,0.81,YES,0.01,0.79,0.0002,NO,YES,YES,0.01,0.79,0.00003,NO,YES,YES,0.01,0.37,4.2,YES,DU,EF
X17471_AY174097,DU,DI,0,YES,0,N/A,0.06,YES,0,0.89,0.3,YES,YES,YES,0.02,1,0.17,YES,YES,NO,0,0,5,YES,DU,LI
X17471_AY174098,DU,DI,0,YES,0,N/A,0.08,YES,0,1,0.71,YES,YES,YES,0,1,1.6,YES,YES,YES,0.02,0.5,0.86,YES,DU,LI
X17471_U55767,DU,DI,0,NO,0,N/A,0.13,YES,0,1,0.45,YES,YES,YES,0.02,1,0.41,YES,YES,NO,0,0,5,YES,DU,LI
BT025955_AY113420,DU,DI,0.71,NO,0,True,0.79,YES,0.01,0.93,0.65,YES,YES,YES,0.01,1,0.76,YES,YES,YES,0.03,0.47,0.34,YES,DU,LI
BT025955_BT011082,DU,DI,0.71,NO,0,True,0.35,YES,0.01,0.92,0,NO,YES,YES,0.01,1,1,YES,YES,NO,0,0,5,YES,DU,EF
BT025957_AY113420,DU,DI,0.71,NO,0,True,0.7,YES,0.01,0.93,0.58,YES,YES,YES,0.01,1,0.94,YES,YES,YES,0.03,0.47,0.29,YES,DU,LI
BT025957_BT011082,DU,DI,0.71,NO,0,True,0.31,YES,0.01,0.92,0,NO,YES,YES,0.02,0.82,0.00002,NO,YES,YES,0.01,0.43,4.9,YES,DU,EF
S65724_M74583,DU,DI,0.33,YES,0,N/A,0.04,YES,0.01,0.94,0.15,YES,YES,YES,0.01,0.94,0.073,YES,YES,YES,0.01,0.33,2.2,YES,DU,LI
AY779914_AY906593,DU,DI,0.24,YES,0,False,0.01,YES,0.01,0.97,0,NO,YES,YES,0.11,0.74,0,NO,YES,YES,0.28,0.38,0,NO,DU,EF
M13360_J02788,DU,DI,0.5,YES,0,N/A,0.59,YES,0,0.84,0.46,YES,YES,YES,0.01,0.81,0.5,YES,YES,YES,0.02,0.33,1.8,YES,DU,LI
M13360_X60196,DU,DI,0.38,YES,0,N/A,0.99,YES,0.01,0.89,0.27,YES,YES,YES,0.01,0.88,0.58,YES,YES,YES,0.03,0.5,0.37,YES,DU,LI
D13004_L07585,DU,DI,0.33,YES,0,N/A,0.66,YES,0.01,0.78,0.018,YES,NO,NO,0,0,5,YES,NO,NO,0,0,5,YES,DU,LI
K01963_X05427,DU,DI,0.27,YES,0,N/A,0.05,YES,0,0.82,4.6,YES,YES,YES,0.07,0.76,0.8,YES,YES,NO,0,0,5,YES,DU,LI
K01962_X12558,DU,DI,0.07,YES,0,N/A,0.56,YES,0.02,1,0.8,YES,YES,YES,0.03,0.85,0.29,YES,YES,NO,0,0,5,YES,DU,LI
K01962_X07255,DU,DI,0,YES,0,N/A,0.91,YES,0.02,1,1.3,YES,YES,YES,0.03,0.85,0.58,YES,YES,NO,0,0,5,YES,DU,LI
K01961_X07255,DU,DI,0,YES,0,N/A,0.7,YES,0.03,0.82,0.82,YES,YES,YES,0.02,1,5.1,YES,YES,NO,0,0,5,YES,DU,LI
K01961_X12558,DU,DI,0.07,YES,0,N/A,0.89,YES,0.03,0.92,0.5,YES,YES,YES,0.02,1,2.6,YES,YES,NO,0,0,5,YES,DU,LI
X55172_M14981,DU,DI,0.08,YES,0,N/A,0.34,YES,0.02,1,3.1,YES,NO,NO,0,0,5,YES,NO,NO,0,0,5,YES,DU,LI
X55173_M14981,DU,DI,0.08,YES,0,N/A,0.47,YES,0.02,1,0.35,YES,NO,NO,0,0,5,YES,NO,NO,0,0,5,YES,DU,LI
X55174_M14980,DU,DI,0.08,YES,0,N/A,0.47,YES,0.02,1,0.35,YES,NO,NO,0,0,5,YES,NO,NO,0,0,5,YES,DU,LI
AE003524_AY071567,DU,DI,0.15,NO,0,False,0,YES,0,1,0,NO,YES,YES,0,1,0.17,YES,YES,YES,0.02,0.38,1.8,YES,DU,EF
X53332_AL034544,DU,DI,0,YES,0,False,0.18,YES,0,0.93,0.000001,NO,NO,NO,0,0,5,YES,NO,NO,0,0,5,YES,DU,EF
AF238309_X73045,DU,DI,0,NO,0,False,0.16,YES,0.01,0.94,0,NO,YES,YES,0.03,0.94,0,NO,YES,YES,0.02,0.75,0.21,YES,DU,EF
AY051607_BT125874,DU,DI,0.5,NO,0,True,0.87,YES,0.01,1,0.00003,NO,YES,YES,0.01,0.89,0.049,YES,YES,YES,0.02,0.32,0.066,YES,DU,EF
U87150_AF003107,DU,DI,0.45,YES,0,False,0.27,YES,0.01,0.93,2,YES,YES,YES,0.01,1,0.27,YES,YES,NO,0,0,5,YES,DU,LI
S74010_M37783,DU,DI,0,YES,0,N/A,0.06,YES,0,0.89,0.12,YES,YES,YES,0.03,1,0.14,YES,YES,YES,0.05,0.22,0.6,YES,DU,LI
S74010_X03875,DU,DI,0.08,YES,0,N/A,0.1,YES,0.01,0.81,0.067,YES,YES,YES,0.02,0.81,0.038,YES,YES,YES,0.01,0.33,4.1,YES,DU,LI
S74010_AY089560,DU,DI,0.18,NO,0,N/A,0.07,YES,0,0.84,0.37,YES,YES,YES,0,0.87,1.2,YES,YES,NO,0,0,5,YES,DU,LI
S74010_X03877,DU,DI,0,YES,0,N/A,0.43,YES,0.02,0.86,0.69,YES,YES,YES,0.04,1,0.16,YES,YES,YES,0.02,0.67,6.9,YES,DU,LI
S74010_X03878,DU,DI,0.08,YES,0,N/A,0.97,YES,0.05,0.85,0.98,YES,YES,YES,0.05,0.85,0.81,YES,YES,YES,0.05,0.44,1.9,YES,DU,LI
S74010_AF129814,DU,DI,0.31,YES,0,N/A,0.11,YES,0,1,0.79,YES,YES,YES,0,1,0.79,YES,YES,YES,0.01,0.37,7.1,YES,DU,LI
AY565871_BT030824,DU,DI,0.14,NO,0,False,0.23,YES,0.01,1,0.0003,NO,YES,YES,0.02,0.86,0.009,YES,YES,YES,0.03,0.25,3.2,YES,DU,EF
BT011074_AY122251,DU,DI,0.71,NO,0,True,0.23,YES,0,1,0.0007,NO,YES,YES,0.01,1,1.3,YES,YES,NO,0,0,5,YES,DU,EF
AJ012280_AF045778,DU,DI,0.3,YES,0,False,0.3,YES,0.01,0.89,0.68,YES,YES,YES,0.02,0.89,0.23,YES,YES,NO,0,0,5,YES,DU,LI
AJ012280_AJ238577,DU,DI,0.25,YES,0,False,0.24,YES,0,0.93,0.24,YES,YES,YES,0,0.93,0.24,YES,YES,YES,0.05,0.23,0,NO,DU,LI
AJ012280_AJ238575,DU,DI,0.27,YES,0,False,0.11,YES,0,0.88,1.8,YES,YES,YES,0,0.88,0.82,YES,YES,YES,0.13,0.34,0,NO,DU,LI
AJ012280_AF045777,DU,DI,0.44,YES,0,False,0.45,YES,0.01,1,1.1,YES,YES,YES,0.01,1,1.1,YES,YES,YES,0.02,0.8,6.1,YES,DU,LI
AY118468_AY113653,DU,DI,0.71,NO,0,True,0.81,YES,0.02,0.99,0,NO,YES,YES,0.01,0.93,0.17,YES,YES,YES,0.01,0.42,2,YES,DU,EF
AB035812_U26715,DU,DI,0.53,YES,0,False,0.47,YES,0.01,0.86,0.00003,NO,YES,YES,0.01,0.89,0.001,YES,YES,YES,0.02,0.67,4.9,YES,DU,EF
AB035812_U26714,DU,DI,0.47,YES,0,False,0.26,YES,0.01,0.87,0.008,YES,YES,YES,0.01,1,1.3,YES,YES,NO,0,0,5,YES,DU,LI
AB035812_U26717,DU,DI,0.5,YES,0,False,0.58,YES,0.01,0.88,0.16,YES,YES,YES,0.01,0.85,0.41,YES,YES,NO,0,0,5,YES,DU,LI
AB035812_U26716,DU,DI,0.42,YES,0,False,0.21,YES,0.01,0.81,0.0008,NO,YES,YES,0,0.92,0.12,YES,YES,NO,0,0,5,YES,DU,EF
K03508_M16025,DU,DI,0.13,YES,0,N/A,0.06,YES,0,0.88,0.000001,NO,YES,YES,0,1,0.023,YES,YES,YES,0,1,0.003,YES,DU,EF
M16025_M16152,DU,DI,0.15,YES,0,N/A,0.09,YES,0,0.88,0,NO,YES,YES,0,1,0.014,YES,YES,YES,0,1,0.003,YES,DU,EF
AL035312_BT003182,DU,DI,0.22,NO,0,False,0.3,YES,0.01,0.77,0,NO,YES,YES,0.01,0.96,0,NO,YES,YES,0.01,0.75,4.6,YES,DU,EF
AL035312_BT001414,DU,DI,0.22,NO,0,False,0.1,YES,0,1,0.033,YES,YES,YES,0.01,0.88,0.07,YES,YES,YES,0.01,0.67,5.4,YES,DU,LI
AL035312_BT011460,DU,DI,0.22,NO,0,False,0.33,YES,0.04,1,0,NO,YES,YES,0.02,0.84,0,NO,YES,YES,0.02,0.47,0.36,YES,DU,EF
AF204285_AF186078,DU,DI,0.46,YES,0,False,0.46,YES,0.02,0.81,0,NO,YES,YES,0.02,0.81,0,NO,YES,YES,0.02,0.67,0.000003,NO,DU,EF
AY665838_AY070875,DU,DI,0.17,NO,0,False,0.57,YES,0.01,1,0,NO,YES,YES,0.01,1,3,YES,YES,NO,0,0,5,YES,DU,EF
AF026500_AY119021,DU,DI,0.18,NO,0,False,0.15,YES,0.07,0.69,0,NO,YES,YES,0.08,0.69,0,NO,YES,YES,0.1,0.61,0,NO,DU,EF
AF026500_AF026502,DU,DI,0.75,YES,0.5,True,1,YES,0.57,0.66,0,NO,YES,YES,0.57,0.66,0,NO,YES,YES,0.64,0.64,0,NO,DU,EF
AF026502_AY119021,DU,DI,0.18,NO,0,False,0.15,YES,0.02,0.73,0.0002,NO,YES,YES,0.02,0.73,0.0002,NO,YES,YES,0.09,0.58,0,NO,DU,EF
U26715_U26713,DU,DI,0.6,YES,0.5,True,0.31,YES,0.01,0.88,0.0009,NO,YES,YES,0.01,1,0.34,YES,YES,NO,0,0,5,YES,DU,EF
U26715_AB008113,DU,DI,0.47,YES,0,False,0.47,YES,0.01,0.83,0.001,YES,YES,YES,0.01,0.89,0.001,YES,YES,YES,0.02,0.67,5,YES,DU,LI
U26714_U26716,DU,DI,0.6,YES,0.5,True,0.79,YES,0,0.87,0.04,YES,YES,YES,0.01,0.87,0.008,YES,YES,YES,0.03,0.32,0.001,YES,DU,LI
U26714_AB008113,DU,DI,0.41,YES,0,False,0.26,YES,0.01,0.88,0.008,YES,YES,YES,0.01,1,1.3,YES,YES,NO,0,0,5,YES,DU,LI
U26717_AB008113,DU,DI,0.44,YES,0,False,0.58,YES,0.01,0.83,0.013,YES,YES,YES,0.01,0.85,0.41,YES,YES,NO,0,0,5,YES,DU,LI
U26716_AB008113,DU,DI,0.37,YES,0,False,0.21,YES,0,0.91,0.0009,NO,YES,YES,0,0.92,0.12,YES,YES,NO,0,0,5,YES,DU,EF
AJ277193_AY061580,DU,DI,0.17,NO,0,False,0.94,YES,0.02,1,0.000001,NO,YES,YES,0.01,1,0.073,YES,YES,YES,0.03,0.45,0.52,YES,DU,EF
AJ277193_AF214649,DU,DI,0.5,YES,0,False,0.99,YES,0.02,0.78,0.18,YES,YES,YES,0.02,0.78,0.049,YES,YES,YES,0.01,0.5,5.2,YES,DU,LI
AJ277193_AF214648,DU,DI,0.6,YES,0,False,0.99,YES,0.02,0.78,0.18,YES,YES,YES,0.02,0.78,0.066,YES,YES,YES,0.01,0.36,1.4,YES,DU,LI
AJ277190_X75499,DU,DI,0.11,YES,0,True,0.41,YES,0.02,0.89,0,NO,YES,YES,0.01,0.83,0.038,YES,YES,YES,0.03,0.2,0.017,YES,DU,EF
AJ277190_AF214648,DU,DI,0.5,YES,0,False,0.57,YES,0.01,0.83,0.092,YES,YES,YES,0.01,0.83,0.032,YES,YES,YES,0.02,0.19,1.1,YES,DU,LI
AJ277190_AF214649,DU,DI,0.42,YES,0,False,0.57,YES,0.01,0.83,0.092,YES,YES,YES,0.01,0.83,0.024,YES,YES,YES,0.02,0.19,0.38,YES,DU,LI
AJ277194_AF214649,DU,DI,0.5,YES,0,False,0.55,YES,0.01,0.89,0.095,YES,YES,YES,0.01,0.78,0.078,YES,YES,YES,0.01,0.4,6.7,YES,DU,LI
X98882_X73045,DU,DI,0.1,YES,0,False,0.15,YES,0.03,0.74,0,NO,YES,YES,0.06,0.74,0,NO,YES,YES,0.02,0.75,0.22,YES,DU,EF
X12559_M16124,DU,DI,0.15,YES,0,N/A,0.54,YES,0.09,0.79,0.12,YES,YES,YES,0.09,0.79,0.12,YES,YES,YES,0.08,0.63,0.000001,NO,DU,LI
X12559_X07255,DU,DI,0.2,YES,0,N/A,0.24,YES,0.02,0.92,0.28,YES,YES,YES,0.05,1,2,YES,YES,NO,0,0,5,YES,DU,LI
X03791_AY060407,DU,DI,0,NO,0,N/A,0.7,YES,0.01,0.83,0.01,YES,NO,NO,0,0,5,YES,NO,NO,0,0,5,YES,DU,LI
AF045778_AJ012279,DU,DI,0.3,YES,0,False,0.17,YES,0.01,0.88,1.3,YES,YES,NO,0,0,5,YES,YES,NO,0,0,5,YES,DU,LI
AF045778_AJ238575,DU,DI,0.63,YES,0,False,0.38,YES,0,0.94,0.042,YES,YES,YES,0,0.93,0.96,YES,YES,NO,0,0,5,YES,DU,LI
AF045778_AJ238577,DU,DI,0.56,YES,0,False,0.82,YES,0.01,0.83,0.067,YES,YES,YES,0.01,0.81,0.08,YES,YES,NO,0,0,5,YES,DU,LI
AF045778_AJ245406,DU,DI,0.57,YES,0,False,0.06,YES,0,0.91,0.021,YES,YES,YES,0,1,1.4,YES,YES,YES,0,0.29,0.17,YES,DU,LI
AF045778_AB026845,DU,DI,0.33,YES,0,False,0.15,YES,0,0.94,0.1,YES,YES,YES,0,0.93,1.4,YES,YES,YES,0,0.29,0.31,YES,DU,LI
AF045777_AJ012279,DU,DI,0.44,YES,0,False,0.8,YES,0.02,1,2.1,YES,YES,YES,0.02,1,2.1,YES,YES,NO,0,0,5,YES,DU,LI
AF045777_AJ238575,DU,DI,0.44,YES,0,False,0.05,YES,0,0.88,0.23,YES,YES,YES,0.01,0.88,0.1,YES,YES,YES,0.03,0.45,2.6,YES,DU,LI
AF045777_AJ238577,DU,DI,0.4,YES,0,False,0.11,YES,0.01,0.85,0.11,YES,YES,YES,0.01,0.85,0.11,YES,YES,YES,0.01,0.71,3.4,YES,DU,LI
AF045777_AJ245406,DU,DI,0.38,YES,0,False,0.01,YES,0,0.87,0.032,YES,YES,YES,0,0.93,0.54,YES,YES,YES,0,0.28,0.037,YES,DU,LI
AF045777_AB026845,DU,DI,0.5,YES,0,False,0.02,YES,0,0.93,0.57,YES,YES,YES,0,0.93,0.53,YES,YES,YES,0,0.28,0.11,YES,DU,LI
M74583_S65712,DU,DI,0.19,YES,0,N/A,0.02,YES,0,1,0.06,YES,YES,YES,0.01,1,0.36,YES,YES,NO,0,0,5,YES,DU,LI
M74583_S65716,DU,DI,0.19,YES,0,N/A,0.02,YES,0.01,0.94,0.07,YES,YES,YES,0.01,0.94,0.035,YES,YES,NO,0,0,5,YES,DU,LI
M74583_S65717,DU,DI,0.33,YES,0,N/A,0.02,YES,0.01,0.94,0.074,YES,YES,YES,0.01,0.94,0.037,YES,YES,NO,0,0,5,YES,DU,LI
M74583_S65719,DU,DI,0.19,YES,0,N/A,0.04,YES,0,1,0.14,YES,YES,YES,0.01,0.94,0.069,YES,YES,YES,0.01,0.33,1.9,YES,DU,LI
M17837_AY118512,DU,DI,0,NO,0,N/A,0.54,YES,0,0.92,0.007,YES,YES,YES,0.01,0.85,0.5,YES,YES,YES,0.01,0.31,6.3,YES,DU,LI
U85651_AF003107,DU,DI,0.38,YES,0,False,0.08,YES,0.01,0.81,0.55,YES,YES,YES,0.01,1,0.27,YES,YES,NO,0,0,5,YES,DU,LI
AY069415_AJ272389,DU,DI,0.14,NO,0,False,0.47,YES,0.03,1,0,NO,YES,YES,0.03,0.79,0.004,YES,YES,YES,0.04,0.28,0.065,YES,DU,EF
U55767_AY174097,DU,DI,0.23,NO,0,False,0.44,YES,0.01,0.83,0.000002,NO,YES,YES,0.06,1,0.38,YES,YES,NO,0,0,5,YES,DU,EF
U55767_AY174098,DU,DI,0.23,NO,0,False,0.63,YES,0,0.84,0.038,YES,YES,YES,0,1,2.8,YES,YES,NO,0,0,5,YES,DU,LI
U55767_X14476,DU,DI,0.14,NO,0,N/A,0.81,YES,0.01,1,0,NO,YES,YES,0.01,1,0,NO,YES,YES,0.01,1,0.002,YES,DU,EF
U55767_AF044974,DU,DI,0.19,NO,0,False,0.84,YES,0,0.88,1.2,YES,YES,YES,0,0.85,0.84,YES,YES,NO,0,0,5,YES,DU,LI
AL035436_M16152,DU,DI,0.12,YES,0,False,0.29,YES,0,0.78,0.000004,NO,YES,YES,0,0.9,0.077,YES,YES,YES,0,0.4,4.5,YES,DU,EF
AY779921_X16553,DU,DI,0.12,YES,0,False,0.09,YES,0.04,0.96,0,NO,YES,YES,0.12,0.78,0,NO,YES,YES,0.38,0.37,0,NO,DU,EF
M12009_AY060407,DU,DI,0.08,NO,0,N/A,0.04,YES,0,1,1.1,YES,YES,YES,0.01,1,2.8,YES,YES,NO,0,0,5,YES,DU,LI
AF038501_BT024951,DU,DI,0.15,NO,0,False,0.09,YES,0.01,0.82,1.8,YES,YES,YES,0.01,0.82,1.3,YES,YES,YES,0.02,0.38,0.22,YES,DU,LI
AF038501_BT001424,DU,DI,0.15,NO,0,False,0.12,YES,0.01,0.88,0.12,YES,YES,YES,0.03,0.79,0.5,YES,YES,NO,0,0,5,YES,DU,LI
BT010241_X05724,DU,DI,0.18,NO,0,False,0.1,YES,0.02,1,0,NO,NO,NO,0,0,5,YES,NO,NO,0,0,5,YES,DU,EF
X02220_K02623,DU,DI,0.36,YES,0,N/A,0.14,YES,0.04,0.74,0.0002,NO,YES,YES,0.34,0.74,0.00002,NO,YES,NO,0,0,5,YES,DU,EF
X02220_K02622,DU,DI,0.21,YES,0,N/A,0.86,YES,0.02,0.8,1,YES,YES,YES,0.02,0.8,0.092,YES,YES,NO,0,0,5,YES,DU,LI
BT011112_AY094733,DU,DI,0.71,NO,0,True,0.42,YES,0,0.89,0,NO,YES,YES,0.01,0.77,0,NO,YES,YES,0,0.3,1.1,YES,DU,EF
X14460_K03517,DU,DI,0.13,YES,0,N/A,0.15,YES,0.01,0.92,0.43,YES,YES,YES,0.03,0.92,0.14,YES,YES,NO,0,0,5,YES,DU,LI
EF221635_BT011386,DU,DI,0.15,NO,0,False,0.89,YES,0.02,0.82,0.00001,NO,YES,YES,0.03,0.82,0.000006,NO,YES,YES,0.03,0.33,0.000004,NO,DU,EF
AF220179_U14403,DU,DI,0.33,YES,0,False,0.51,YES,0.03,0.81,0.012,YES,YES,YES,0.04,0.81,0.008,YES,YES,YES,0.03,0.56,0.49,YES,DU,LI
AF220179_AY152838,DU,DI,0.6,YES,0,True,0.7,YES,0.03,0.85,0.001,YES,YES,YES,0.04,0.81,0.01,YES,YES,YES,0.03,0.56,0.63,YES,DU,LI
AF220179_D84438,DU,DI,0.5,YES,0,True,0.97,YES,0.02,0.82,0.96,YES,YES,YES,0.02,1,0.53,YES,YES,YES,0.03,0.25,1.7,YES,DU,LI
AF220179_AY152837,DU,DI,0.6,YES,0,True,0.51,YES,0.03,0.81,0.012,YES,YES,YES,0.04,0.81,0.007,YES,YES,YES,0.07,0.21,0.074,YES,DU,LI
AF220179_BT024450,DU,DI,0.17,NO,0,False,0.23,YES,0.01,0.83,0.000001,NO,YES,YES,0.01,0.83,0.000001,NO,YES,YES,0.01,0.35,4.4,YES,DU,EF
AF220178_U14403,DU,DI,0.33,YES,0,False,0.57,YES,0.02,1,0.13,YES,YES,YES,0.02,1,0.091,YES,YES,YES,0.06,0.29,1.5,YES,DU,LI
AF220178_AY152838,DU,DI,0.6,YES,0,True,0.78,YES,0.02,0.86,0.014,YES,YES,YES,0.03,0.77,1.3,YES,YES,NO,0,0,5,YES,DU,LI
AF220178_D84437,DU,DI,0.6,YES,0,True,0.26,YES,0.02,0.73,0,NO,YES,YES,0.01,0.95,0.0003,NO,YES,YES,0.03,0.39,0,NO,DU,EF
AF220178_D84438,DU,DI,0.5,YES,0,True,0.92,YES,0.02,1,0.071,YES,YES,YES,0.02,1,1.6,YES,YES,NO,0,0,5,YES,DU,LI
AF220178_BT024450,DU,DI,0.17,NO,0,False,0.2,YES,0.02,0.73,0,NO,YES,YES,0.01,0.95,0.0004,NO,YES,YES,0.03,0.39,0,NO,DU,EF
AY069741_S67762,DU,DI,0.2,NO,0,N/A,0.24,YES,0.01,0.84,0.00003,NO,YES,YES,0.01,0.76,0.003,YES,YES,YES,0.05,0.31,0,NO,DU,EF
U05240_AY071210,DU,DI,0.14,NO,0,False,0.9,YES,0.01,0.88,0.002,YES,YES,YES,0.01,0.94,0.09,YES,YES,YES,0.01,0.6,1.1,YES,DU,LI
BT012469_S63761,DU,DI,0.13,NO,0,N/A,0.18,YES,0,0.94,0.23,YES,YES,YES,0.01,0.84,0.66,YES,YES,YES,0.01,0.4,2.3,YES,DU,LI
U30914_AY061580,DU,DI,0.15,NO,0,False,0.69,YES,0.01,1,0.29,YES,YES,YES,0.01,1,0.11,YES,YES,YES,0.02,0.43,0.84,YES,DU,LI
U30913_AY061580,DU,DI,0.15,NO,0,False,0.67,YES,0.01,1,0.3,YES,YES,YES,0.01,1,0.11,YES,YES,YES,0.01,0.4,0.45,YES,DU,LI
U30913_AJ277178,DU,DI,0.55,YES,0,False,0.54,YES,0.01,1,0.0005,NO,YES,YES,0.01,1,0.0002,NO,YES,YES,0.03,0.29,0.13,YES,DU,EF
AY060807_AF219383,DU,DI,0.18,NO,0,False,0.31,YES,0.02,0.97,0,NO,YES,YES,0.02,0.97,0,NO,YES,YES,0.01,0.38,2.7,YES,DU,EF
AJ271647_AY060469,DU,DI,0.18,NO,0,False,0.43,YES,0,1,0.000004,NO,YES,YES,0.01,1,0.000002,NO,YES,YES,0.01,0.35,0.082,YES,DU,EF
X14397_AY060357,DU,DI,0.07,NO,0,N/A,0.04,YES,0,1,0.28,YES,YES,YES,0.01,0.92,0.73,YES,YES,YES,0.01,0.38,0.32,YES,DU,LI
X14395_AY060357,DU,DI,0.07,NO,0,N/A,0.22,YES,0,0.89,0.044,YES,YES,YES,0.01,0.87,1.4,YES,YES,YES,0.02,0.83,0.39,YES,DU,LI
X14394_AY060357,DU,DI,0.07,NO,0,N/A,0.28,YES,0,0.93,2.3,YES,YES,YES,0.01,1,1.7,YES,YES,YES,0.02,0.35,0.081,YES,DU,LI
M23635_S88324,DU,DI,0.14,YES,0,N/A,0.14,YES,0.01,0.78,0.86,YES,YES,YES,0.04,1,2.2,YES,YES,NO,0,0,5,YES,DU,LI
AY061154_BT024968,DU,DI,0.71,NO,0,True,0.87,YES,0.01,0.92,0.0001,NO,YES,YES,0.01,1,0.75,YES,YES,YES,0.02,0.53,0.42,YES,DU,EF
AH003430_AF433680,DU,DI,0.5,YES,0,False,0.31,YES,0,1,0.27,YES,YES,YES,0.01,1,1.4,YES,YES,NO,0,0,5,YES,DU,LI
U72331_AF003107,DU,DI,0.42,YES,0,False,0.08,YES,0.01,0.81,0.55,YES,YES,YES,0.01,1,0.27,YES,YES,NO,0,0,5,YES,DU,LI
AY069408_AY075410,DU,DI,0.71,NO,0,True,0.93,YES,0.02,0.85,0,NO,YES,YES,0.02,1,0.06,YES,YES,NO,0,0,5,YES,DU,EF
AL024485_AL121804,DU,DI,0.43,YES,0,True,0.55,YES,0,1,0,NO,YES,YES,0,1,1.2,YES,YES,YES,0.01,0.37,2.1,YES,DU,EF
AY070875_BT126178,DU,DI,0.5,NO,0,True,0.73,YES,0.02,1,0,NO,YES,YES,0.01,0.82,0.91,YES,YES,NO,0,0,5,YES,DU,EF
AY070875_BT125831,DU,DI,0.5,NO,0,True,0.83,YES,0.02,1,0,NO,YES,YES,0.01,0.82,0.93,YES,YES,NO,0,0,5,YES,DU,EF
AY070875_X54504,DU,DI,0.06,NO,0,False,0.69,YES,0.02,1,0,NO,YES,YES,0.01,0.82,0.92,YES,YES,NO,0,0,5,YES,DU,EF
AY094786_BT015280,DU,DI,0.71,NO,0,True,0.77,YES,0.01,1,0.0004,NO,YES,YES,0.01,0.94,0.15,YES,YES,YES,0.02,0.26,2.9,YES,DU,EF
AY071210_U93032,DU,DI,0.17,NO,0,False,0.5,YES,0.01,0.9,0.16,YES,YES,YES,0.01,0.9,0.091,YES,YES,YES,0.02,0.35,0.67,YES,DU,LI
X06384_M13587,DU,DI,0.27,YES,0,N/A,0.08,YES,0.01,0.91,1.6,YES,YES,YES,0.07,0.92,0.29,YES,YES,NO,0,0,5,YES,DU,LI
V00200_M28334,DU,DI,0.08,YES,0,N/A,0.99,YES,0.02,0.85,0.00001,NO,YES,YES,0.02,0.85,0.00001,NO,YES,YES,0.19,0.41,0,NO,DU,EF
M23636_S88324,DU,DI,0.14,YES,0,N/A,0.16,YES,0.01,1,0.21,YES,YES,YES,0.01,1,0.031,YES,YES,YES,0.01,0.4,2.6,YES,DU,LI
AY089560_X03879,DU,DI,0.03,NO,0,N/A,0.38,YES,0,1,0.015,YES,YES,YES,0,1,0.009,YES,YES,YES,0.01,0.21,1.8,YES,DU,LI
AY089560_X03877,DU,DI,0,NO,0,N/A,0.15,YES,0.01,0.83,0.89,YES,YES,YES,0,0.92,0.64,YES,YES,YES,0.01,0.25,2.6,YES,DU,LI
AY089560_X03878,DU,DI,0.04,NO,0,N/A,0.06,YES,0,0.9,0.002,YES,YES,YES,0.01,0.89,0.076,YES,YES,YES,0.01,0.3,2.3,YES,DU,LI
AY089560_M37783,DU,DI,0,NO,0,N/A,0.89,YES,0.01,0.74,0.16,YES,YES,YES,0,0.87,1.9,YES,YES,YES,0.01,0.64,0.55,YES,DU,LI
D13330_S65712,DU,DI,0.22,YES,0,N/A,0.02,YES,0,1,0.059,YES,YES,YES,0.01,1,0.36,YES,YES,NO,0,0,5,YES,DU,LI
D13330_S65716,DU,DI,0.22,YES,0,N/A,0.02,YES,0.01,0.94,0.069,YES,YES,YES,0.01,0.94,0.035,YES,YES,NO,0,0,5,YES,DU,LI
D13330_S65719,DU,DI,0.22,YES,0,N/A,0.04,YES,0,1,0.14,YES,YES,YES,0.01,0.94,0.069,YES,YES,YES,0.01,0.33,1.9,YES,DU,LI
D13331_S65716,DU,DI,0.22,YES,0,N/A,0.02,YES,0.01,0.94,0.07,YES,YES,YES,0.01,0.94,0.037,YES,YES,NO,0,0,5,YES,DU,LI
M25294_BT029258,DU,DI,0.2,NO,0,N/A,0.48,YES,0.01,0.78,0.015,YES,YES,YES,0.02,0.81,0.006,YES,YES,NO,0,0,5,YES,DU,LI
BT024968_BT099672,DU,DI,0.71,NO,0,True,0.59,YES,0.01,0.78,0,NO,YES,YES,0.01,0.76,0.008,YES,YES,NO,0,0,5,YES,DU,EF
Y12573_BT099909,DU,DI,0,NO,0,False,0.06,YES,0.01,0.98,0,NO,YES,YES,0.01,1,0.96,YES,YES,YES,0.02,0.44,0.11,YES,DU,EF
M12175_M16025,DU,DI,0.15,YES,0,N/A,0.42,YES,0.01,1,1.9,YES,YES,YES,0.04,0.82,0.41,YES,YES,NO,0,0,5,YES,DU,LI
M12175_AL035436,DU,DI,0,YES,0,N/A,0.01,YES,0,0.86,0.000002,NO,YES,YES,0.01,0.7,0.15,YES,YES,YES,0.01,0.5,1.8,YES,DU,EF
M59448_S88324,DU,DI,0.15,YES,0,N/A,0.06,YES,0,0.89,0.051,YES,YES,YES,0.01,1,0.032,YES,YES,YES,0.01,0.4,2.7,YES,DU,LI
AY061580_X75499,DU,DI,0,NO,0,False,0.68,YES,0.02,0.96,0.000001,NO,YES,YES,0.02,0.88,0.16,YES,YES,YES,0.03,0.4,0.32,YES,DU,EF
AY061580_X75498,DU,DI,0,NO,0,False,0.73,YES,0.01,1,0.28,YES,YES,YES,0.01,1,0.12,YES,YES,YES,0.01,0.5,0.64,YES,DU,LI
AY061580_BT003579,DU,DI,0.71,NO,0,True,0.46,YES,0.01,1,0.000001,NO,YES,YES,0.01,1,0.12,YES,YES,YES,0.01,0.5,0.78,YES,DU,EF
AY061580_U30905,DU,DI,0.17,NO,0,False,0.59,YES,0.01,1,0.34,YES,YES,YES,0.01,1,0.13,YES,YES,YES,0.01,0.4,0.65,YES,DU,LI
AY061580_AF214649,DU,DI,0.14,NO,0,False,0.95,YES,0.01,0.89,0.67,YES,YES,YES,0.02,0.92,0.35,YES,YES,YES,0.02,1,2.4,YES,DU,LI
AY061580_AF214648,DU,DI,0.17,NO,0,False,0.95,YES,0.01,0.89,0.67,YES,YES,YES,0.03,0.89,0.13,YES,YES,YES,0.03,0.5,0.33,YES,DU,LI
AY061580_AJ277184,DU,DI,0.17,NO,0,False,0.7,YES,0.02,0.93,0,NO,YES,YES,0.02,0.89,0.2,YES,YES,YES,0.06,0.27,3.5,YES,DU,EF
AY061580_AJ277180,DU,DI,0.17,NO,0,False,0.62,YES,0.01,1,0.0006,NO,YES,YES,0.01,1,0.11,YES,YES,YES,0.02,0.5,0.74,YES,DU,EF
AY061580_AJ277185,DU,DI,0.18,NO,0,False,0.55,YES,0.01,1,0.37,YES,YES,YES,0.01,1,0.12,YES,YES,YES,0.01,0.5,0.8,YES,DU,LI
AY061580_AJ277175,DU,DI,0.18,NO,0,False,0.95,YES,0.03,0.73,0.000003,NO,YES,YES,0.01,1,0.084,YES,YES,YES,0.02,0.5,0.49,YES,DU,EF
AY061580_AJ277178,DU,DI,0.17,NO,0,False,0.8,YES,0.02,1,0,NO,YES,YES,0.02,0.86,1.3,YES,YES,YES,0.03,0.5,2,YES,DU,EF
AL031583_AL132792,DU,DI,0.43,YES,0,True,0.43,YES,0.01,0.88,0,NO,YES,YES,0,0.77,0.00007,NO,YES,YES,0.01,0.33,0.011,YES,DU,EF
AF214648_X75498,DU,DI,0.09,YES,0,False,0.69,YES,0.01,0.89,0.075,YES,YES,YES,0.01,0.78,0.1,YES,YES,YES,0.01,0.32,8.5,YES,DU,LI
AF214649_X75498,DU,DI,0.08,YES,0,False,0.69,YES,0.01,0.89,0.075,YES,YES,YES,0.01,0.78,0.078,YES,YES,YES,0.01,0.57,6.1,YES,DU,LI
AF214649_AJ277184,DU,DI,0.5,YES,0,False,0.74,YES,0.01,1,0.47,YES,YES,YES,0.01,1,0.14,YES,YES,YES,0.02,0.19,4.8,YES,DU,LI
AF214649_AJ277175,DU,DI,0.42,YES,0,False,0.9,YES,0.02,0.78,0.2,YES,YES,YES,0.02,0.78,0.057,YES,YES,YES,0.03,0.37,0.005,YES,DU,LI
AF214649_U62802,DU,DI,0.38,YES,0,False,0.7,YES,0.01,0.78,0.26,YES,YES,YES,0.01,0.78,0.076,YES,YES,YES,0.01,0.4,7.3,YES,DU,LI
AF214649_BT003579,DU,DI,0.14,NO,0,False,0.44,YES,0.01,0.78,0.42,YES,YES,YES,0.01,0.78,0.079,YES,YES,YES,0.01,0.3,0.59,YES,DU,LI
AF214649_AJ277178,DU,DI,0.5,YES,0,False,0.85,YES,0.01,0.89,0.044,YES,YES,YES,0.02,1,0.85,YES,YES,YES,0.06,0.29,0.37,YES,DU,LI
AY058575_S63761,DU,DI,0.13,NO,0,N/A,0.57,YES,0.01,0.93,0.25,YES,YES,YES,0.01,0.79,1.3,YES,YES,YES,0.01,0.4,2.4,YES,DU,LI
BT003802_AF050132,DU,DI,0.2,NO,0,False,0.13,YES,0.01,0.78,0.36,YES,YES,YES,0.02,0.78,0.2,YES,YES,YES,0.01,0.5,4,YES,DU,LI
DQ269487_Y15250,DU,DI,0.18,YES,0,False,0.06,YES,0.02,1,0,NO,NO,NO,0,0,5,YES,NO,NO,0,0,5,YES,DU,EF
S88324_BT100240,DU,DI,0.17,NO,0,N/A,0.09,YES,0,1,0.1,YES,YES,YES,0.01,1,0.36,YES,YES,NO,0,0,5,YES,DU,LI
S88324_BT120392,DU,DI,0.17,NO,0,N/A,0.09,YES,0,0.93,0.4,YES,YES,YES,0.01,1,4.2,YES,YES,NO,0,0,5,YES,DU,LI
BT011082_AY113420,DU,DI,0.71,NO,0,True,0.44,YES,0.01,1,0.0003,NO,YES,YES,0.02,0.8,0.62,YES,YES,YES,0.01,0.5,3.9,YES,DU,EF
AF003622_AY051596,DU,DI,0.15,NO,0,False,0.44,YES,0,0.78,0.005,YES,YES,YES,0,0.79,0.21,YES,YES,YES,0.01,0.39,6.4,YES,DU,LI
M14203_M19537,DU,DI,0.43,YES,0,N/A,0.4,YES,0.01,0.86,0.043,YES,YES,YES,0.01,0.93,0.045,YES,YES,YES,0.01,0.27,3.9,YES,DU,LI
AL022139_AF181628,DU,DI,0.22,YES,0,False,0.16,YES,0.01,1,0,NO,YES,YES,0.01,0.88,0.002,YES,YES,YES,0.01,0.26,1.9,YES,DU,EF
AL022139_J04516,DU,DI,0,YES,0,N/A,0.11,YES,0.01,1,0,NO,YES,YES,0.01,0.88,0.002,YES,YES,YES,0.01,0.26,1.9,YES,DU,EF
AL022139_X55775,DU,DI,0,YES,0,N/A,0.01,YES,0,0.93,2.4,YES,NO,NO,0,0,5,YES,NO,NO,0,0,5,YES,DU,LI
AY060226_AY118507,DU,DI,0.5,NO,0,True,0.6,YES,0.01,1,0.0002,NO,YES,YES,0.01,1,0.19,YES,YES,YES,0.07,0.26,0.97,YES,DU,EF
BT099726_AY075410,DU,DI,0.5,NO,0,True,0.49,YES,0.01,0.85,0,NO,YES,YES,0.01,0.79,0.00004,NO,YES,YES,0.01,0.37,4.1,YES,DU,EF
M37783_X03877,DU,DI,0.2,YES,0,N/A,0.14,YES,0,0.93,0.29,YES,YES,YES,0.03,0.91,0.93,YES,YES,YES,0.03,0.44,1.4,YES,DU,LI
M37783_X03878,DU,DI,0.14,YES,0,N/A,0.06,YES,0,0.89,0.033,YES,YES,YES,0.04,0.8,0.11,YES,YES,NO,0,0,5,YES,DU,LI
M37783_X03879,DU,DI,0.12,YES,0,N/A,0.33,YES,0,1,0.005,YES,YES,YES,0.01,0.86,1.9,YES,YES,YES,0.04,0.38,1.2,YES,DU,LI
M37783_AF129814,DU,DI,0.07,YES,0,N/A,0.54,YES,0,0.89,0.096,YES,YES,YES,0.01,0.79,0.009,YES,YES,YES,0.01,0.67,0.49,YES,DU,LI
AJ277175_AF214648,DU,DI,0.5,YES,0,False,0.9,YES,0.02,0.78,0.2,YES,YES,YES,0.02,0.78,0.075,YES,YES,YES,0.03,0.34,0.001,YES,DU,LI
AJ277177_X75499,DU,DI,0.11,YES,0,True,0.51,YES,0.01,0.95,0.00003,NO,YES,YES,0.01,0.78,0.11,YES,YES,YES,0.04,0.28,0.00003,NO,DU,EF
AJ277176_X75499,DU,DI,0.11,YES,0,True,0.41,YES,0.01,0.91,0.0001,NO,YES,YES,0.01,0.84,0.032,YES,YES,YES,0.03,0.28,0.089,YES,DU,EF
AJ277179_X75499,DU,DI,0.1,YES,0,True,0.46,YES,0.01,0.78,0.2,YES,YES,YES,0.01,0.78,0.12,YES,YES,YES,0.01,0.26,1.4,YES,DU,LI
AJ277179_AY061580,DU,DI,0.17,NO,0,False,0.68,YES,0.01,1,0.3,YES,YES,YES,0.01,1,0.11,YES,YES,YES,0.02,0.31,0.24,YES,DU,LI
AJ277179_AF214649,DU,DI,0.5,YES,0,False,0.64,YES,0.01,1,0.081,YES,YES,YES,0.01,0.78,0.074,YES,YES,YES,0.01,0.4,6.5,YES,DU,LI
AJ277178_X75499,DU,DI,0.1,YES,0,True,0.85,YES,0.02,0.93,0,NO,YES,YES,0.01,1,1.3,YES,YES,YES,0.07,0.29,0.17,YES,DU,EF
AL121800_AY119511,DU,DI,0.22,NO,0,False,0.02,YES,0,1,0,NO,YES,YES,0,0.79,0.57,YES,YES,YES,0.02,0.27,3.8,YES,DU,EF
AL121804_AY119664,DU,DI,0.22,NO,0,False,0.06,YES,0.01,0.99,0,NO,YES,YES,0.01,0.9,0.022,YES,YES,YES,0.01,0.44,0.75,YES,DU,EF
AF351187_AY069860,DU,DI,0.15,NO,0,False,0.61,YES,0.01,0.83,0.0003,NO,YES,YES,0.01,0.83,0.0003,NO,YES,YES,0.01,0.31,0.1,YES,DU,EF
K03417_X78920,DU,DI,0.05,YES,0,N/A,0.07,YES,0.03,0.88,0.3,YES,YES,YES,0.03,0.88,0.29,YES,YES,NO,0,0,5,YES,DU,LI
K03417_AJ002912,DU,DI,0,YES,0,N/A,0.28,YES,0.02,0.91,1.4,YES,YES,YES,0.02,0.91,1.4,YES,YES,YES,0.02,0.31,0.28,YES,DU,LI
K03417_X02293,DU,DI,0.22,YES,0,N/A,0.66,YES,0.04,0.81,0.007,YES,YES,YES,0.04,0.81,0.006,YES,YES,YES,0.03,0.67,0.96,YES,DU,LI
K03416_X78920,DU,DI,0.05,YES,0,N/A,0.08,YES,0.02,0.85,0.25,YES,YES,YES,0.03,0.85,0.21,YES,YES,NO,0,0,5,YES,DU,LI
K03416_AJ002912,DU,DI,0,YES,0,N/A,0.33,YES,0.02,1,1.2,YES,YES,YES,0.02,1,0.98,YES,YES,YES,0.04,0.28,0.084,YES,DU,LI
K03416_X02293,DU,DI,0.21,YES,0,N/A,0.78,YES,0.04,0.81,0.068,YES,YES,YES,0.05,0.81,0.056,YES,YES,YES,0.08,0.23,0.44,YES,DU,LI
X78920_AJ002912,DU,DI,0.09,YES,0,N/A,0.25,YES,0.05,1,0.3,YES,YES,YES,0.05,1,0.3,YES,YES,NO,0,0,5,YES,DU,LI
X78920_X02293,DU,DI,0,YES,0,N/A,0.11,YES,0.02,1,0.2,YES,YES,YES,0.02,1,0.2,YES,YES,NO,0,0,5,YES,DU,LI
AY058793_BT012324,DU,DI,0.5,NO,0,True,0.92,YES,0.02,0.96,0.000009,NO,YES,YES,0.01,0.88,0.48,YES,YES,NO,0,0,5,YES,DU,EF
X07134_X78908,DU,DI,0.08,YES,0,N/A,0.14,YES,0.01,1,0.19,YES,YES,YES,0.01,1,0.11,YES,YES,YES,0.01,0.8,2.5,YES,DU,LI
AH003854_X58436,DU,DI,0.09,YES,0,N/A,0.13,YES,0.01,1,0.0009,NO,YES,YES,0.01,1,0.0006,NO,YES,YES,0.01,0.71,0.09,YES,DU,EF
M88472_BT001893,DU,DI,0.14,NO,0,N/A,0.21,YES,0.01,1,0.13,YES,YES,YES,0.01,0.88,0.059,YES,YES,YES,0.02,0.23,0.25,YES,DU,LI
X78908_X06184,DU,DI,0.11,YES,0,N/A,0.2,YES,0.01,1,0.14,YES,YES,YES,0.01,1,0.097,YES,YES,YES,0.02,0.35,6.3,YES,DU,LI
J01404_M37275,DU,DI,0.28,YES,0,N/A,0.63,YES,0.05,0.99,0,NO,YES,YES,0.02,0.93,0.026,YES,YES,YES,0.02,0.67,0.98,YES,DU,EF
Z00030_AY118512,DU,DI,0.07,NO,0,N/A,0.52,YES,0,0.92,0.007,YES,YES,YES,0.01,0.85,0.5,YES,YES,YES,0.01,0.31,6.3,YES,DU,LI
X16826_X68393,DU,DI,0.07,YES,0,False,0.55,YES,0.01,0.98,0,NO,YES,YES,0,0.93,0.81,YES,YES,NO,0,0,5,YES,DU,EF
AY060919_AY119597,DU,DI,0.5,NO,0,True,0.48,YES,0.01,0.91,0.001,YES,YES,YES,0.01,0.88,0.48,YES,YES,YES,0.01,0.5,1.7,YES,DU,LI
AY048030_L07819,DU,DI,0.29,YES,0,N/A,0.69,YES,0.01,1,0.084,YES,YES,YES,0.01,1,0.018,YES,YES,YES,0.02,0.45,1.1,YES,DU,LI
AY048030_L07823,DU,DI,0.29,YES,0,N/A,0.69,YES,0.01,1,0.084,YES,YES,YES,0.01,1,0.018,YES,YES,YES,0.02,0.45,1.1,YES,DU,LI
AY048030_L07821,DU,DI,0.29,YES,0,N/A,0.69,YES,0.01,1,0.084,YES,YES,YES,0.01,1,0.018,YES,YES,YES,0.02,0.45,1.1,YES,DU,LI
AE001572_S61883,DU,DI,0.2,YES,0,N/A,0.02,YES,0,1,0,NO,YES,YES,0,0.83,0.14,YES,YES,YES,0,0.4,4.9,YES,DU,EF
AE001572_U10506,DU,DI,0.2,YES,0,False,0.01,YES,0,0.98,0,NO,YES,YES,0.01,0.84,0.094,YES,YES,YES,0.01,0.47,0.74,YES,DU,EF
AY094749_AJ012279,DU,DI,0.18,NO,0,False,0.15,YES,0,1,1.5,YES,YES,YES,0.01,1,0.83,YES,YES,YES,0.03,0.26,1.1,YES,DU,LI
AY094749_AF241649,DU,DI,0.2,NO,0,False,0.43,YES,0.01,0.8,0.028,YES,YES,YES,0.01,0.89,0.056,YES,YES,YES,0.02,0.47,0.097,YES,DU,LI
AY094749_AJ400900,DU,DI,0.17,NO,0,False,0.21,YES,0.01,0.89,0.58,YES,YES,YES,0.01,0.89,0.32,YES,YES,YES,0.01,0.67,2,YES,DU,LI
AY094749_AJ238575,DU,DI,0.18,NO,0,False,0.42,YES,0,1,0.013,YES,YES,YES,0.01,1,0.003,YES,YES,YES,0.01,0.8,6.2,YES,DU,LI
AY094749_AJ238577,DU,DI,0.17,NO,0,False,0.9,YES,0.01,0.8,0.021,YES,YES,YES,0.01,0.8,0.012,YES,YES,YES,0.01,0.32,6.9,YES,DU,LI
AY094749_AF135167,DU,DI,0.18,NO,0,False,0.65,YES,0.01,0.8,0.043,YES,YES,YES,0.01,0.89,0.056,YES,YES,YES,0.02,0.47,0.097,YES,DU,LI
AY094749_AF135062,DU,DI,0.2,NO,0,False,0.37,YES,0,1,3.7,YES,YES,YES,0.01,0.8,2.1,YES,YES,YES,0.03,0.24,0.45,YES,DU,LI
AY094749_AJ245406,DU,DI,0.22,NO,0,False,0.07,YES,0,0.91,0.007,YES,YES,YES,0,0.91,0.001,YES,YES,YES,0,0.35,3.8,YES,DU,LI
AY094749_AB026845,DU,DI,0.2,NO,0,False,0.17,YES,0,0.81,0.4,YES,YES,YES,0,1,2.6,YES,YES,YES,0,0.24,1.3,YES,DU,LI
AY094749_AF045776,DU,DI,0.2,NO,0,False,0.41,YES,0.01,1,0.096,YES,YES,YES,0.01,0.93,0.66,YES,YES,YES,0.01,0.47,2.9,YES,DU,LI
AY094749_AF045777,DU,DI,0.2,NO,0,False,0.12,YES,0.01,0.76,0.008,YES,YES,YES,0.02,0.76,0.004,YES,YES,YES,0.02,0.4,0.18,YES,DU,LI
AY094749_AJ012280,DU,DI,0.18,NO,0,False,0.27,YES,0,1,2.6,YES,YES,YES,0.01,1,5.2,YES,YES,YES,0.05,0.23,0.14,YES,DU,LI
AY094749_AF241648,DU,DI,0.2,NO,0,False,0.37,YES,0,1,3.7,YES,YES,YES,0.01,0.8,2.1,YES,YES,YES,0.03,0.24,0.45,YES,DU,LI
AY094749_AF045778,DU,DI,0.2,NO,0,False,0.9,YES,0.01,0.76,0.061,YES,YES,YES,0.02,0.76,0.012,YES,YES,YES,0.07,0.33,0.011,YES,DU,LI
AY094749_AF045775,DU,DI,0.2,NO,0,False,0.85,YES,0,0.88,0.96,YES,YES,YES,0,1,0.47,YES,YES,YES,0.01,0.27,0.36,YES,DU,LI
AY094749_AJ400901,DU,DI,0.17,NO,0,False,0.17,YES,0.01,0.88,0.14,YES,YES,YES,0.01,0.88,0.041,YES,YES,NO,0,0,5,YES,DU,LI
AJ245406_AF045776,DU,DI,0.38,YES,0,False,0.03,YES,0.03,0.99,0,NO,YES,YES,0,0.81,0.16,YES,YES,YES,0.01,0.34,0,NO,DU,EF
BT003579_X75499,DU,DI,0,NO,0,False,0.31,YES,0.01,1,0,NO,YES,YES,0.01,0.78,0.12,YES,YES,YES,0.02,0.18,0.71,YES,DU,EF
BT003579_AF214648,DU,DI,0.17,NO,0,False,0.44,YES,0.01,0.78,0.42,YES,YES,YES,0.01,0.78,0.1,YES,YES,YES,0.01,0.3,1.2,YES,DU,LI
J02788_X60196,DU,DI,0.56,YES,0,N/A,0.59,YES,0,1,0.011,YES,YES,YES,0,1,0.22,YES,YES,YES,0.03,0.32,1.2,YES,DU,LI
J02788_X53155,DU,DI,0.07,YES,0,N/A,0.56,YES,0,0.89,0.4,YES,YES,YES,0,0.89,0.17,YES,YES,YES,0.01,0.3,2.9,YES,DU,LI
AF003107_AY069862,DU,DI,0.15,NO,0,False,0.11,YES,0.01,0.84,0.43,YES,YES,YES,0.01,1,0.27,YES,YES,NO,0,0,5,YES,DU,LI
K01959_X05427,DU,DI,0.23,YES,0,N/A,0.05,YES,0,0.83,1.3,YES,YES,YES,0.07,0.76,0.79,YES,YES,NO,0,0,5,YES,DU,LI
X05724_X76210,DU,DI,0.09,YES,0,N/A,0.07,YES,0.01,1,0,NO,NO,NO,0,0,5,YES,NO,NO,0,0,5,YES,DU,EF
X05725_X05727,DU,DI,0.75,YES,0,False,0.04,YES,0,0.84,0.15,YES,NO,NO,0,0,5,YES,NO,NO,0,0,5,YES,DU,LI
AY060918_AY102658,DU,DI,0.5,NO,0,True,0.62,YES,0.01,0.9,0.00009,NO,YES,YES,0.01,1,0.45,YES,YES,YES,0.01,0.33,0.79,YES,DU,EF
AY051809_BT011367,DU,DI,0.5,NO,0,True,0.81,YES,0.01,1,0.0005,NO,YES,YES,0.01,0.88,0.12,YES,YES,YES,0.05,0.31,0,NO,DU,EF
AF017777_M64084,DU,DI,0.22,YES,0,False,0.08,YES,0.02,0.99,0,NO,YES,YES,0.02,0.77,0,NO,YES,YES,0.01,0.39,2.8,YES,DU,EF
AF017777_AY128468,DU,DI,0.05,NO,0,False,0.08,YES,0.02,0.99,0,NO,YES,YES,0.01,0.8,0,NO,YES,YES,0.01,0.36,9.4,YES,DU,EF
M17155_X78908,DU,DI,0.27,YES,0,N/A,0.24,YES,0.01,1,0.11,YES,YES,YES,0.01,1,0.11,YES,YES,NO,0,0,5,YES,DU,LI
AY779907_AY906593,DU,DI,0.24,YES,0,False,0.01,YES,0.01,0.97,0,NO,YES,YES,0.11,0.74,0,NO,YES,YES,0.28,0.38,0,NO,DU,EF
M14981_X55169,DU,DI,0.08,YES,0,N/A,0.29,YES,0.02,1,0.73,YES,NO,NO,0,0,5,YES,NO,NO,0,0,5,YES,DU,LI
M14982_X55169,DU,DI,0.08,YES,0,N/A,0.47,YES,0.02,1,5.6,YES,NO,NO,0,0,5,YES,NO,NO,0,0,5,YES,DU,LI
AL021726_AY061827,DU,DI,0.22,NO,0,False,0.15,YES,0,0.85,0.039,YES,YES,YES,0.01,0.79,0.023,YES,YES,YES,0.01,0.29,1.6,YES,DU,LI
AB008113_U26713,DU,DI,0.54,YES,0,False,0.67,YES,0.03,0.78,0.017,YES,YES,YES,0.06,1,4.2,YES,YES,NO,0,0,5,YES,DU,LI
D13332_S65716,DU,DI,0.22,YES,0,N/A,0.02,YES,0.01,0.94,0.071,YES,YES,YES,0.01,0.94,0.037,YES,YES,NO,0,0,5,YES,DU,LI
U62802_X75499,DU,DI,0.1,YES,0,False,0.5,YES,0.01,1,0.0001,NO,YES,YES,0.01,0.78,0.12,YES,YES,YES,0.01,0.26,1.3,YES,DU,EF
BT010238_BT029117,DU,DI,0.71,NO,0,True,0.89,YES,0.01,0.83,0.023,YES,YES,YES,0.02,0.92,1.9,YES,YES,YES,0.02,0.33,0.7,YES,DU,LI
BT099999_BT024951,DU,DI,0.71,NO,0,True,0.68,YES,0.01,1,0,NO,YES,YES,0.01,0.9,0.003,YES,YES,YES,0.02,0.33,1.6,YES,DU,EF
BT099999_BT001424,DU,DI,0.71,NO,0,True,0.52,YES,0.01,1,0,NO,YES,YES,0.01,0.83,0.015,YES,YES,YES,0.01,0.32,2.3,YES,DU,EF
AF102135_BT058012,DU,DI,0.14,NO,0,False,0.89,YES,0.02,1,0,NO,NO,NO,0,0,5,YES,NO,NO,0,0,5,YES,DU,EF
X54005_AL034544,DU,DI,0,YES,0,N/A,0.1,YES,0,0.86,0.16,YES,NO,NO,0,0,5,YES,NO,NO,0,0,5,YES,DU,LI
AJ277188_AF214648,DU,DI,0.5,YES,0,False,0.61,YES,0.01,1,0.085,YES,YES,YES,0.01,0.78,0.11,YES,YES,YES,0.02,0.24,0.003,YES,DU,LI
AJ277189_X75499,DU,DI,0.11,YES,0,True,0.37,YES,0.02,0.91,0,NO,YES,YES,0.01,0.78,0.13,YES,YES,YES,0.04,0.29,0,NO,DU,EF
AJ277184_X75499,DU,DI,0.1,YES,0,True,0.97,YES,0.05,0.75,0.000004,NO,YES,YES,0.01,1,0.22,YES,YES,YES,0.01,0.5,1.4,YES,DU,EF
AJ277184_AF214648,DU,DI,0.6,YES,0,False,0.74,YES,0.01,1,0.47,YES,YES,YES,0.01,1,0.18,YES,YES,YES,0.01,0.5,1.1,YES,DU,LI
AJ277185_X75499,DU,DI,0.11,YES,0,True,0.37,YES,0.01,0.76,0.072,YES,YES,YES,0.01,0.85,0.12,YES,YES,YES,0.01,0.26,1.4,YES,DU,LI
AJ277187_X75499,DU,DI,0.11,YES,0,True,0.46,YES,0.02,0.96,0,NO,YES,YES,0.01,0.78,0.12,YES,YES,YES,0.03,0.25,0.00004,NO,DU,EF
BT001424_Y09934,DU,DI,0,NO,0,False,0.09,YES,0.01,1,0.086,YES,NO,NO,0,0,5,YES,NO,NO,0,0,5,YES,DU,LI
BT001424_Y09935,DU,DI,0,NO,0,False,0.09,YES,0.01,1,0.086,YES,NO,NO,0,0,5,YES,NO,NO,0,0,5,YES,DU,LI
BT001424_Y09932,DU,DI,0,NO,0,False,0.09,YES,0.01,1,0.086,YES,NO,NO,0,0,5,YES,NO,NO,0,0,5,YES,DU,LI
BT001424_Y09933,DU,DI,0,NO,0,False,0.09,YES,0.01,1,0.086,YES,NO,NO,0,0,5,YES,NO,NO,0,0,5,YES,DU,LI
BT001424_Y09930,DU,DI,0,NO,0,False,0.09,YES,0.01,1,0.086,YES,NO,NO,0,0,5,YES,NO,NO,0,0,5,YES,DU,LI
BT001424_Y09931,DU,DI,0,NO,0,False,0.09,YES,0.01,1,0.086,YES,NO,NO,0,0,5,YES,NO,NO,0,0,5,YES,DU,LI
M19547_AY118512,DU,DI,0,NO,0,N/A,0.55,YES,0,0.92,0.007,YES,YES,YES,0.01,0.85,0.5,YES,YES,YES,0.01,0.31,6.3,YES,DU,LI
Y09934_BT024951,DU,DI,0,NO,0,False,0.07,YES,0.01,0.86,1.4,YES,NO,NO,0,0,5,YES,NO,NO,0,0,5,YES,DU,LI
Y09935_BT024951,DU,DI,0,NO,0,False,0.07,YES,0.01,0.86,1.4,YES,NO,NO,0,0,5,YES,NO,NO,0,0,5,YES,DU,LI
Y09932_BT024951,DU,DI,0,NO,0,False,0.07,YES,0,1,1.4,YES,NO,NO,0,0,5,YES,NO,NO,0,0,5,YES,DU,LI
Y09933_BT024951,DU,DI,0,NO,0,False,0.07,YES,0,1,1.4,YES,NO,NO,0,0,5,YES,NO,NO,0,0,5,YES,DU,LI
Y09930_BT024951,DU,DI,0,NO,0,False,0.07,YES,0,1,1.4,YES,NO,NO,0,0,5,YES,NO,NO,0,0,5,YES,DU,LI
Y09931_BT024951,DU,DI,0,NO,0,False,0.07,YES,0,1,1.4,YES,NO,NO,0,0,5,YES,NO,NO,0,0,5,YES,DU,LI
AY060357_X14396,DU,DI,0.07,NO,0,N/A,0.29,YES,0,0.89,0.2,YES,YES,YES,0.01,0.83,1.8,YES,YES,NO,0,0,5,YES,DU,LI
AY119664_AL034544,DU,DI,0.22,NO,0,False,0.24,YES,0,1,0.000005,NO,NO,NO,0,0,5,YES,NO,NO,0,0,5,YES,DU,EF
M11798_M19537,DU,DI,0.33,YES,0,N/A,0.68,YES,0.01,0.86,0.16,YES,YES,YES,0.01,0.88,0.36,YES,YES,NO,0,0,5,YES,DU,LI
AJ238575_AJ012279,DU,DI,0.27,YES,0,False,0.06,YES,0,1,3.5,YES,YES,YES,0,1,1.6,YES,YES,YES,0.15,0.33,0,NO,DU,LI
AJ238575_AF045776,DU,DI,0.44,YES,0,False,0.17,YES,0,0.83,0.23,YES,YES,YES,0.01,0.83,0.1,YES,YES,YES,0.03,0.24,0.2,YES,DU,LI
AJ238577_AJ012279,DU,DI,0.25,YES,0,False,0.14,YES,0,1,1.6,YES,YES,YES,0,1,1.6,YES,YES,YES,0.04,0.21,0,NO,DU,LI
AJ238577_AF045776,DU,DI,0.4,YES,0,False,0.37,YES,0.02,0.71,0.009,YES,YES,YES,0.02,0.71,0.009,YES,YES,YES,0.02,0.28,0.0005,NO,DU,LI
AF129814_X03879,DU,DI,0.13,YES,0,N/A,0.62,YES,0.01,0.77,1.3,YES,YES,YES,0.01,0.77,0.89,YES,YES,YES,0.01,0.3,0.4,YES,DU,LI
AF129814_X03875,DU,DI,0.19,YES,0,N/A,0.97,YES,0.01,0.79,0.053,YES,YES,YES,0.01,0.79,0.03,YES,YES,YES,0.01,0.18,1.7,YES,DU,LI
BK003285_AY119566,DU,DI,0.18,NO,0,False,0.7,YES,0.01,0.83,0.3,YES,YES,YES,0.01,0.83,0.25,YES,YES,YES,0.01,0.57,2.2,YES,DU,LI
U01088_X73045,DU,DI,0,YES,0,False,0.1,YES,0.02,0.74,0,NO,YES,YES,0.06,0.74,0,NO,YES,YES,0.02,0.75,0.22,YES,DU,EF
X03876_S74010,DU,DI,0.07,YES,0,N/A,0.64,YES,0.02,1,0.46,YES,YES,YES,0.03,1,0.37,YES,YES,NO,0,0,5,YES,DU,LI
X03876_M37783,DU,DI,0.13,YES,0,N/A,0.09,YES,0,0.87,2.3,YES,YES,YES,0.03,0.91,2.1,YES,YES,NO,0,0,5,YES,DU,LI
AL132792_AF195242,DU,DI,0.18,YES,0,False,0.02,YES,0,1,0,NO,YES,YES,0,0.9,0.31,YES,YES,YES,0.01,0.34,1.2,YES,DU,EF
M59447_S88324,DU,DI,0.15,YES,0,N/A,0.09,YES,0.01,0.89,0.37,YES,YES,YES,0.01,1,0.031,YES,YES,YES,0.01,0.4,2.6,YES,DU,LI
S64529_X76230,DU,DI,0.14,YES,0,N/A,0.5,YES,0.01,0.88,0.32,YES,YES,YES,0.01,0.88,0.31,YES,YES,NO,0,0,5,YES,DU,LI
D00009_AB029195,DU,DI,0.45,YES,0,N/A,0.31,YES,0.01,0.86,0.39,YES,YES,YES,0.01,0.86,0.39,YES,YES,YES,0.01,0.64,0.43,YES,DU,LI
D00009_AB029196,DU,DI,0.45,YES,0,N/A,0.31,YES,0.01,0.86,0.39,YES,YES,YES,0.01,0.86,0.39,YES,YES,YES,0.01,0.64,0.43,YES,DU,LI
D00009_AB029194,DU,DI,0.45,YES,0,N/A,0.31,YES,0.01,0.86,0.39,YES,YES,YES,0.01,0.86,0.39,YES,YES,YES,0.01,0.64,0.43,YES,DU,LI
X14215_X97437,DU,DI,0.08,YES,0,N/A,0.4,YES,0.03,0.86,0,NO,YES,YES,0.09,0.83,0,NO,YES,NO,0,0,5,YES,DU,EF
AJ012279_AF045776,DU,DI,0.44,YES,0,False,0.37,YES,0.02,0.89,0.014,YES,YES,YES,0.02,0.89,0.014,YES,YES,YES,0.03,0.33,0.21,YES,DU,LI
X07133_X78908,DU,DI,0.08,YES,0,N/A,0.22,YES,0.01,1,0.13,YES,YES,YES,0.01,1,0.097,YES,YES,YES,0.02,0.35,6.6,YES,DU,LI
X05427_X05723,DU,DI,0.36,YES,0,N/A,0.19,YES,0.01,1,0,NO,YES,YES,0.01,1,0.82,YES,YES,YES,0.01,0.71,5.6,YES,DU,EF
X05427_X05724,DU,DI,0.44,YES,0,N/A,0.07,YES,0.01,0.81,0.15,YES,NO,NO,0,0,5,YES,NO,NO,0,0,5,YES,DU,LI
X05427_X05725,DU,DI,0.44,YES,0,N/A,0.03,YES,0,0.84,0.19,YES,NO,NO,0,0,5,YES,NO,NO,0,0,5,YES,DU,LI
X05427_X05727,DU,DI,0.44,YES,0,N/A,0.78,YES,0.01,0.77,0.039,YES,NO,NO,0,0,5,YES,NO,NO,0,0,5,YES,DU,LI
AJ002918_X72830,DU,DI,0.1,YES,0,False,0.16,YES,0.01,1,2.8,YES,YES,YES,0.01,1,2,YES,YES,YES,0.03,0.46,2,YES,DU,LI
AL031025_AY122166,DU,DI,0.22,NO,0,False,0.08,YES,0,0.83,0,NO,YES,YES,0.02,0.83,0,NO,YES,YES,0.01,0.5,2.9,YES,DU,EF
AL031025_AY061827,DU,DI,0.22,NO,0,False,0.07,YES,0.02,0.99,0,NO,YES,YES,0.01,0.88,0.006,YES,YES,YES,0.01,0.63,0.35,YES,DU,EF
EU088438_EU088887,DI,DU,0.69,YES,0.5,True,0.86,YES,0.03,0.83,0.065,YES,YES,YES,0.02,1,0.14,YES,YES,YES,0.04,0.6,0.68,YES,DI,DI
AY010629_AY010639,DI,DU,0.78,YES,0,True,0.14,YES,0.02,0.8,0.16,YES,YES,YES,0.02,0.8,0.11,YES,YES,NO,0,0,5,YES,DI,DI
AF385408_AF295941,DI,DU,0.6,YES,0,False,0.99,YES,0.81,0.96,0,NO,YES,YES,0.96,0.96,0,NO,YES,YES,0.99,0.99,0,NO,DI,DI
AY344347_AY344326,DI,DU,0.64,YES,0.5,True,0.78,YES,0.02,0.85,3.9,YES,YES,YES,0.02,1,2.2,YES,YES,YES,0.09,0.31,0.47,YES,DI,DI
AM294779_AL024453,DI,DU,0.25,YES,0,False,0.02,YES,0,0.81,1.2,YES,YES,YES,0.01,1,0.12,YES,YES,YES,0.07,0.39,0,NO,DI,DI
AY135129_AY135053,DI,DU,0.32,YES,0.5,True,0.29,YES,0.01,0.85,0.0002,NO,YES,YES,0,0.89,0.069,YES,YES,YES,0.04,0.37,0,NO,DI,DI
AY564918_AY565814,DI,DU,0.62,YES,0.5,True,0.33,YES,0.01,1,0.036,YES,YES,YES,0.02,0.8,0.4,YES,YES,YES,0.07,0.35,0.016,YES,DI,DI
AY564918_AY565838,DI,DU,0.62,YES,0.5,True,0.33,YES,0.01,0.83,0.01,YES,YES,YES,0.02,0.8,0.4,YES,YES,YES,0.07,0.33,0.027,YES,DI,DI
AY564918_AY565774,DI,DU,0.62,YES,0.5,True,0.34,YES,0.01,1,0.036,YES,YES,YES,0.02,0.8,0.4,YES,YES,YES,0.07,0.33,0.027,YES,DI,DI
EU088953_EU089033,DI,DU,0.83,YES,0.5,True,1,YES,0.99,0.99,0,NO,YES,YES,0.99,0.99,0,NO,YES,YES,0.99,0.99,0,NO,DI,DI
AY906118_AY906013,DI,DU,0.87,YES,0.5,True,1,YES,1,0.99,0,NO,YES,YES,1,1,0,NO,YES,YES,1,1,0,NO,DI,DI
AY344360_AY344277,DI,DU,0.64,YES,0.5,True,0.98,YES,0.02,1,1.4,YES,YES,YES,0.02,1,0.78,YES,YES,NO,0,0,5,YES,DI,DI
AF350484_AY846859,DI,DU,0.33,YES,0,False,0.63,YES,0.58,0.99,0,NO,YES,YES,0.95,0.99,0,NO,YES,YES,0.95,0.99,0,NO,DI,DI
AF350481_AF385405,DI,DU,0.6,YES,0,False,1,YES,1,0.99,0,NO,YES,YES,1,0.99,0,NO,YES,YES,1,0.99,0,NO,DI,DI
AF350482_AF350457,DI,DU,0.69,YES,0.5,True,0.95,YES,0.82,0.96,0,NO,YES,YES,0.96,0.96,0,NO,YES,YES,0.99,0.99,0,NO,DI,DI
AY905910_AY906111,DI,DU,0.87,YES,0.5,True,1,YES,0.99,0.99,0,NO,YES,YES,1,0.99,0,NO,YES,YES,0.99,0.99,0,NO,DI,DI
AB066627_AB042625,DI,DU,0.22,YES,0.5,False,0.07,YES,0.01,0.87,0.24,YES,YES,YES,0.01,0.87,0.17,YES,YES,NO,0,0,5,YES,DI,DI
FJ219339_FJ219244,DI,DU,0.55,YES,0.5,True,0.31,YES,0.01,1,0.15,YES,YES,YES,0.01,1,0.15,YES,YES,YES,0.01,0.39,3,YES,DI,DI
AY906004_AY906117,DI,DU,0.87,YES,0.5,True,1,YES,0.99,0.99,0,NO,YES,YES,1,0.99,0,NO,YES,YES,0.99,0.99,0,NO,DI,DI
AY344300_AY344274,DI,DU,0.64,YES,0.5,True,0.75,YES,0.02,1,0.29,YES,YES,YES,0.02,0.91,1.7,YES,YES,YES,0.06,0.41,3.3,YES,DI,DI
EU089243_EU088806,DI,DU,0.57,YES,0.5,True,0.83,YES,0.04,0.8,0.031,YES,YES,YES,0.04,0.8,0.025,YES,YES,YES,0.15,0.2,0.00005,NO,DI,DI
X91061_BT032790,DI,DU,0,NO,0,False,0.69,YES,0.06,0.96,0,NO,YES,YES,0.05,1,0.037,YES,YES,NO,0,0,5,YES,DI,DI
AY906021_AY906111,DI,DU,0.87,YES,0.5,True,1,YES,1,1,0,NO,YES,YES,1,1,0,NO,YES,YES,1,1,0,NO,DI,DI
AY906123_AY906112,DI,DU,0.87,YES,0.5,True,1,YES,1,0.99,0,NO,YES,YES,1,1,0,NO,YES,YES,1,1,0,NO,DI,DI
AF295947_AY846852,DI,DU,0.32,YES,0,False,0.73,YES,0.58,0.99,0,NO,YES,YES,0.93,0.99,0,NO,YES,YES,0.94,0.99,0,NO,DI,DI
AY344329_AY344313,DI,DU,0.64,YES,0.5,True,0.52,YES,0.01,1,0.48,YES,YES,YES,0.01,1,0.36,YES,YES,NO,0,0,5,YES,DI,DI
U57459_AB047050,DI,DU,0.27,YES,0,False,0.21,YES,0.01,0.92,2,YES,YES,YES,0.02,0.69,4.6,YES,YES,YES,0.02,0.31,3.1,YES,DI,DI
AY071305_BT003557,DI,DU,0.5,NO,0,True,0.45,YES,0.42,0.99,0,NO,YES,YES,0.01,0.87,1.3,YES,YES,YES,0.02,0.33,4.4,YES,DI,DI
AY274372_FJ686094,DI,DU,0.31,YES,0,False,0.97,YES,0.97,0.99,0,NO,YES,YES,0.97,0.99,0,NO,YES,YES,0.96,1,0,NO,DI,DI
AJ890254_AM114182,DI,DU,0.27,YES,0,False,0.6,YES,0.01,0.79,0.012,YES,YES,YES,0.01,0.79,0.007,YES,YES,YES,0.01,0.55,6.7,YES,DI,DI
AY344289_AY344345,DI,DU,0.64,YES,0.5,True,0.73,YES,0.02,0.92,1,YES,YES,YES,0.03,0.92,0.42,YES,YES,NO,0,0,5,YES,DI,DI
AY344286_AY344347,DI,DU,0.64,YES,0.5,True,0.73,YES,0.02,0.92,1,YES,YES,YES,0.03,0.92,0.42,YES,YES,NO,0,0,5,YES,DI,DI
AY344281_AY344343,DI,DU,0.64,YES,0.5,True,0.79,YES,0.02,1,0.09,YES,YES,YES,0.04,0.79,0.75,YES,YES,YES,0.04,0.56,1.5,YES,DI,DI
AY344280_AY344354,DI,DU,0.64,YES,0.5,True,0.98,YES,0.02,1,1.4,YES,YES,YES,0.02,1,0.78,YES,YES,NO,0,0,5,YES,DI,DI
FJ219539_FJ219324,DI,DU,0.55,YES,0.5,True,0.56,YES,0,1,3.4,YES,YES,YES,0,1,3.4,YES,YES,YES,0.02,0.39,0.41,YES,DI,DI
AY565174_AY564810,DI,DU,0.57,YES,0.5,True,0.99,YES,0.02,0.84,0.0002,NO,YES,YES,0.02,0.84,0.00009,NO,YES,YES,0.03,0.47,0.57,YES,DI,DI
AY906065_AY906111,DI,DU,0.87,YES,0.5,True,1,YES,1,1,0,NO,YES,YES,1,1,0,NO,YES,YES,1,1,0,NO,DI,DI
AY906064_AY906116,DI,DU,0.87,YES,0.5,True,1,YES,0.98,0.98,0,NO,YES,YES,0.99,0.99,0,NO,YES,YES,0.99,0.99,0,NO,DI,DI
EU089010_EU088957,DI,DU,0.83,YES,0.5,True,1,YES,1,0.99,0,NO,YES,YES,1,0.99,0,NO,YES,YES,1,1,0,NO,DI,DI
AY051649_AY565817,DI,DU,0.14,NO,0,False,0.83,YES,0.03,0.86,0.014,YES,YES,YES,0.04,0.86,0.006,YES,YES,YES,0.02,0.33,6.5,YES,DI,DI
AY051646_L08064,DI,DU,0.14,NO,0,N/A,0.16,YES,0.01,0.86,0,NO,YES,YES,0.02,0.94,0.014,YES,YES,YES,0.02,0.71,3.3,YES,DI,DI
AY565540_AY564959,DI,DU,0.57,YES,0.5,True,0.98,YES,0.01,0.82,0.003,YES,YES,YES,0.02,0.82,0.0008,NO,YES,YES,0.02,0.6,1.2,YES,DI,DI
AF295959_AF350477,DI,DU,0.69,YES,0,True,0.88,YES,0.86,0.99,0,NO,YES,YES,1,0.99,0,NO,YES,YES,1,0.99,0,NO,DI,DI
AF295958_AF295954,DI,DU,0.83,YES,0,True,0.87,YES,0.86,0.99,0,NO,YES,YES,1,0.99,0,NO,YES,YES,1,0.99,0,NO,DI,DI
X14569_BK004084,DI,DU,0.27,YES,0,N/A,0.22,YES,0,0.84,0.046,YES,YES,YES,0,0.84,0.036,YES,YES,YES,0,0.58,5.2,YES,DI,DI
AY906087_AY906111,DI,DU,0.87,YES,0.5,True,1,YES,0.99,0.99,0,NO,YES,YES,1,0.99,0,NO,YES,YES,0.99,0.99,0,NO,DI,DI
AY906086_AY906113,DI,DU,0.87,YES,0.5,True,1,YES,0.99,0.99,0,NO,YES,YES,1,0.99,0,NO,YES,YES,0.99,0.99,0,NO,DI,DI
AY846857_AF350486,DI,DU,0.33,YES,0,False,0.63,YES,0.58,0.99,0,NO,YES,YES,0.95,0.99,0,NO,YES,YES,0.95,1,0,NO,DI,DI
DQ228770_KC116216,DI,DU,0.42,YES,0,False,0.89,YES,0,0.89,0.37,YES,YES,YES,0,0.89,0.36,YES,YES,YES,0.09,0.3,0,NO,DI,DI
AJ240521_EU218026,DI,DU,0.36,YES,0,False,0.38,YES,0.01,0.91,0.0003,NO,YES,YES,0.03,0.91,0.0001,NO,YES,YES,0.09,0.23,2.7,YES,DI,DI
BT044580_L00359,DI,DU,0,NO,0,N/A,0.06,YES,0.05,0.82,0,NO,YES,YES,0.07,0.82,0,NO,YES,YES,0.58,0.59,0,NO,DI,DI
AY344247_AY344313,DI,DU,0.64,YES,0.5,True,0.88,YES,0.02,0.88,0.088,YES,YES,YES,0.02,0.88,0.073,YES,YES,YES,0.02,0.83,5.5,YES,DI,DI
AY344358_AY344339,DI,DU,0.64,YES,0.5,True,0.78,YES,0.02,0.85,3.9,YES,YES,YES,0.02,1,2.2,YES,YES,YES,0.09,0.31,0.47,YES,DI,DI
AY565502_AY564917,DI,DU,0.57,YES,0.5,True,0.98,YES,0.02,0.82,0.0008,NO,YES,YES,0.02,0.82,0.0003,NO,YES,YES,0.02,0.6,0.53,YES,DI,DI
AY060414_X76208,DI,DU,0.09,NO,0,N/A,0.13,YES,0.06,0.99,0,NO,YES,YES,0.01,0.98,0,NO,YES,YES,0.29,0.68,0,NO,DI,DI
AY010574_Y09931,DI,DU,0.08,YES,0,False,0.54,YES,0.06,0.8,0.61,YES,NO,NO,0,0,5,YES,NO,NO,0,0,5,YES,DI,DI
AY565874_BT023887,DI,DU,0.14,NO,0,False,0.25,YES,0.02,0.8,0.000002,NO,YES,YES,0.02,0.89,0.009,YES,YES,YES,0.01,1,3.2,YES,DI,DI
AB107280_AB107307,DI,DU,0.75,YES,0.5,True,0.88,YES,0.49,1,0,NO,YES,YES,0.68,1,0,NO,YES,YES,0.73,0.82,0,NO,DI,DI
AB107280_AB107317,DI,DU,0.75,YES,0.5,True,0.83,YES,0.47,1,0,NO,YES,YES,0.61,1,0,NO,YES,YES,0.65,0.86,0,NO,DI,DI
FJ219228_FJ219344,DI,DU,0.55,YES,0.5,True,0.31,YES,0.01,0.88,0.53,YES,YES,YES,0.01,0.88,0.53,YES,YES,YES,0.01,0.39,3,YES,DI,DI
AF350491_AY846853,DI,DU,0.35,YES,0,False,0.63,YES,0.58,0.99,0,NO,YES,YES,0.95,0.99,0,NO,YES,YES,0.95,0.99,0,NO,DI,DI
AF350479_AF350461,DI,DU,0.69,YES,0.5,True,0.95,YES,0.81,0.96,0,NO,YES,YES,0.96,0.96,0,NO,YES,YES,0.99,0.99,0,NO,DI,DI
AF350473_AY846855,DI,DU,0.33,YES,0,False,0.73,YES,0.59,0.99,0,NO,YES,YES,0.95,0.99,0,NO,YES,YES,0.95,1,0,NO,DI,DI
AL021106_AL022139,DI,DU,0.67,YES,0,True,0.91,YES,0,0.85,0,NO,YES,YES,0.01,0.86,0.12,YES,YES,NO,0,0,5,YES,DI,DI
AF295937_AY370940,DI,DU,0.4,YES,0,False,0.68,YES,0.16,0.93,0,NO,YES,YES,0.08,0.96,0,NO,YES,YES,0.09,1,0,NO,DI,DI
AF295936_AF295954,DI,DU,0.83,YES,0.5,True,0.98,YES,0.79,0.95,0,NO,YES,YES,0.96,0.96,0,NO,YES,YES,0.99,0.99,0,NO,DI,DI
DQ864108_DQ864089,DI,DU,0.63,YES,0.5,True,1,YES,0.89,0.89,0,NO,YES,YES,0.89,0.89,0,NO,YES,YES,0.97,0.97,0,NO,DI,DI
AF385406_BT011541,DI,DU,0.12,NO,0,False,0.82,YES,0.73,0.98,0,NO,YES,YES,1,0.99,0,NO,YES,YES,1,0.99,0,NO,DI,DI
AY905975_AY906115,DI,DU,0.87,YES,0.5,True,1,YES,0.99,0.99,0,NO,YES,YES,1,0.99,0,NO,YES,YES,0.99,0.99,0,NO,DI,DI
Z70316_Z15091,DI,DU,0.6,YES,0,False,0.43,YES,0.01,1,0.00002,NO,NO,NO,0,0,5,YES,NO,NO,0,0,5,YES,DI,DI
AY779908_AY906111,DI,DU,0.21,YES,0,False,0.01,YES,0.01,0.99,0,NO,YES,YES,0.02,0.85,1.9,YES,YES,NO,0,0,5,YES,DI,DI
AY565937_AY564977,DI,DU,0.62,YES,0.5,True,0.58,YES,0.01,1,0.021,YES,YES,YES,0.03,0.87,0.17,YES,YES,NO,0,0,5,YES,DI,DI
U34332_AF017010,DI,DU,0.6,YES,0,False,0.21,YES,0.01,0.89,0.079,YES,YES,YES,0.01,0.89,0.079,YES,YES,YES,0.09,0.37,0,NO,DI,DI
AF350452_AF350470,DI,DU,0.69,YES,0.5,True,0.95,YES,0.82,0.96,0,NO,YES,YES,0.96,0.96,0,NO,YES,YES,0.99,0.99,0,NO,DI,DI
AF350453_AF350473,DI,DU,0.69,YES,0.5,True,0.95,YES,0.82,0.95,0,NO,YES,YES,0.96,0.96,0,NO,YES,YES,0.99,0.99,0,NO,DI,DI
AF012422_BT001461,DI,DU,0.15,NO,0,False,1,YES,0.09,0.96,0,NO,YES,YES,0.06,0.85,0.44,YES,YES,YES,0.07,0.36,2.6,YES,DI,DI
FM245459_FM246278,DI,DU,0.71,YES,0.5,True,0.99,YES,0.01,0.85,0.76,YES,YES,YES,0.01,0.85,0.76,YES,YES,YES,0.02,0.54,3,YES,DI,DI
AY069088_AY069183,DI,DU,0.71,NO,0,True,0.95,YES,0.01,1,0.000003,NO,YES,YES,0.01,1,0.92,YES,YES,YES,0.02,0.43,0.000007,NO,DI,DI
AY565357_AY150863,DI,DU,0.16,YES,0,False,0.95,YES,0.02,0.83,0,NO,YES,YES,0.02,0.83,0,NO,YES,YES,0.03,0.71,0,NO,DI,DI
Y15606_BT028860,DI,DU,0.25,NO,0,False,0.35,YES,0.04,0.77,0,NO,YES,YES,0.01,0.92,0.000002,NO,YES,YES,0.01,0.75,0.56,YES,DI,DI
EU218032_EU217697,DI,DU,0.64,YES,0.5,True,0.96,YES,0.02,0.87,0.69,YES,YES,YES,0.02,0.87,0.69,YES,YES,YES,0.03,0.38,0.64,YES,DI,DI
AY565919_AY564809,DI,DU,0.62,YES,0.5,True,0.41,YES,0.01,1,0.03,YES,YES,YES,0.02,0.87,0.38,YES,YES,YES,0.03,0.63,1.1,YES,DI,DI
AY564967_AY565849,DI,DU,0.62,YES,0.5,True,0.57,YES,0.01,1,0.021,YES,YES,YES,0.03,0.87,0.18,YES,YES,NO,0,0,5,YES,DI,DI
AY564967_AY565768,DI,DU,0.62,YES,0.5,True,0.58,YES,0.01,1,0.021,YES,YES,YES,0.03,0.87,0.18,YES,YES,NO,0,0,5,YES,DI,DI
AY344257_AY344275,DI,DU,0.64,YES,0.5,True,0.58,YES,0.02,0.89,0.057,YES,YES,YES,0.02,0.78,0.044,YES,YES,YES,0.02,0.56,3.1,YES,DI,DI
AY070957_AL109630,DI,DU,0.22,NO,0,False,0,YES,0,0.97,0.000001,NO,YES,YES,0.02,0.93,0.064,YES,YES,YES,0.01,0.6,4.3,YES,DI,DI
AB107310_AB107331,DI,DU,0.82,YES,0.5,True,0.77,YES,0.41,1,0,NO,YES,YES,0.51,1,0,NO,YES,YES,0.51,0.99,0,NO,DI,DI
EU088781_EU089219,DI,DU,0.57,YES,0.5,True,0.83,YES,0.04,0.81,0.11,YES,YES,YES,0.05,0.81,0.086,YES,YES,YES,0.15,0.2,0.00007,NO,DI,DI
AB042864_AB043042,DI,DU,0.64,YES,0.5,True,0.98,YES,0.7,0.98,0,NO,YES,YES,0.99,0.99,0,NO,YES,YES,1,0.99,0,NO,DI,DI
AB042868_L22727,DI,DU,0.58,YES,0,N/A,0.9,YES,0.7,0.99,0,NO,YES,YES,0.99,0.99,0,NO,YES,YES,1,0.99,0,NO,DI,DI
AB107334_AB107328,DI,DU,0.69,YES,0.5,True,0.85,YES,0.48,1,0,NO,YES,YES,0.59,1,0,NO,YES,YES,0.6,0.93,0,NO,DI,DI
AB107334_AB107290,DI,DU,0.75,YES,0.5,True,0.94,YES,0.53,0.99,0,NO,YES,YES,0.75,1,0,NO,YES,YES,0.75,1,0,NO,DI,DI
AB107336_AB107288,DI,DU,0.69,YES,0.5,True,0.77,YES,0.45,0.99,0,NO,YES,YES,0.59,1,0,NO,YES,YES,0.6,0.95,0,NO,DI,DI
AB107336_AB107311,DI,DU,0.75,YES,0.5,True,0.68,YES,0.4,0.99,0,NO,YES,YES,0.51,0.99,0,NO,YES,YES,0.51,1,0,NO,DI,DI
AB107333_AB107320,DI,DU,0.75,YES,0.5,True,0.89,YES,0.6,1,0,NO,YES,YES,0.75,1,0,NO,YES,YES,0.75,1,0,NO,DI,DI
AY061582_X95251,DI,DU,0,NO,0,False,0.27,YES,0.21,0.98,0,NO,YES,YES,0.01,0.88,0.19,YES,YES,YES,0.03,0.23,0.6,YES,DI,DI
Z22227_Z22223,DI,DU,0.43,YES,0.5,True,0.95,YES,0.86,0.94,0,NO,YES,YES,0.95,0.95,0,NO,YES,YES,0.96,0.96,0,NO,DI,DI
L22716_AB043051,DI,DU,0.6,YES,0,N/A,0.71,YES,0.7,0.98,0,NO,YES,YES,0.98,0.98,0,NO,YES,YES,0.99,0.99,0,NO,DI,DI
AY564926_AY565884,DI,DU,0.62,YES,0.5,True,0.58,YES,0.01,1,0.019,YES,YES,YES,0.04,0.87,0.16,YES,YES,NO,0,0,5,YES,DI,DI
AY564926_AY565906,DI,DU,0.62,YES,0.5,True,0.6,YES,0.01,1,0.02,YES,YES,YES,0.04,0.87,0.16,YES,YES,NO,0,0,5,YES,DI,DI
AB043035_AB042882,DI,DU,0.64,YES,0.5,True,0.98,YES,0.73,0.96,0,NO,YES,YES,0.99,0.99,0,NO,YES,YES,0.99,0.99,0,NO,DI,DI
AY905992_AY906117,DI,DU,0.87,YES,0.5,True,1,YES,1,1,0,NO,YES,YES,1,1,0,NO,YES,YES,1,1,0,NO,DI,DI
AY905993_AY906531,DI,DU,0.63,YES,0.5,True,0.66,YES,0.04,0.82,0.5,YES,YES,YES,0.04,0.82,0.41,YES,YES,YES,0.03,0.36,3.8,YES,DI,DI
AF018995_AF019007,DI,DU,0.5,YES,0.5,True,0.98,YES,0.53,0.73,0,NO,YES,YES,0.74,0.73,0,NO,YES,YES,0.89,0.89,0,NO,DI,DI
AF018995_AF018973,DI,DU,0.5,YES,0.5,True,0.82,YES,0.54,0.74,0,NO,YES,YES,0.76,0.74,0,NO,YES,YES,0.84,0.84,0,NO,DI,DI
AY565880_AY069196,DI,DU,0.14,NO,0,False,0.15,YES,0.01,0.83,0,NO,YES,YES,0.02,0.86,0.013,YES,YES,YES,0.02,0.35,6.7,YES,DI,DI
AB107272_AB107343,DI,DU,0.75,YES,0.5,True,0.76,YES,0.53,0.99,0,NO,YES,YES,0.58,1,0,NO,YES,YES,0.58,1,0,NO,DI,DI
AB107274_AB107332,DI,DU,0.75,YES,0.5,True,0.68,YES,0.53,0.99,0,NO,YES,YES,0.75,1,0,NO,YES,YES,0.75,0.98,0,NO,DI,DI
AB107276_AB107337,DI,DU,0.69,YES,0.5,True,0.86,YES,0.47,0.99,0,NO,YES,YES,0.61,1,0,NO,YES,YES,0.61,0.99,0,NO,DI,DI
AB107276_AB107292,DI,DU,0.75,YES,0.5,True,0.75,YES,0.54,1,0,NO,YES,YES,0.68,1,0,NO,YES,YES,0.68,1,0,NO,DI,DI
AB107277_AB107341,DI,DU,0.69,YES,0.5,True,0.62,YES,0.44,0.99,0,NO,YES,YES,0.61,1,0,NO,YES,YES,0.65,0.86,0,NO,DI,DI
Y09063_Y10911,DI,DU,0.21,YES,0.33,True,0.3,YES,0.01,0.89,0.15,YES,YES,YES,0.01,0.89,0.11,YES,YES,YES,0.01,0.22,0.25,YES,DI,DI
AY564812_AY564973,DI,DU,0.83,YES,0.5,True,0.97,YES,0.95,0.98,0,NO,YES,YES,0.96,0.96,0,NO,YES,YES,0.99,0.99,0,NO,DI,DI
AY564812_AY564934,DI,DU,0.83,YES,0.5,True,0.99,YES,0.97,0.97,0,NO,YES,YES,0.96,0.96,0,NO,YES,YES,0.98,0.98,0,NO,DI,DI
AY564812_AY564825,DI,DU,0.83,YES,0.5,True,1,YES,0.98,0.99,0,NO,YES,YES,0.99,0.99,0,NO,YES,YES,0.98,0.98,0,NO,DI,DI
AY564812_AY564827,DI,DU,0.83,YES,0.5,True,1,YES,0.99,0.99,0,NO,YES,YES,1,0.99,0,NO,YES,YES,0.99,0.99,0,NO,DI,DI
AY564812_AY565234,DI,DU,0.57,YES,0.5,True,0.97,YES,0.02,0.83,0.0008,NO,YES,YES,0.02,0.83,0.0003,NO,YES,YES,0.02,0.33,6,YES,DI,DI
AY565229_AY564812,DI,DU,0.57,YES,0.5,True,0.97,YES,0.02,0.83,0.0008,NO,YES,YES,0.02,0.83,0.0003,NO,YES,YES,0.02,0.53,1.8,YES,DI,DI
AY344357_AY344298,DI,DU,0.64,YES,0.5,True,0.74,YES,0.02,0.92,1,YES,YES,YES,0.03,0.92,0.41,YES,YES,NO,0,0,5,YES,DI,DI
FJ219134_AL138972,DI,DU,0.17,YES,0,False,0,YES,0,1,0.00005,NO,YES,YES,0.01,0.79,0.011,YES,YES,NO,0,0,5,YES,DI,DI
EU088898_EU088957,DI,DU,0.83,YES,0.5,True,1,YES,0.99,0.99,0,NO,YES,YES,0.99,0.99,0,NO,YES,YES,0.99,0.99,0,NO,DI,DI
BT016031_M38582,DI,DU,0.18,NO,0,N/A,0.04,YES,0.01,0.82,0.000005,NO,YES,YES,0.03,0.82,0.000001,NO,YES,YES,0.09,0.49,0,NO,DI,DI
AY565419_AY564834,DI,DU,0.57,YES,0.5,True,0.99,YES,0.02,0.82,0.0008,NO,YES,YES,0.02,0.82,0.0003,NO,YES,YES,0.02,0.6,0.54,YES,DI,DI
AY135133_AY135080,DI,DU,0.26,YES,0.5,True,0.33,YES,0,1,0.1,YES,YES,YES,0,0.89,0.34,YES,YES,YES,0.01,0.5,8.5,YES,DI,DI
AY224607_AY635246,DI,DU,0.6,YES,0,False,0.39,YES,0.02,0.85,0.057,YES,YES,YES,0.02,1,5,YES,YES,YES,0.07,0.53,0.011,YES,DI,DI
AY565784_AY564909,DI,DU,0.62,YES,0.5,True,0.38,YES,0.01,1,0.032,YES,YES,YES,0.01,0.87,0.43,YES,YES,YES,0.07,0.33,0.011,YES,DI,DI
AY565780_AY564935,DI,DU,0.62,YES,0.5,True,0.57,YES,0.01,1,0.021,YES,YES,YES,0.03,0.87,0.18,YES,YES,NO,0,0,5,YES,DI,DI
JQ922420_AY565248,DI,DU,0.14,YES,0,False,0.79,YES,0.01,1,0.00009,NO,YES,YES,0.01,1,0.00006,NO,YES,YES,0.04,0.36,0,NO,DI,DI
AY795933_K03507,DI,DU,0.08,YES,0,N/A,0.08,YES,0,0.83,0.087,YES,YES,YES,0.01,0.86,0.18,YES,YES,YES,0.34,0.99,0,NO,DI,DI
AF017006_AF016995,DI,DU,0.6,YES,0.5,True,0.94,YES,0.05,0.82,0,NO,YES,YES,0.05,0.82,0,NO,YES,YES,0.42,0.45,0,NO,DI,DI
AY565207_AY564810,DI,DU,0.57,YES,0.5,True,0.99,YES,0.02,0.84,0.0002,NO,YES,YES,0.02,0.84,0.00009,NO,YES,YES,0.02,0.53,1.8,YES,DI,DI
AY906038_AY906116,DI,DU,0.87,YES,0.5,True,1,YES,0.98,0.98,0,NO,YES,YES,0.99,0.99,0,NO,YES,YES,0.99,0.99,0,NO,DI,DI
EU088916_EU088953,DI,DU,0.83,YES,0.5,True,1,YES,0.99,0.99,0,NO,YES,YES,1,0.99,0,NO,YES,YES,1,1,0,NO,DI,DI
AY344317_AY344363,DI,DU,0.64,YES,0.5,True,0.66,YES,0.02,0.84,0.18,YES,YES,YES,0.02,0.86,1.3,YES,YES,YES,0.06,0.32,0.045,YES,DI,DI
AY344317_AY344282,DI,DU,0.64,YES,0.5,True,0.66,YES,0.01,1,0.61,YES,YES,YES,0.02,0.92,0.44,YES,YES,YES,0.02,0.45,0.43,YES,DI,DI
AY344314_AY344263,DI,DU,0.64,YES,0.5,True,0.88,YES,0.02,0.88,0.088,YES,YES,YES,0.02,0.88,0.073,YES,YES,YES,0.02,0.83,5.1,YES,DI,DI
DQ305404_L38309,DI,DU,0.56,YES,0,N/A,0.47,YES,0.01,0.9,0.003,YES,YES,YES,0.01,1,0.036,YES,YES,YES,0.01,0.47,1.4,YES,DI,DI
AY564977_AY565938,DI,DU,0.62,YES,0.5,True,0.58,YES,0.01,1,0.021,YES,YES,YES,0.03,0.87,0.17,YES,YES,NO,0,0,5,YES,DI,DI
AY906137_AY906111,DI,DU,0.87,YES,0.5,True,1,YES,1,0.99,0,NO,YES,YES,1,0.99,0,NO,YES,YES,0.99,0.99,0,NO,DI,DI
AY069335_AY565858,DI,DU,0.14,NO,0,False,0.5,YES,0.02,0.86,0.023,YES,YES,YES,0.02,0.86,0.009,YES,YES,YES,0.02,0.24,7,YES,DI,DI
AY344335_AY344360,DI,DU,0.64,YES,0.5,True,0.78,YES,0.02,0.85,3.9,YES,YES,YES,0.03,0.85,2.2,YES,YES,YES,0.09,0.31,0.47,YES,DI,DI
AY344337_AY344264,DI,DU,0.64,YES,0.5,True,0.46,YES,0.01,0.86,1.9,YES,YES,YES,0.01,1,1.5,YES,YES,YES,0.03,0.35,1.8,YES,DI,DI
AY344331_AY344286,DI,DU,0.64,YES,0.5,True,0.94,YES,0.04,0.79,0.81,YES,YES,YES,0.02,1,1.4,YES,YES,NO,0,0,5,YES,DI,DI
K00667_K00672,DI,DU,0.4,YES,0.33,N/A,0.05,YES,0.04,0.91,0,NO,YES,YES,0.03,0.9,0,NO,YES,YES,0.96,0.96,0,NO,DI,DI
AY344299_AY344260,DI,DU,0.64,YES,0.5,True,0.44,YES,0.01,0.87,0.5,YES,YES,YES,0.01,1,0.99,YES,YES,YES,0.02,0.8,2.3,YES,DI,DI
EU088955_EU089060,DI,DU,0.83,YES,0.5,True,1,YES,0.99,0.99,0,NO,YES,YES,0.99,0.99,0,NO,YES,YES,0.99,0.99,0,NO,DI,DI
EU088956_EU088955,DI,DU,0.83,YES,0.5,True,1,YES,0.99,0.99,0,NO,YES,YES,0.99,0.99,0,NO,YES,YES,0.99,0.99,0,NO,DI,DI
EU088951_EU088943,DI,DU,0.83,YES,0.5,True,1,YES,0.99,0.99,0,NO,YES,YES,0.99,0.99,0,NO,YES,YES,0.99,0.99,0,NO,DI,DI
AY906115_AY906172,DI,DU,0.87,YES,0.5,True,1,YES,1,1,0,NO,YES,YES,1,1,0,NO,YES,YES,1,1,0,NO,DI,DI
AY906114_AY906153,DI,DU,0.87,YES,0.5,True,1,YES,1,0.99,0,NO,YES,YES,1,1,0,NO,YES,YES,1,1,0,NO,DI,DI
AY906110_AY906103,DI,DU,0.87,YES,0.5,True,1,YES,0.99,0.99,0,NO,YES,YES,1,0.99,0,NO,YES,YES,0.99,0.99,0,NO,DI,DI
AY906112_AY906238,DI,DU,0.87,YES,0.5,True,1,YES,0.98,0.98,0,NO,YES,YES,1,0.99,0,NO,YES,YES,0.99,0.99,0,NO,DI,DI
AY564810_AY565214,DI,DU,0.57,YES,0.5,True,0.99,YES,0.02,0.84,0.0002,NO,YES,YES,0.02,0.84,0.00009,NO,YES,YES,0.03,0.47,0.26,YES,DI,DI
AY564813_AY565210,DI,DU,0.57,YES,0.5,True,0.97,YES,0.02,0.83,0.0008,NO,YES,YES,0.02,0.83,0.0003,NO,YES,YES,0.02,0.33,7,YES,DI,DI
AY564813_AY565182,DI,DU,0.57,YES,0.5,True,0.97,YES,0.02,0.83,0.0008,NO,YES,YES,0.02,0.83,0.0003,NO,YES,YES,0.02,0.33,6.1,YES,DI,DI
AY564813_AY564896,DI,DU,0.83,YES,0.5,True,0.99,YES,0.97,0.97,0,NO,YES,YES,0.96,0.96,0,NO,YES,YES,0.98,0.98,0,NO,DI,DI
AY564816_AY565246,DI,DU,0.57,YES,0.5,True,0.68,YES,0.01,0.94,0.08,YES,YES,YES,0.02,0.94,0.028,YES,YES,YES,0.02,0.5,8.2,YES,DI,DI
AY564816_AY565288,DI,DU,0.57,YES,0.5,True,0.98,YES,0.02,0.83,0.0008,NO,YES,YES,0.02,0.83,0.0003,NO,YES,YES,0.02,0.33,6.4,YES,DI,DI
AY564816_AY564850,DI,DU,0.83,YES,0.5,True,0.99,YES,0.98,0.98,0,NO,YES,YES,0.97,0.97,0,NO,YES,YES,1,1,0,NO,DI,DI
AY135032_AY135073,DI,DU,0.27,YES,0.5,True,0.72,YES,0,1,1.6,YES,YES,YES,0,1,1.2,YES,YES,YES,0.01,0.5,0.84,YES,DI,DI
AB042876_L22730,DI,DU,0.58,YES,0,N/A,0.94,YES,0.7,0.98,0,NO,YES,YES,0.99,0.99,0,NO,YES,YES,0.99,0.99,0,NO,DI,DI
X03891_J01100,DI,DU,0.6,YES,0.2,N/A,0.95,YES,0.16,0.73,0,NO,YES,YES,0.36,0.73,0,NO,YES,YES,0.36,0.68,0,NO,DI,DI
M28864_M28863,DI,DU,0.46,YES,0.5,N/A,0.52,YES,0.01,0.76,0.17,YES,YES,YES,0.01,0.8,0.18,YES,YES,YES,0.02,0.43,1.2,YES,DI,DI
EU089059_EU088453,DI,DU,0.57,YES,0.5,True,0.86,YES,0.02,0.83,0.23,YES,YES,YES,0.02,1,0.14,YES,YES,YES,0.04,0.6,0.68,YES,DI,DI
X95242_X95252,DI,DU,0.5,YES,0.33,True,0.64,YES,0.27,0.98,0,NO,YES,YES,0.01,0.89,0.026,YES,YES,YES,0.03,0.23,1.6,YES,DI,DI
EU088974_EU088952,DI,DU,0.83,YES,0.5,True,1,YES,0.99,0.99,0,NO,YES,YES,1,0.99,0,NO,YES,YES,1,1,0,NO,DI,DI
AF295962_AY032740,DI,DU,0.47,YES,0,False,0.5,YES,0.49,0.99,0,NO,YES,YES,1,0.99,0,NO,YES,YES,1,0.99,0,NO,DI,DI
AF295962_AF295933,DI,DU,0.57,YES,0,True,0.83,YES,0.8,0.97,0,NO,YES,YES,0.97,0.97,0,NO,YES,YES,0.99,0.99,0,NO,DI,DI
AF295962_AF295947,DI,DU,0.6,YES,0,True,0.87,YES,0.84,0.98,0,NO,YES,YES,0.99,0.99,0,NO,YES,YES,0.99,0.99,0,NO,DI,DI
AY071402_AF295103,DI,DU,0.15,NO,0,False,0.71,YES,0.07,1,0,NO,YES,YES,0.01,0.93,0.63,YES,YES,YES,0.02,0.28,2,YES,DI,DI
AY344253_AY344327,DI,DU,0.64,YES,0.5,True,0.46,YES,0.02,0.88,1.9,YES,YES,YES,0.02,0.88,1.5,YES,YES,YES,0.02,1,1.2,YES,DI,DI
AY846864_AF350462,DI,DU,0.33,YES,0,False,0.7,YES,0.59,0.97,0,NO,YES,YES,0.91,0.97,0,NO,YES,YES,0.94,0.99,0,NO,DI,DI
AF238310_AF145649,DI,DU,0.5,NO,0,False,0.55,YES,0,0.88,0.91,YES,YES,YES,0.02,0.79,0.11,YES,YES,YES,0.01,0.35,8.7,YES,DI,DI
X55775_FM244964,DI,DU,0.08,YES,0,N/A,0.93,YES,0.04,1,0.53,YES,NO,NO,0,0,5,YES,NO,NO,0,0,5,YES,DI,DI
AB107291_AB107279,DI,DU,0.75,YES,0.5,True,0.56,YES,0.49,1,0,NO,YES,YES,0.51,1,0,NO,YES,YES,0.51,0.99,0,NO,DI,DI
AB107297_AB107326,DI,DU,0.69,YES,0.5,True,1,YES,0.45,1,0,NO,YES,YES,0.6,1,0,NO,YES,YES,0.6,0.99,0,NO,DI,DI
AB107299_AB107343,DI,DU,0.69,YES,0.5,True,0.74,YES,0.53,1,0,NO,YES,YES,0.58,1,0,NO,YES,YES,0.58,0.99,0,NO,DI,DI
Z46893_AF220546,DI,DU,0.22,YES,0,False,0.45,YES,0.38,0.93,0,NO,YES,YES,0.93,0.93,0,NO,YES,YES,0.95,0.95,0,NO,DI,DI
AF217399_U00145,DI,DU,0.2,YES,0,False,0.15,YES,0.09,0.99,0,NO,YES,YES,0,0.94,0.11,YES,YES,YES,0.02,0.26,1.9,YES,DI,DI
AY150722_Z21673,DI,DU,0.06,YES,0,False,0.6,YES,0.59,0.98,0,NO,YES,YES,0.98,0.98,0,NO,YES,YES,0.98,0.98,0,NO,DI,DI
AF321289_X05281,DI,DU,0.13,YES,0,False,0.05,YES,0,1,0.52,YES,NO,NO,0,0,5,YES,NO,NO,0,0,5,YES,DI,DI
FJ219233_FJ219332,DI,DU,0.55,YES,0.5,True,0.33,YES,0.01,0.88,0.5,YES,YES,YES,0.01,0.88,0.5,YES,YES,NO,0,0,5,YES,DI,DI
FJ219548_FJ219338,DI,DU,0.55,YES,0.5,True,0.56,YES,0,1,3.4,YES,YES,YES,0,1,3.4,YES,YES,YES,0.02,0.39,0.41,YES,DI,DI
AY564890_AY564810,DI,DU,0.83,YES,0.5,True,0.99,YES,0.97,0.97,0,NO,YES,YES,0.96,0.96,0,NO,YES,YES,0.98,0.98,0,NO,DI,DI
Y09935_X04570,DI,DU,0.08,YES,0,N/A,0.48,YES,0.05,0.88,0.19,YES,NO,NO,0,0,5,YES,NO,NO,0,0,5,YES,DI,DI
Y09935_AY058309,DI,DU,0,NO,0,False,0.05,YES,0,1,0.52,YES,NO,NO,0,0,5,YES,NO,NO,0,0,5,YES,DI,DI
AY906058_AY906117,DI,DU,0.87,YES,0.5,True,1,YES,0.99,0.99,0,NO,YES,YES,1,0.99,0,NO,YES,YES,0.99,0.99,0,NO,DI,DI
DQ864119_DQ864090,DI,DU,0.63,YES,0.5,True,1,YES,0.89,0.89,0,NO,YES,YES,0.89,0.89,0,NO,YES,YES,0.97,0.97,0,NO,DI,DI
U65492_U65105,DI,DU,0.63,YES,0.33,True,0.55,YES,0.01,0.94,0.055,YES,YES,YES,0.03,0.8,0.024,YES,YES,YES,0.05,0.27,0.18,YES,DI,DI
AB107344_AB107279,DI,DU,0.69,YES,0.5,True,0.89,YES,0.7,0.99,0,NO,YES,YES,0.83,1,0,NO,YES,YES,0.83,1,0,NO,DI,DI
AB107345_AB107283,DI,DU,0.69,YES,0.5,True,0.85,YES,0.43,0.99,0,NO,YES,YES,0.47,1,0,NO,YES,YES,0.47,1,0,NO,DI,DI
AB107346_AB107311,DI,DU,0.75,YES,0.5,True,0.9,YES,0.4,0.99,0,NO,YES,YES,0.51,0.99,0,NO,YES,YES,0.51,0.99,0,NO,DI,DI
X03876_U32855,DI,DU,0.03,YES,0,N/A,0.17,YES,0,1,0.36,YES,YES,YES,0.05,0.88,0.034,YES,YES,YES,0.06,0.45,1.7,YES,DI,DI
AY565340_AY564810,DI,DU,0.57,YES,0.5,True,0.99,YES,0.02,0.84,0.0002,NO,YES,YES,0.02,0.84,0.00009,NO,YES,YES,0.06,0.21,0.72,YES,DI,DI
DQ864092_DQ864115,DI,DU,0.63,YES,0.5,True,1,YES,0.89,0.89,0,NO,YES,YES,0.89,0.89,0,NO,YES,YES,0.98,0.98,0,NO,DI,DI
FM212204_FM212196,DI,DU,0.8,YES,0.5,True,0.98,YES,0.88,0.88,0,NO,YES,YES,0.84,0.84,0,NO,YES,YES,0.81,0.81,0,NO,DI,DI
AY905991_AY906115,DI,DU,0.87,YES,0.5,True,1,YES,1,1,0,NO,YES,YES,1,1,0,NO,YES,YES,1,1,0,NO,DI,DI
AY842139_BT031097,DI,DU,0.15,NO,0,False,0.74,YES,0.03,1,0,NO,YES,YES,0.11,0.74,0,NO,YES,YES,0.47,0.48,0,NO,DI,DI
M16153_AY795934,DI,DU,0.24,YES,0,False,0.2,YES,0,0.85,0.00003,NO,YES,YES,0.01,0.78,0.001,YES,YES,YES,0.34,0.99,0,NO,DI,DI
AY905927_AY906111,DI,DU,0.87,YES,0.5,True,1,YES,1,1,0,NO,YES,YES,1,1,0,NO,YES,YES,1,1,0,NO,DI,DI
AB107303_AB107286,DI,DU,0.69,YES,0.5,True,0.83,YES,0.42,1,0,NO,YES,YES,0.58,1,0,NO,YES,YES,0.59,0.94,0,NO,DI,DI
AY906204_AY906111,DI,DU,0.87,YES,0.5,True,1,YES,0.99,0.99,0,NO,YES,YES,1,0.99,0,NO,YES,YES,0.99,0.99,0,NO,DI,DI
AY564921_AY565775,DI,DU,0.62,YES,0.5,True,0.33,YES,0.03,0.81,0,NO,YES,YES,0.03,0.83,0.000002,NO,YES,YES,0.06,0.56,0.000005,NO,DI,DI
AY565735_AY565347,DI,DU,0.57,YES,0.5,True,0.54,YES,0.01,0.93,0.81,YES,YES,YES,0.01,0.93,0.45,YES,YES,YES,0.06,0.22,0.12,YES,DI,DI
U85765_U90950,DI,DU,1,YES,0.5,True,1,YES,1,1,0,NO,YES,YES,0.05,1,1.1,YES,YES,NO,0,0,5,YES,DI,DI
FM245366_FM244964,DI,DU,0.71,YES,0.5,True,0.17,YES,0.01,0.87,0.24,YES,YES,YES,0.01,0.87,0.24,YES,YES,NO,0,0,5,YES,DI,DI
EU089176_K01947,DI,DU,0.1,YES,0,N/A,0.4,YES,0.03,0.82,0.62,YES,YES,YES,0.03,0.82,0.49,YES,YES,NO,0,0,5,YES,DI,DI
AF145623_AF181643,DI,DU,0.56,YES,0.5,True,0.52,YES,0.01,0.88,0.0003,NO,YES,YES,0.01,1,0.33,YES,YES,YES,0.01,0.45,1.7,YES,DI,DI
AB043027_AB042878,DI,DU,0.64,YES,0.5,True,0.98,YES,0.73,0.96,0,NO,YES,YES,0.98,0.98,0,NO,YES,YES,0.99,0.99,0,NO,DI,DI
AY906242_AY906118,DI,DU,0.87,YES,0.5,True,1,YES,1,0.99,0,NO,YES,YES,1,0.99,0,NO,YES,YES,0.99,0.99,0,NO,DI,DI
FM245505_FM245345,DI,DU,0.71,YES,0.5,True,0.78,YES,0.01,0.93,0.31,YES,YES,YES,0.01,0.93,0.31,YES,YES,YES,0.03,0.33,0.062,YES,DI,DI
FM245503_FM245343,DI,DU,0.71,YES,0.5,True,0.78,YES,0.01,0.93,0.31,YES,YES,YES,0.01,0.93,0.31,YES,YES,YES,0.03,0.33,0.06,YES,DI,DI
