Z93376_AL132949,EF,DI,0.5,YES,0.5,False,0.07,YES,0,0.84,0,NO,NO,NO,0,0,5,YES,NO,NO,0,0,5,YES,EF,EF
Z81146_Z70308,LI,DI,0.71,YES,0.5,False,0.87,YES,0,0.71,0.002,YES,NO,NO,0,0,5,YES,NO,NO,0,0,5,YES,LI,LI
Z99942_AL008867,EF,DI,0.5,YES,0.5,True,0.44,YES,0.01,0.82,0,NO,NO,NO,0,0,5,YES,NO,NO,0,0,5,YES,EF,EF
Z46266_Z37140,LI,DI,0.71,YES,0.5,True,0.86,YES,0,0.92,0.008,YES,NO,NO,0,0,5,YES,NO,NO,0,0,5,YES,LI,LI
Z46266_AB011278,LI,DI,0.2,YES,0,False,0.02,YES,0,1,0.34,YES,NO,NO,0,0,5,YES,NO,NO,0,0,5,YES,LI,LI
Z46266_AB011277,LI,DI,0.2,YES,0,False,0.02,YES,0,1,0.32,YES,NO,NO,0,0,5,YES,NO,NO,0,0,5,YES,LI,LI
Z82052_AL021507,LI,DI,0.5,YES,0.5,False,0.04,YES,0,0.88,0.035,YES,NO,NO,0,0,5,YES,NO,NO,0,0,5,YES,LI,LI
Z82052_AL021572,EF,DI,0.71,YES,0.5,False,0.41,YES,0,0.75,0.0002,NO,NO,NO,0,0,5,YES,NO,NO,0,0,5,YES,EF,EF
Z92967_AL021572,EF,DI,0.71,YES,0.5,False,0.42,YES,0,0.72,0.00002,NO,NO,NO,0,0,5,YES,NO,NO,0,0,5,YES,EF,EF
Z78546_AL023830,EF,DI,0.5,YES,0.5,False,0.49,YES,0,0.94,0,NO,NO,NO,0,0,5,YES,NO,NO,0,0,5,YES,EF,EF
J01045_X16800,LI,DI,0.18,YES,0,N/A,0.14,YES,0.01,0.86,0.004,YES,NO,NO,0,0,5,YES,NO,NO,0,0,5,YES,LI,LI
Z35663_Z35719,EF,DI,0.71,YES,0.5,False,0.82,YES,0,0.73,0,NO,NO,NO,0,0,5,YES,NO,NO,0,0,5,YES,EF,EF
FO081551_Z70750,EF,DI,0.71,YES,0.5,False,0.84,YES,0,0.9,0,NO,NO,NO,0,0,5,YES,NO,NO,0,0,5,YES,EF,EF
Z72501_AJ133838,LI,DI,0.2,YES,0,False,0.06,YES,0,0.83,0.97,YES,NO,NO,0,0,5,YES,NO,NO,0,0,5,YES,LI,LI
Z69902_Z69904,EF,DI,0.71,YES,0.5,True,0.76,YES,0,0.82,0,NO,NO,NO,0,0,5,YES,NO,NO,0,0,5,YES,EF,EF
Z82288_Z81102,EF,DI,0.71,YES,0.5,False,0.75,YES,0,0.91,0,NO,NO,NO,0,0,5,YES,NO,NO,0,0,5,YES,EF,EF
AB206836_FO081246,LI,DI,0.3,YES,0,False,0.23,YES,0,1,0.21,YES,NO,NO,0,0,5,YES,NO,NO,0,0,5,YES,LI,LI
AL132860_AF069986,EF,DI,0.2,YES,0,False,0.01,YES,0,0.88,0,NO,NO,NO,0,0,5,YES,NO,NO,0,0,5,YES,EF,EF
Z82093_AF016854,EF,DI,0.33,YES,0,False,0.12,YES,0,0.72,0.00008,NO,NO,NO,0,0,5,YES,NO,NO,0,0,5,YES,EF,EF
Z82093_AL032638,EF,DI,0.5,YES,0.5,False,0.7,YES,0.01,0.72,0,NO,NO,NO,0,0,5,YES,NO,NO,0,0,5,YES,EF,EF
Z73103_Z68341,EF,DI,0.71,YES,0.5,True,0.64,YES,0.01,0.74,0,NO,NO,NO,0,0,5,YES,NO,NO,0,0,5,YES,EF,EF
Z82064_AL032638,EF,DI,0.5,YES,0.5,False,0.79,YES,0.01,0.74,0,NO,NO,NO,0,0,5,YES,NO,NO,0,0,5,YES,EF,EF
AF047887_AB008844,LI,DI,0.5,YES,0,False,0.15,YES,0.01,0.88,0.076,YES,YES,YES,0.02,0.88,0.059,YES,YES,YES,0.02,0.38,4.2,YES,LI,LI
AF047887_AB008843,LI,DI,0.38,YES,0,False,0.16,YES,0.01,0.88,0.069,YES,YES,YES,0.02,0.88,0.059,YES,YES,YES,0.02,0.38,4.2,YES,LI,LI
AF047887_AB008842,LI,DI,0.42,YES,0,False,0.17,YES,0.01,0.88,0.068,YES,YES,YES,0.02,0.88,0.059,YES,YES,YES,0.01,0.25,3,YES,LI,LI
FO081631_X99600,EF,DI,0,YES,0,False,0.01,YES,0,0.81,0,NO,NO,NO,0,0,5,YES,NO,NO,0,0,5,YES,EF,EF
Z68222_AF273780,LI,DI,0.14,YES,0,False,0.06,YES,0,0.8,0.045,YES,NO,NO,0,0,5,YES,NO,NO,0,0,5,YES,LI,LI
AL031630_Z81453,EF,DI,0.5,YES,0.5,False,0.61,YES,0,0.84,0,NO,NO,NO,0,0,5,YES,NO,NO,0,0,5,YES,EF,EF
AB011278_Z37140,LI,DI,0.2,YES,0,False,0.03,YES,0,1,1,YES,NO,NO,0,0,5,YES,NO,NO,0,0,5,YES,LI,LI
AB011279_Z37140,LI,DI,0.2,YES,0,False,0.07,YES,0,0.86,0.019,YES,NO,NO,0,0,5,YES,NO,NO,0,0,5,YES,LI,LI
Z81511_AJ012356,LI,DI,0.12,YES,0,False,0,YES,0,0.94,0.095,YES,NO,NO,0,0,5,YES,NO,NO,0,0,5,YES,LI,LI
Z81511_M37115,LI,DI,0.13,YES,0,N/A,0,YES,0,0.93,0.74,YES,NO,NO,0,0,5,YES,NO,NO,0,0,5,YES,LI,LI
Z81511_M37117,LI,DI,0.13,YES,0,N/A,0,YES,0,0.93,0.34,YES,NO,NO,0,0,5,YES,NO,NO,0,0,5,YES,LI,LI
Z81511_M37116,LI,DI,0.13,YES,0,N/A,0.01,YES,0,0.83,0.13,YES,NO,NO,0,0,5,YES,NO,NO,0,0,5,YES,LI,LI
Z81511_M37119,EF,DI,0.17,YES,0,N/A,0.07,YES,0,0.85,0.0003,NO,NO,NO,0,0,5,YES,NO,NO,0,0,5,YES,EF,EF
Z81511_M37118,LI,DI,0.13,YES,0,N/A,0.01,YES,0,0.94,0.21,YES,NO,NO,0,0,5,YES,NO,NO,0,0,5,YES,LI,LI
Z81512_AL033515,EF,DI,0.5,YES,0.5,False,0.12,YES,0.01,0.7,0,NO,NO,NO,0,0,5,YES,NO,NO,0,0,5,YES,EF,EF
AL132898_AL132863,EF,DI,0.71,YES,0.5,False,0.23,YES,0,0.9,0,NO,NO,NO,0,0,5,YES,NO,NO,0,0,5,YES,EF,EF
U12920_U12921,EF,DI,0.54,YES,0.25,True,0.23,YES,0.01,0.78,0,NO,YES,YES,0.01,0.78,0.00003,NO,YES,YES,1,1,0,NO,EF,EF
AF047886_AB008842,LI,DI,0.45,YES,0,False,0.08,YES,0.02,0.74,0.11,YES,YES,YES,0.03,0.74,0.096,YES,YES,YES,0.03,0.39,0.004,YES,LI,LI
AF273824_Z70211,LI,DI,0.14,YES,0,False,0.04,YES,0,0.95,0.003,YES,NO,NO,0,0,5,YES,NO,NO,0,0,5,YES,LI,LI
Z37979_AB011285,LI,DI,0.2,YES,0,False,0.03,YES,0,0.83,0.022,YES,NO,NO,0,0,5,YES,NO,NO,0,0,5,YES,LI,LI
Z37979_AB011284,LI,DI,0.2,YES,0,False,0.01,YES,0,0.76,0.34,YES,NO,NO,0,0,5,YES,NO,NO,0,0,5,YES,LI,LI
AF020343_FO080113,EF,DI,0.21,YES,0,False,0.25,YES,0,0.87,0.0001,NO,NO,NO,0,0,5,YES,NO,NO,0,0,5,YES,EF,EF
AF020344_FO080113,EF,DI,0.21,YES,0,False,0.23,YES,0,0.87,0.0001,NO,NO,NO,0,0,5,YES,NO,NO,0,0,5,YES,EF,EF
Z68301_Z70718,EF,DI,0.71,YES,0.5,False,0.83,YES,0.01,0.71,0,NO,NO,NO,0,0,5,YES,NO,NO,0,0,5,YES,EF,EF
AF032112_FO080113,EF,DI,0.33,YES,0,False,0.3,YES,0,0.87,0.0002,NO,NO,NO,0,0,5,YES,NO,NO,0,0,5,YES,EF,EF
AL132949_Z82279,EF,DI,0.5,YES,0.5,False,0.18,YES,0,0.76,0,NO,NO,NO,0,0,5,YES,NO,NO,0,0,5,YES,EF,EF
Z69791_Z69793,EF,DI,0.71,YES,0.5,False,0.63,YES,0,0.85,0,NO,NO,NO,0,0,5,YES,NO,NO,0,0,5,YES,EF,EF
Z82096_Z81511,EF,DI,0.71,YES,0.5,False,0.83,YES,0.01,0.75,0,NO,NO,NO,0,0,5,YES,NO,NO,0,0,5,YES,EF,EF
Z82096_M37114,LI,DI,0.13,YES,0,N/A,0.01,YES,0,0.77,0.062,YES,NO,NO,0,0,5,YES,NO,NO,0,0,5,YES,LI,LI
Z30974_Z30423,EF,DI,0.71,YES,0.5,False,0.68,YES,0,0.81,0,NO,NO,NO,0,0,5,YES,NO,NO,0,0,5,YES,EF,EF
AL031635_Z81134,EF,DI,0.5,YES,0.5,False,0.42,YES,0,0.74,0,NO,NO,NO,0,0,5,YES,NO,NO,0,0,5,YES,EF,EF
AF016854_AL032638,LI,DI,0.33,YES,0,False,0.18,YES,0,0.9,0.096,YES,NO,NO,0,0,5,YES,NO,NO,0,0,5,YES,LI,LI
Z68117_M37233,LI,DI,0.18,YES,0,N/A,0.03,YES,0,0.86,0.31,YES,NO,NO,0,0,5,YES,NO,NO,0,0,5,YES,LI,LI
Z68117_M37236,LI,DI,0,YES,0,N/A,0.01,YES,0,1,0.03,YES,NO,NO,0,0,5,YES,NO,NO,0,0,5,YES,LI,LI
Z68119_M37235,LI,DI,0,YES,0,N/A,0.03,YES,0,0.9,0.086,YES,NO,NO,0,0,5,YES,NO,NO,0,0,5,YES,LI,LI
FO080770_AJ561204,EF,DI,0.17,YES,0,False,0,YES,0,0.72,0,NO,NO,NO,0,0,5,YES,NO,NO,0,0,5,YES,EF,EF
Z49908_Z81573,EF,DI,0.71,YES,0.5,False,0.57,YES,0,0.79,0,NO,NO,NO,0,0,5,YES,NO,NO,0,0,5,YES,EF,EF
X16800_X16799,LI,DI,0.27,YES,0.5,N/A,0.15,YES,0.01,0.86,0.004,YES,NO,NO,0,0,5,YES,NO,NO,0,0,5,YES,LI,LI
AL590342_AL032627,EF,DI,0.71,YES,0.5,False,0.21,YES,0,0.78,0,NO,NO,NO,0,0,5,YES,NO,NO,0,0,5,YES,EF,EF
Z93395_AF132883,EF,DI,0.18,YES,0,False,0.11,YES,0,0.86,0.0001,NO,NO,NO,0,0,5,YES,NO,NO,0,0,5,YES,EF,EF
Z81031_AY836558,LI,DI,0.23,YES,0,False,0.08,YES,0,0.75,0.015,YES,NO,NO,0,0,5,YES,NO,NO,0,0,5,YES,LI,LI
Z81031_AY836556,LI,DI,0.23,YES,0,False,0.07,YES,0,0.75,0.014,YES,NO,NO,0,0,5,YES,NO,NO,0,0,5,YES,LI,LI
FO081769_U89307,EF,DI,0.21,NO,0,False,0,YES,0,0.9,0,NO,NO,NO,0,0,5,YES,NO,NO,0,0,5,YES,EF,EF
FO080701_AJ561213,LI,DI,0.17,YES,0,False,0.01,YES,0,0.88,0.92,YES,NO,NO,0,0,5,YES,NO,NO,0,0,5,YES,LI,LI
Z81499_V01494,LI,DI,0.11,YES,0,False,0.02,YES,0,0.93,3.5,YES,NO,NO,0,0,5,YES,NO,NO,0,0,5,YES,LI,LI
AY349016_FO080407,EF,DI,0.2,YES,0,False,0.17,YES,0,0.86,0,NO,NO,NO,0,0,5,YES,NO,NO,0,0,5,YES,EF,EF
AY349015_FO080407,LI,DI,0.2,YES,0,False,0.18,YES,0,0.89,0.11,YES,NO,NO,0,0,5,YES,NO,NO,0,0,5,YES,LI,LI
AB011281_Z37140,LI,DI,0.2,YES,0,False,0.02,YES,0,1,0.93,YES,NO,NO,0,0,5,YES,NO,NO,0,0,5,YES,LI,LI
AB011280_Z37140,LI,DI,0.33,YES,0,False,0.12,YES,0,0.83,0.033,YES,NO,NO,0,0,5,YES,NO,NO,0,0,5,YES,LI,LI
AB011283_Z37140,LI,DI,0.2,YES,0,False,0.02,YES,0,0.89,0.26,YES,NO,NO,0,0,5,YES,NO,NO,0,0,5,YES,LI,LI
AB011282_Z37140,LI,DI,0.2,YES,0,False,0.02,YES,0,1,0.9,YES,NO,NO,0,0,5,YES,NO,NO,0,0,5,YES,LI,LI
AB011285_Z37140,LI,DI,0.2,YES,0,False,0.02,YES,0,0.9,0.082,YES,NO,NO,0,0,5,YES,NO,NO,0,0,5,YES,LI,LI
AB011284_Z37140,LI,DI,0.2,YES,0,False,0.01,YES,0,0.89,0.1,YES,NO,NO,0,0,5,YES,NO,NO,0,0,5,YES,LI,LI
Z74473_U20168,EF,DI,0.3,YES,0,False,0.13,YES,0.01,0.73,0,NO,NO,NO,0,0,5,YES,NO,NO,0,0,5,YES,EF,EF
AY652944_Z81114,EF,DI,0.25,YES,0,False,0.06,YES,0.01,0.79,0,NO,NO,NO,0,0,5,YES,NO,NO,0,0,5,YES,EF,EF
AF020342_FO080113,EF,DI,0.21,YES,0,False,0.25,YES,0,0.87,0.0001,NO,NO,NO,0,0,5,YES,NO,NO,0,0,5,YES,EF,EF
M37233_M37236,LI,DI,0.3,YES,0.5,N/A,0.35,YES,0.02,0.88,0.12,YES,YES,YES,0.01,0.86,0.25,YES,YES,NO,0,0,5,YES,LI,LI
M37234_Z71261,LI,DI,0,YES,0,N/A,0.03,YES,0,0.9,0.066,YES,NO,NO,0,0,5,YES,NO,NO,0,0,5,YES,LI,LI
Z66562_Z66567,EF,DI,0.71,YES,0.5,False,0.9,YES,0.01,0.75,0,NO,NO,NO,0,0,5,YES,NO,NO,0,0,5,YES,EF,EF
Z36237_M38013,LI,DI,0,YES,0,N/A,0.01,YES,0,0.94,1.5,YES,NO,NO,0,0,5,YES,NO,NO,0,0,5,YES,LI,LI
Z71266_M37232,LI,DI,0.2,YES,0,N/A,0.03,YES,0,0.87,0.083,YES,NO,NO,0,0,5,YES,NO,NO,0,0,5,YES,LI,LI
AL031254_Z81058,EF,DI,0.5,YES,0.5,False,0.35,YES,0,0.77,0,NO,NO,NO,0,0,5,YES,NO,NO,0,0,5,YES,EF,EF
Z81063_Z81473,EF,DI,0.71,YES,0.5,True,0.97,YES,0,0.94,0,NO,NO,NO,0,0,5,YES,NO,NO,0,0,5,YES,EF,EF
Z81063_Z81522,EF,DI,0.71,YES,0.5,True,0.97,YES,0.01,0.69,0,NO,NO,NO,0,0,5,YES,NO,NO,0,0,5,YES,EF,EF
Z79694_Z73912,EF,DI,0.71,YES,0.5,True,0.72,YES,0,0.82,0.00001,NO,NO,NO,0,0,5,YES,NO,NO,0,0,5,YES,EF,EF
Z35599_Z34802,EF,DI,0.71,YES,0.5,False,0.9,YES,0,0.71,0,NO,NO,NO,0,0,5,YES,NO,NO,0,0,5,YES,EF,EF
Z75953_U00965,LI,DI,0.13,YES,0,False,0.09,YES,0,0.85,0.18,YES,NO,NO,0,0,5,YES,NO,NO,0,0,5,YES,LI,LI
Z81128_Z81033,EF,DI,0.71,YES,0.5,False,0.55,YES,0,0.93,0.0003,NO,NO,NO,0,0,5,YES,NO,NO,0,0,5,YES,EF,EF
Z19153_AF220525,LI,DI,0.15,YES,0,False,0.03,YES,0,1,0.03,YES,NO,NO,0,0,5,YES,NO,NO,0,0,5,YES,LI,LI
Z19153_AY303580,LI,DI,0.23,YES,0,False,0.03,YES,0,1,0.39,YES,NO,NO,0,0,5,YES,NO,NO,0,0,5,YES,LI,LI
FO081456_FO081620,EF,DI,0.5,YES,0.5,False,0.48,YES,0,0.88,0,NO,NO,NO,0,0,5,YES,NO,NO,0,0,5,YES,EF,EF
Z73912_U50735,EF,DI,0.2,YES,0,False,0.12,YES,0,0.83,0.0006,NO,NO,NO,0,0,5,YES,NO,NO,0,0,5,YES,EF,EF
Z81550_Z70211,EF,DI,0.71,YES,0.5,False,0.8,YES,0,0.96,0,NO,NO,NO,0,0,5,YES,NO,NO,0,0,5,YES,EF,EF
X78554_X78553,LI,DI,0.67,YES,0.5,True,0.09,YES,0,1,0.095,YES,NO,NO,0,0,5,YES,NO,NO,0,0,5,YES,LI,LI
AL033514_AL110501,EF,DI,0.71,YES,0.5,False,0.22,YES,0,0.94,0,NO,NO,NO,0,0,5,YES,NO,NO,0,0,5,YES,EF,EF
AJ561206_Z69791,LI,DI,0.17,YES,0,False,0.01,YES,0,0.89,0.052,YES,NO,NO,0,0,5,YES,NO,NO,0,0,5,YES,LI,LI
Z92822_AF143244,LI,DI,0.25,YES,0,False,0.06,YES,0,0.79,0.005,YES,NO,NO,0,0,5,YES,NO,NO,0,0,5,YES,LI,LI
Z92822_AF143243,LI,DI,0.25,YES,0,False,0.07,YES,0,0.79,0.006,YES,NO,NO,0,0,5,YES,NO,NO,0,0,5,YES,LI,LI
Z92822_AF145376,LI,DI,0.33,YES,0,False,0.06,YES,0,1,0.06,YES,NO,NO,0,0,5,YES,NO,NO,0,0,5,YES,LI,LI
AY171146_AY171172,DI,EF,0.44,YES,0.5,True,0.43,YES,0.02,0.75,0.0001,NO,YES,YES,0.04,0.75,0.00002,NO,YES,YES,0.05,0.44,0.74,YES,DI,DI
Z81095_FO081675,DI,EF,0.71,YES,0.5,False,0.61,YES,0.01,0.83,0,NO,NO,NO,0,0,5,YES,NO,NO,0,0,5,YES,DI,DI
Z81140_FO080916,DI,EF,0.71,YES,0.5,False,0.97,YES,0.01,0.81,0,NO,NO,NO,0,0,5,YES,NO,NO,0,0,5,YES,DI,DI
Z19122_AF308445,DI,EF,0.33,YES,0,False,0.42,YES,0,1,0.000006,NO,YES,YES,0,0.89,0.087,YES,YES,YES,0.01,0.27,0.63,YES,DI,DI
Z69792_Z81140,DI,EF,0.71,YES,0.5,False,0.97,YES,0.01,0.88,0,NO,NO,NO,0,0,5,YES,NO,NO,0,0,5,YES,DI,DI
Z47072_Z48178,DI,EF,0.71,YES,0.5,True,0.84,YES,0,1,0,NO,NO,NO,0,0,5,YES,NO,NO,0,0,5,YES,DI,DI
FO080949_FO080602,DI,EF,0.71,YES,0.5,False,0.95,YES,0.01,0.91,0,NO,NO,NO,0,0,5,YES,NO,NO,0,0,5,YES,DI,DI
FO080941_FO080437,DI,EF,0.71,YES,0.5,False,0.73,YES,0.01,0.88,0,NO,NO,NO,0,0,5,YES,NO,NO,0,0,5,YES,DI,DI
FO081128_Z81522,DI,EF,0.71,YES,0.5,False,0.64,YES,0,1,0,NO,NO,NO,0,0,5,YES,NO,NO,0,0,5,YES,DI,DI
FO080182_FO081061,DI,EF,0.71,YES,0.5,False,0.74,YES,0.01,0.81,0,NO,NO,NO,0,0,5,YES,NO,NO,0,0,5,YES,DI,DI
Z77659_FO081256,DI,EF,0.71,YES,0.5,False,0.78,YES,0.01,0.95,0,NO,NO,NO,0,0,5,YES,NO,NO,0,0,5,YES,DI,DI
Z77652_Z99268,DI,EF,0.5,YES,0.5,False,0.08,YES,0.01,0.82,0,NO,NO,NO,0,0,5,YES,NO,NO,0,0,5,YES,DI,DI
AY305831_Z81046,DI,EF,0.23,YES,0,False,0.05,YES,0,1,0.000002,NO,NO,NO,0,0,5,YES,NO,NO,0,0,5,YES,DI,DI
AL031633_Z81015,DI,EF,0.5,YES,0.5,False,0.37,YES,0.01,0.81,0,NO,NO,NO,0,0,5,YES,NO,NO,0,0,5,YES,DI,DI
Z68135_Z81512,DI,EF,0.71,YES,0.5,False,0.94,YES,0.01,0.87,0,NO,NO,NO,0,0,5,YES,NO,NO,0,0,5,YES,DI,DI
U33058_S47164,DI,LI,0.33,YES,0,N/A,0,YES,0,0.91,0.002,YES,YES,YES,0,0.91,0.002,YES,YES,YES,0,0.4,0,NO,DI,DI
Z79598_FO080754,DI,EF,0.71,YES,0.5,False,0.9,YES,0.01,0.81,0,NO,NO,NO,0,0,5,YES,NO,NO,0,0,5,YES,DI,DI
Z79598_Z69885,DI,EF,0.71,YES,0.5,False,0.58,YES,0.01,0.85,0,NO,NO,NO,0,0,5,YES,NO,NO,0,0,5,YES,DI,DI
FO080368_Z70680,DI,EF,0.71,YES,0.5,False,0.83,YES,0.03,0.98,0,NO,NO,NO,0,0,5,YES,NO,NO,0,0,5,YES,DI,DI
FO080782_FO080481,DI,EF,0.5,YES,0.5,False,0.3,YES,0.01,0.88,0,NO,NO,NO,0,0,5,YES,NO,NO,0,0,5,YES,DI,DI
AY204172_AY487142,DI,EF,0.29,YES,0,False,0.89,YES,0.03,0.96,0,NO,YES,YES,0.01,1,0.34,YES,YES,YES,0.02,0.25,1.1,YES,DI,DI
FO080977_FO081716,DI,EF,0.71,YES,0.5,False,0.82,YES,0.01,0.85,0,NO,NO,NO,0,0,5,YES,NO,NO,0,0,5,YES,DI,DI
FO081512_FO081096,DI,EF,0.71,YES,0.5,False,0.88,YES,0.02,0.84,0,NO,NO,NO,0,0,5,YES,NO,NO,0,0,5,YES,DI,DI
AL034364_FO080674,DI,EF,0.71,YES,0.5,False,0.44,YES,0.01,0.94,0,NO,NO,NO,0,0,5,YES,NO,NO,0,0,5,YES,DI,DI
AY008126_AF291847,DI,LI,0.6,YES,0,True,0.99,YES,0.01,0.88,0.14,YES,YES,YES,0.01,0.88,0.14,YES,YES,YES,0.03,0.37,0.55,YES,DI,DI
AL021497_AF021905,DI,EF,0.3,YES,0,False,0.01,YES,0,1,0.000002,NO,NO,NO,0,0,5,YES,NO,NO,0,0,5,YES,DI,DI
U67737_Z83230,DI,EF,0.25,YES,0,False,0.12,YES,0.01,0.85,0,NO,NO,NO,0,0,5,YES,NO,NO,0,0,5,YES,DI,DI
AL021571_Z95559,DI,EF,0.5,YES,0.5,False,0.13,YES,0,0.99,0,NO,NO,NO,0,0,5,YES,NO,NO,0,0,5,YES,DI,DI
FO080639_Z93393,DI,EF,0.5,YES,0.5,False,0.3,YES,0.01,0.83,0,NO,NO,NO,0,0,5,YES,NO,NO,0,0,5,YES,DI,DI
FO080700_Z68217,DI,EF,0.71,YES,0.5,False,0.78,YES,0.01,0.81,0,NO,NO,NO,0,0,5,YES,NO,NO,0,0,5,YES,DI,DI
FO080706_FO081642,DI,EF,0.5,YES,0.5,False,0.9,YES,0.01,0.89,0,NO,NO,NO,0,0,5,YES,NO,NO,0,0,5,YES,DI,DI
U34955_U34354,DI,EF,0.64,YES,0.33,True,0.96,YES,0.29,0.65,0,NO,YES,YES,0.3,0.65,0,NO,YES,YES,0.48,0.52,0,NO,DI,DI
Z74030_FO080216,DI,EF,0.71,YES,0.5,False,0.94,YES,0.01,0.93,0,NO,NO,NO,0,0,5,YES,NO,NO,0,0,5,YES,DI,DI
FO081297_AL021480,DI,EF,0.5,YES,0.5,False,0.92,YES,0.01,0.92,0,NO,NO,NO,0,0,5,YES,NO,NO,0,0,5,YES,DI,DI
FO080504_Z35595,DI,EF,0.71,YES,0.5,False,0.55,YES,0.01,0.82,0,NO,NO,NO,0,0,5,YES,NO,NO,0,0,5,YES,DI,DI
U51163_FO081418,DI,EF,0.25,YES,0,False,0.29,YES,0.01,0.83,0,NO,NO,NO,0,0,5,YES,NO,NO,0,0,5,YES,DI,DI
FO081336_Z48006,DI,EF,0.71,YES,0.5,False,0.66,YES,0.01,0.83,0,NO,NO,NO,0,0,5,YES,NO,NO,0,0,5,YES,DI,DI
Z92825_Z68336,DI,EF,0.71,YES,0.5,False,0.82,YES,0.01,0.9,0,NO,NO,NO,0,0,5,YES,NO,NO,0,0,5,YES,DI,DI
