Naive Bayes Classifier

                    Class
Attribute              EF       ES       LI       DI
                    (0.1)   (0.27)   (0.12)   (0.51)
=====================================================
Description
  mean              0.4702   0.8293    0.598   0.2187
  std. dev.         0.2314   0.0662   0.0585   0.1533
  weight sum        115643   307305   130308   569755
  precision         0.0111   0.0111   0.0111   0.0111

Has_Literature
  NO               12335.0   1593.0    429.0 265682.0
  YES             103310.0 305714.0 129881.0 304075.0
  [total]         115645.0 307307.0 130310.0 569757.0

Literature
  mean              0.2549   0.4891   0.4918    0.004
  std. dev.         0.2494   0.0698   0.0633   0.0443
  weight sum        115643   307305   130308   569755
  precision         0.0357   0.0357   0.0357   0.0357

Submitter
  False            50149.0   1947.0   1142.0 432918.0
  True             60508.0 304412.0 127936.0  46120.0
  N/A               4989.0    949.0   1233.0  90720.0
  [total]         115646.0 307308.0 130311.0 569758.0

Length
  mean              0.6186   0.9959   0.4888   0.4512
  std. dev.         0.3707   0.0117   0.1539   0.2692
  weight sum        115643   307305   130308   569755
  precision           0.01     0.01     0.01     0.01

SEQ_HIT
  YES             115644.0 307306.0 130309.0 569660.0
  NO                   1.0      1.0      1.0     97.0
  [total]         115645.0 307307.0 130310.0 569757.0

SEQ_AP
  mean              0.2628   0.9882   0.0118   0.0089
  std. dev.         0.2962   0.0147   0.0077   0.0142
  weight sum        115643   307305   130308   569755
  precision           0.01     0.01     0.01     0.01

SEQ_ID
  mean              0.9444   0.9938   0.9036   0.9084
  std. dev.         0.0733   0.0129   0.0498   0.0774
  weight sum        115643   307305   130308   569755
  precision          0.027    0.027    0.027    0.027

SEQ_EX
  mean                   0        0   0.3011   0.4596
  std. dev.         0.0011   0.0011   0.3657   0.7294
  weight sum        115643   307305   130308   569755
  precision         0.0066   0.0066   0.0066   0.0066

SEQ_THRE
  NO              115644.0 307306.0      1.0  57412.0
  YES                  1.0      1.0 130309.0 512345.0
  [total]         115645.0 307307.0 130310.0 569757.0

HAS_CD
  YES             115311.0 307133.0 130145.0 562530.0
  NO                 334.0    174.0    165.0   7227.0
  [total]         115645.0 307307.0 130310.0 569757.0

CD_HIT
  YES             115306.0 307133.0 130141.0 562118.0
  NO                 339.0    174.0    169.0   7639.0
  [total]         115645.0 307307.0 130310.0 569757.0

CD_AP
  mean              0.3497   0.9914   0.0121   0.0118
  std. dev.           0.38   0.0285   0.0079   0.0168
  weight sum        115643   307305   130308   569755
  precision           0.01     0.01     0.01     0.01

CD_ID
  mean               0.916   0.9951   0.9162   0.8977
  std. dev.         0.1005   0.0265    0.072   0.1293
  weight sum        115643   307305   130308   569755
  precision          0.027    0.027    0.027    0.027

CD_EX
  mean              0.1341   0.0028    0.253   0.6227
  std. dev.         0.5059   0.1188   0.3956   0.9559
  weight sum        115643   307305   130308   569755
  precision         0.0068   0.0068   0.0068   0.0068

CD_THRE
  NO              103998.0 307129.0     14.0  11471.0
  YES              11647.0    178.0 130296.0 558286.0
  [total]         115645.0 307307.0 130310.0 569757.0

HAS_TR
  YES             115311.0 307133.0 130145.0 562530.0
  NO                 334.0    174.0    165.0   7227.0
  [total]         115645.0 307307.0 130310.0 569757.0

TR_HIT
  YES             108260.0 307129.0 107465.0 464027.0
  NO                7385.0    178.0  22845.0 105730.0
  [total]         115645.0 307307.0 130310.0 569757.0

TR_AP
  mean              0.3939   0.9935   0.0715   0.0154
  std. dev.         0.4015   0.0277   0.1982   0.0228
  weight sum        115643   307305   130308   569755
  precision           0.01     0.01     0.01     0.01

TR_ID
  mean              0.6743   0.9932    0.395   0.3398
  std. dev.          0.346   0.0256   0.3074   0.2194
  weight sum        115643   307305   130308   569755
  precision         0.0108   0.0108   0.0108   0.0108

TR_EX
  mean              1.3906   0.0029   4.4331   2.5318
  std. dev.         2.1631   0.1206   2.2223   2.2097
  weight sum        115643   307305   130308   569755
  precision         0.0057   0.0057   0.0057   0.0057

TR_THRE
  NO               68457.0 307121.0  12650.0   3434.0
  YES              47188.0    186.0 117660.0 566323.0
  [total]         115645.0 307307.0 130310.0 569757.0


