BT024210_BT029117,EF,DI,0.71,NO,0,True,0.87,YES,0.01,0.87,0.00003,NO,YES,YES,0.03,0.79,0.018,YES,YES,YES,0.05,0.46,0.03,YES,EF,EF
EU541213_AY119272,LI,DI,0.15,NO,0,False,0.11,YES,0,1,0.25,YES,YES,YES,0,1,2.6,YES,YES,YES,0.01,0.45,7.8,YES,LI,LI
EU541214_AY119272,LI,DI,0.17,NO,0,False,0.1,YES,0,1,2.7,YES,YES,YES,0,1,1.8,YES,YES,NO,0,0,5,YES,LI,LI
AF189221_AY113293,EF,DI,0.2,NO,0,False,0.84,YES,0.01,0.86,0.0001,NO,YES,YES,0.01,0.94,0.15,YES,YES,YES,0.01,0.31,1.3,YES,EF,EF
AY564935_AY565337,EF,DI,0.62,YES,0.5,True,0.72,YES,0.03,0.84,0.00005,NO,YES,YES,0.05,0.84,0.00002,NO,YES,YES,0.02,0.57,0.85,YES,EF,EF
X84409_X14397,LI,DI,0.09,YES,0,N/A,0.4,YES,0.02,1,0.31,YES,YES,YES,0.02,1,0.31,YES,YES,NO,0,0,5,YES,LI,LI
X84409_X14395,LI,DI,0.09,YES,0,N/A,0.4,YES,0.01,0.92,0.58,YES,YES,YES,0.01,0.92,0.58,YES,YES,YES,0.08,0.25,0.00003,NO,LI,LI
X84409_X14394,LI,DI,0.09,YES,0,N/A,0.33,YES,0.01,0.87,0.71,YES,YES,YES,0.01,0.87,0.71,YES,YES,YES,0.03,0.35,0.001,YES,LI,LI
X84409_X14396,LI,DI,0.09,YES,0,N/A,0.31,YES,0.01,0.93,0.22,YES,YES,YES,0.01,0.93,0.22,YES,YES,YES,0.13,0.24,0,NO,LI,LI
AF214650_X75498,LI,DI,0.06,YES,0,False,0.4,YES,0.01,0.93,0.52,YES,YES,YES,0.01,0.92,0.77,YES,YES,NO,0,0,5,YES,LI,LI
AF214650_AY061580,LI,DI,0.11,NO,0,False,0.54,YES,0.01,0.85,0.11,YES,YES,YES,0.01,1,1,YES,YES,NO,0,0,5,YES,LI,LI
AF214650_AJ277188,LI,DI,0.31,YES,0,False,0.35,YES,0.01,0.83,0.59,YES,YES,YES,0.01,0.91,2.8,YES,YES,NO,0,0,5,YES,LI,LI
AF214650_AJ277189,LI,DI,0.31,YES,0,False,0.3,YES,0.01,0.93,0.69,YES,YES,YES,0.01,0.86,0.82,YES,YES,YES,0.01,0.57,0.68,YES,LI,LI
AF214650_AJ277181,LI,DI,0.38,YES,0,False,0.4,YES,0.01,0.93,0.51,YES,YES,YES,0.01,0.91,2.6,YES,YES,NO,0,0,5,YES,LI,LI
AF214650_BT029698,LI,DI,0.11,NO,0,False,0.42,YES,0.01,0.93,0.49,YES,YES,YES,0.01,0.86,0.71,YES,YES,NO,0,0,5,YES,LI,LI
AF214650_AJ277183,LI,DI,0.38,YES,0,False,0.31,YES,0.01,0.93,0.66,YES,YES,YES,0.01,0.83,0.21,YES,YES,NO,0,0,5,YES,LI,LI
AF214650_AJ277184,LI,DI,0.38,YES,0,False,0.78,YES,0.01,1,0.92,YES,YES,YES,0.01,0.85,1.4,YES,YES,NO,0,0,5,YES,LI,LI
AF214650_AJ277185,LI,DI,0.31,YES,0,False,0.3,YES,0.01,0.93,0.69,YES,YES,YES,0.01,0.91,2.7,YES,YES,NO,0,0,5,YES,LI,LI
AF214650_AJ277186,LI,DI,0.31,YES,0,False,0.34,YES,0.01,0.93,0.61,YES,YES,YES,0.01,0.91,2.7,YES,YES,NO,0,0,5,YES,LI,LI
AF214650_AJ277187,LI,DI,0.31,YES,0,False,0.37,YES,0.01,0.93,0.56,YES,YES,YES,0.01,0.91,2.7,YES,YES,NO,0,0,5,YES,LI,LI
AF214650_AJ277180,LI,DI,0.38,YES,0,False,0.34,YES,0.01,0.93,0.61,YES,YES,YES,0.01,0.91,2.6,YES,YES,NO,0,0,5,YES,LI,LI
AF214650_AJ277174,LI,DI,0.31,YES,0,False,0.42,YES,0.01,0.93,0.5,YES,YES,YES,0.01,0.91,2.4,YES,YES,NO,0,0,5,YES,LI,LI
AF214650_AJ277175,LI,DI,0.31,YES,0,False,0.52,YES,0.01,0.83,0.4,YES,YES,YES,0.01,0.92,0.57,YES,YES,NO,0,0,5,YES,LI,LI
AF214650_AJ277177,LI,DI,0.31,YES,0,False,0.4,YES,0.01,0.93,0.51,YES,YES,YES,0.01,0.91,2.5,YES,YES,NO,0,0,5,YES,LI,LI
AF214650_AJ277176,LI,DI,0.31,YES,0,False,0.33,YES,0.01,0.93,0.18,YES,YES,YES,0.01,0.91,2.5,YES,YES,NO,0,0,5,YES,LI,LI
AF214650_U62802,LI,DI,0.38,YES,0,False,0.4,YES,0.01,0.93,0.51,YES,YES,YES,0.01,0.82,0.74,YES,YES,NO,0,0,5,YES,LI,LI
AF214650_AJ277179,LI,DI,0.38,YES,0,False,0.37,YES,0.01,0.93,0.56,YES,YES,YES,0.01,0.91,2.6,YES,YES,NO,0,0,5,YES,LI,LI
AF214650_BT003579,LI,DI,0.11,NO,0,False,0.25,YES,0,1,0.83,YES,YES,YES,0.01,0.86,0.78,YES,YES,NO,0,0,5,YES,LI,LI
AF214650_U30914,LI,DI,0.44,YES,0,False,0.38,YES,0.01,0.83,0.55,YES,YES,YES,0.01,1,2.7,YES,YES,NO,0,0,5,YES,LI,LI
AF214650_AJ277182,LI,DI,0.38,YES,0,False,0.33,YES,0.01,0.93,0.63,YES,YES,YES,0.01,0.91,2.6,YES,YES,YES,0.01,0.8,0.14,YES,LI,LI
AF214650_AJ277193,LI,DI,0.38,YES,0,False,0.58,YES,0.02,0.83,0.36,YES,YES,YES,0.01,0.91,1.7,YES,YES,YES,0.01,0.8,0.67,YES,LI,LI
AF214650_AJ277191,LI,DI,0.38,YES,0,False,0.33,YES,0.01,0.83,0.64,YES,YES,YES,0.01,0.86,0.87,YES,YES,NO,0,0,5,YES,LI,LI
AF214650_AJ277190,LI,DI,0.31,YES,0,False,0.33,YES,0.01,0.83,0.63,YES,YES,YES,0.01,0.86,0.84,YES,YES,NO,0,0,5,YES,LI,LI
AF214650_AJ277194,LI,DI,0.38,YES,0,False,0.32,YES,0.01,0.93,0.66,YES,YES,YES,0.01,0.92,0.77,YES,YES,NO,0,0,5,YES,LI,LI
AF214650_AJ320165,LI,DI,0.44,YES,0,False,0.7,YES,0.01,1,0.5,YES,YES,YES,0.02,1,0.79,YES,YES,NO,0,0,5,YES,LI,LI
AF214650_AJ320164,LI,DI,0.44,YES,0,False,0.92,YES,0.01,1,0.78,YES,YES,YES,0.01,0.85,1.3,YES,YES,NO,0,0,5,YES,LI,LI
AF214650_AJ320161,LI,DI,0.38,YES,0,False,0.46,YES,0.01,0.83,0.45,YES,YES,YES,0.01,1,2.4,YES,YES,NO,0,0,5,YES,LI,LI
AF214650_AJ320163,LI,DI,0.38,YES,0,False,0.36,YES,0.01,0.93,0.58,YES,YES,YES,0.01,1,2.5,YES,YES,NO,0,0,5,YES,LI,LI
AF214650_AJ320162,LI,DI,0.44,YES,0,False,0.44,YES,0.01,1,0.31,YES,YES,YES,0.03,1,0.53,YES,YES,YES,0.05,0.71,0.021,YES,LI,LI
AF214650_AJ277178,LI,DI,0.38,YES,0,False,0.68,YES,0.02,0.84,0.3,YES,YES,YES,0.03,0.87,0.7,YES,YES,NO,0,0,5,YES,LI,LI
AF214650_BT003484,LI,DI,0.11,NO,0,False,0.21,YES,0.01,0.9,0.007,YES,YES,YES,0.01,0.86,0.74,YES,YES,NO,0,0,5,YES,LI,LI
AY122193_AL034544,EF,DI,0.22,NO,0,False,0.2,YES,0,0.92,0.0007,NO,NO,NO,0,0,5,YES,NO,NO,0,0,5,YES,EF,EF
U51619_M18022,EF,DI,0.18,YES,0,N/A,0.49,YES,0.03,0.78,0.0001,NO,YES,YES,0.04,0.84,0.002,YES,YES,YES,0.02,0.38,1.6,YES,EF,EF
X73219_M16428,LI,DI,0.25,YES,0,N/A,0.07,YES,0,1,0.14,YES,YES,YES,0.02,1,0.8,YES,YES,YES,0.03,0.36,1.3,YES,LI,LI
X73219_M16429,LI,DI,0.25,YES,0,N/A,0.15,YES,0,0.89,0.027,YES,YES,YES,0.02,0.92,0.88,YES,YES,YES,0.03,0.36,1.3,YES,LI,LI
AB120952_AB120943,LI,DI,0.5,YES,0.5,True,0.32,YES,0.01,0.93,0.26,YES,YES,YES,0.01,0.93,0.17,YES,YES,YES,0.04,0.24,0.22,YES,LI,LI
AB120952_AB120942,LI,DI,0.5,YES,0.5,True,0.32,YES,0.01,0.93,0.27,YES,YES,YES,0.01,0.93,0.23,YES,YES,YES,0.03,0.31,0.98,YES,LI,LI
AB120950_AB120943,LI,DI,0.5,YES,0.5,True,0.29,YES,0.01,0.92,0.81,YES,YES,YES,0.01,0.92,0.53,YES,YES,YES,0.02,0.27,8.7,YES,LI,LI
AB120951_AB120945,LI,DI,0.59,YES,0.5,True,0.73,YES,0.02,1,0.32,YES,YES,YES,0.03,1,0.23,YES,YES,YES,0.05,0.27,1.9,YES,LI,LI
AB120951_AB120949,LI,DI,0.59,YES,0.5,True,0.73,YES,0.02,1,0.32,YES,YES,YES,0.03,1,0.23,YES,YES,YES,0.05,0.27,1.9,YES,LI,LI
X60196_X53155,LI,DI,0.14,YES,0,True,0.33,YES,0,0.8,0.068,YES,YES,YES,0,0.8,0.059,YES,YES,YES,0.01,0.53,1.6,YES,LI,LI
S60740_X16825,LI,DI,0.29,YES,0,N/A,0.27,YES,0.01,0.86,0.017,YES,YES,YES,0.1,0.89,0.79,YES,YES,NO,0,0,5,YES,LI,LI
X12946_X12945,LI,DI,0.5,YES,0,False,0.31,YES,0.01,0.92,5.8,YES,NO,NO,0,0,5,YES,NO,NO,0,0,5,YES,LI,LI
X75027_AY061233,EF,DI,0,NO,0,False,0.47,YES,0.03,1,0,NO,YES,YES,0.01,1,0.27,YES,YES,YES,0.01,0.75,2.9,YES,EF,EF
X54652_AY051808,LI,DI,0.09,NO,0,False,0.89,YES,0.01,1,0.059,YES,NO,NO,0,0,5,YES,NO,NO,0,0,5,YES,LI,LI
AY051501_L25122,LI,DI,0.15,NO,0,N/A,0.13,YES,0.01,0.79,0.13,YES,YES,YES,0.01,0.79,0.11,YES,YES,YES,0.01,0.33,0.48,YES,LI,LI
AF220180_U72492,LI,DI,0.5,YES,0,False,0.02,YES,0,1,0.26,YES,YES,YES,0,1,0.39,YES,YES,NO,0,0,5,YES,LI,LI
AF220180_U14403,LI,DI,0.33,YES,0,False,0.29,YES,0.02,1,0.24,YES,YES,YES,0.01,1,0.28,YES,YES,NO,0,0,5,YES,LI,LI
AF220180_AF039231,LI,DI,0.5,YES,0,False,0.03,YES,0,1,0.18,YES,YES,YES,0,1,0.45,YES,YES,NO,0,0,5,YES,LI,LI
AF220180_AY152838,LI,DI,0.6,YES,0,True,0.21,YES,0.02,1,0.33,YES,YES,YES,0.01,1,0.33,YES,YES,NO,0,0,5,YES,LI,LI
AF220180_D84437,LI,DI,0.6,YES,0,True,0.04,YES,0,1,0.14,YES,YES,YES,0,1,0.5,YES,YES,NO,0,0,5,YES,LI,LI
AF220180_D84438,LI,DI,0.5,YES,0,True,0.15,YES,0.02,0.79,0.46,YES,YES,YES,0.02,1,1.5,YES,YES,NO,0,0,5,YES,LI,LI
AF220180_AY152837,LI,DI,0.6,YES,0,True,0.29,YES,0.02,1,0.25,YES,YES,YES,0.02,1,0.22,YES,YES,NO,0,0,5,YES,LI,LI
AF220180_BT024450,LI,DI,0.17,NO,0,False,0.03,YES,0,1,0.17,YES,YES,YES,0,1,0.56,YES,YES,NO,0,0,5,YES,LI,LI
AF220181_U14403,LI,DI,0.33,YES,0,False,0.5,YES,0.03,0.86,0.43,YES,YES,YES,0.03,0.86,0.43,YES,YES,YES,0.03,0.57,1.8,YES,LI,LI
AF220181_D84438,LI,DI,0.5,YES,0,True,0.26,YES,0.01,0.85,2.9,YES,YES,YES,0.05,0.91,0.64,YES,YES,NO,0,0,5,YES,LI,LI
AJ001722_AJ001718,LI,DI,0.47,YES,0.5,True,0.62,YES,0.02,0.86,1.3,YES,YES,YES,0.01,1,0.81,YES,YES,YES,0.02,0.4,2.4,YES,LI,LI
AY075365_AY058793,EF,DI,0.5,NO,0,True,0.75,YES,0.02,0.96,0,NO,YES,YES,0.01,0.88,0.38,YES,YES,YES,0.02,0.28,9.5,YES,EF,EF
BT015234_S63761,LI,DI,0.13,NO,0,N/A,0.26,YES,0,0.93,0.54,YES,YES,YES,0.01,0.84,0.66,YES,YES,YES,0.01,0.4,2.3,YES,LI,LI
AY052066_AL035312,EF,DI,0.22,NO,0,False,0.29,YES,0.01,0.77,0,NO,YES,YES,0.01,0.96,0,NO,YES,YES,0.02,0.39,0.47,YES,EF,EF
BT022150_BT150052,EF,DI,0.71,NO,0,True,0.94,YES,0.01,0.96,0.000001,NO,YES,YES,0.01,1,0.39,YES,YES,YES,0.01,0.3,0.94,YES,EF,EF
AF070062_BT024968,EF,DI,0.14,NO,0,False,0.54,YES,0.01,0.85,0.00001,NO,YES,YES,0.01,1,0.75,YES,YES,YES,0.02,0.53,0.41,YES,EF,EF
AF070063_BT024968,EF,DI,0.13,NO,0,False,0.42,YES,0.01,0.77,0.00002,NO,YES,YES,0.01,0.76,0.008,YES,YES,YES,0.01,0.53,0.62,YES,EF,EF
BT003484_X75499,EF,DI,0,NO,0,False,0.27,YES,0.01,0.84,0,NO,YES,YES,0.01,0.78,0.12,YES,YES,YES,0.01,0.26,1.7,YES,EF,EF
BT003484_AF214649,LI,DI,0.14,NO,0,False,0.37,YES,0.01,0.78,0.49,YES,YES,YES,0.01,0.78,0.074,YES,YES,YES,0.01,0.4,6.5,YES,LI,LI
BT003484_AF214648,LI,DI,0.17,NO,0,False,0.37,YES,0.01,0.78,0.49,YES,YES,YES,0.01,0.78,0.098,YES,YES,YES,0.01,0.38,9.9,YES,LI,LI
BT003484_AY061580,EF,DI,0.71,NO,0,True,0.39,YES,0.01,0.96,0.000007,NO,YES,YES,0.01,1,0.11,YES,YES,YES,0.02,0.45,0.76,YES,EF,EF
AY368098_M27292,LI,DI,0.05,YES,0,N/A,0.29,YES,0.01,0.89,0.054,YES,YES,YES,0.01,0.89,0.024,YES,YES,YES,0.02,0.63,5.8,YES,LI,LI
AY368099_M27292,LI,DI,0.05,YES,0,N/A,0.29,YES,0.01,0.89,0.054,YES,YES,YES,0.01,0.89,0.024,YES,YES,YES,0.02,0.63,5.8,YES,LI,LI
J03927_M13786,LI,DI,0.5,YES,0,N/A,0.06,YES,0,1,1.1,YES,YES,YES,0.01,1,0.75,YES,YES,NO,0,0,5,YES,LI,LI
AF509933_BT011082,EF,DI,0.17,NO,0,False,0.94,YES,0.01,0.82,0.0002,NO,YES,YES,0.01,0.82,0.00008,NO,YES,NO,0,0,5,YES,EF,EF
M74078_S63761,LI,DI,0.12,YES,0,N/A,0.19,YES,0,1,0.005,YES,YES,YES,0.01,0.84,0.66,YES,YES,YES,0.01,0.4,2.3,YES,LI,LI
AY051776_BT022131,EF,DI,0.5,NO,0,True,0.65,YES,0,1,0.0007,NO,YES,YES,0.01,0.9,0.019,YES,YES,NO,0,0,5,YES,EF,EF
AY051776_BT023142,LI,DI,0.5,NO,0,True,0.65,YES,0,1,0.009,YES,YES,YES,0.01,0.9,0.019,YES,YES,NO,0,0,5,YES,LI,LI
AY069302_S51722,LI,DI,0.12,NO,0,N/A,0.05,YES,0.01,0.88,0.027,YES,YES,YES,0.02,0.88,0.008,YES,YES,NO,0,0,5,YES,LI,LI
X59436_X59448,LI,DI,0.27,YES,0,False,0.31,YES,0,0.94,0.1,YES,YES,YES,0.01,0.87,0.53,YES,YES,YES,0,1,7.9,YES,LI,LI
X05948_Y00133,LI,DI,0.3,YES,0,False,0.42,YES,0.01,1,2.4,YES,YES,NO,0,0,5,YES,YES,NO,0,0,5,YES,LI,LI
X05949_X05950,EF,DI,0.7,YES,0.5,N/A,0.6,YES,0.08,0.71,0.00004,NO,YES,YES,0.16,0.72,0.00003,NO,YES,YES,0.3,0.5,0,NO,EF,EF
AJ400900_AF045778,LI,DI,0.27,YES,0,False,0.23,YES,0.01,0.84,0.52,YES,YES,YES,0.02,0.8,0.62,YES,YES,NO,0,0,5,YES,LI,LI
AJ400900_AJ012279,LI,DI,0.36,YES,0,False,0.74,YES,0.04,0.77,0.085,YES,YES,YES,0.04,0.77,0.085,YES,YES,NO,0,0,5,YES,LI,LI
AJ400900_AJ400902,LI,DI,0.5,YES,0.5,True,0.33,YES,0.01,0.89,0.029,YES,YES,YES,0.01,0.89,0.029,YES,YES,YES,0.01,0.6,0.27,YES,LI,LI
AJ400900_AF135062,LI,DI,0.4,YES,0,False,0.55,YES,0.01,0.92,0.74,YES,YES,YES,0.01,0.92,0.74,YES,YES,YES,0.02,0.63,4.9,YES,LI,LI
AJ400900_AB026845,EF,DI,0.27,YES,0,False,0.03,YES,0,1,0.0005,NO,YES,YES,0,1,0.0005,NO,YES,YES,0,0.33,0.31,YES,EF,EF
AJ400900_AF045777,LI,DI,0.4,YES,0,False,0.59,YES,0.03,0.89,0.006,YES,YES,YES,0.03,0.89,0.006,YES,YES,YES,0.02,0.2,1.8,YES,LI,LI
AJ400900_AJ012280,LI,DI,0.36,YES,0,False,0.77,YES,0.02,0.92,0.53,YES,YES,YES,0.02,0.92,0.53,YES,YES,YES,0.02,0.63,3.2,YES,LI,LI
AJ400900_AF241648,LI,DI,0.4,YES,0,False,0.55,YES,0.01,0.92,0.74,YES,YES,YES,0.01,0.92,0.74,YES,YES,YES,0.02,0.63,4.9,YES,LI,LI
AJ400900_AF241649,LI,DI,0.27,YES,0,False,0.48,YES,0.01,0.87,0.85,YES,YES,YES,0.01,0.87,0.85,YES,YES,YES,0.01,0.71,1.4,YES,LI,LI
AJ400900_AF045775,LI,DI,0.4,YES,0,False,0.17,YES,0.01,0.77,0.68,YES,YES,YES,0.01,0.77,0.59,YES,YES,YES,0.01,0.33,0.055,YES,LI,LI
AJ400900_AF045776,LI,DI,0.4,YES,0,False,0.5,YES,0.02,0.84,0.24,YES,YES,YES,0.02,0.84,0.24,YES,YES,YES,0.03,0.33,0.54,YES,LI,LI
AJ400901_AJ012279,LI,DI,0.36,YES,0,False,0.89,YES,0.05,0.78,0.02,YES,YES,YES,0.05,0.78,0.011,YES,YES,NO,0,0,5,YES,LI,LI
AJ400901_AF045778,LI,DI,0.27,YES,0,False,0.19,YES,0.01,0.9,0.035,YES,YES,YES,0.01,1,0.27,YES,YES,YES,0.02,0.83,3.2,YES,LI,LI
AJ400901_AF135062,LI,DI,0.4,YES,0,False,0.46,YES,0.01,1,2.1,YES,YES,YES,0.01,0.92,1.1,YES,YES,YES,0.02,0.71,4.9,YES,LI,LI
AJ400901_AJ245406,LI,DI,0.3,YES,0,False,0.01,YES,0,0.81,0.56,YES,YES,YES,0,0.78,0.4,YES,YES,YES,0,0.56,3.5,YES,LI,LI
AJ400901_AB026845,LI,DI,0.27,YES,0,False,0.03,YES,0,0.78,0.81,YES,YES,YES,0,0.78,0.4,YES,YES,YES,0,0.56,4.3,YES,LI,LI
AJ400901_BK000146,LI,DI,0.25,YES,0,False,0.01,YES,0,0.95,0.23,YES,YES,YES,0,0.95,0.12,YES,YES,YES,0,0.42,0.67,YES,LI,LI
AJ400901_AJ012280,LI,DI,0.36,YES,0,False,0.64,YES,0.02,0.92,1.5,YES,YES,YES,0.02,0.92,0.81,YES,YES,YES,0.02,0.71,3.3,YES,LI,LI
AJ400901_AF241648,LI,DI,0.4,YES,0,False,0.46,YES,0.01,1,2.1,YES,YES,YES,0.01,0.92,1.1,YES,YES,YES,0.02,0.71,4.9,YES,LI,LI
AJ400901_AF241649,LI,DI,0.27,YES,0,False,0.4,YES,0.01,1,2.5,YES,YES,YES,0.01,1,1.3,YES,YES,NO,0,0,5,YES,LI,LI
AJ400901_AF045775,LI,DI,0.4,YES,0,False,0.15,YES,0.01,0.78,0.16,YES,YES,YES,0.01,0.78,0.074,YES,YES,NO,0,0,5,YES,LI,LI
AJ400901_AF045776,LI,DI,0.4,YES,0,False,0.41,YES,0.01,1,0.056,YES,YES,YES,0.01,1,0.03,YES,YES,NO,0,0,5,YES,LI,LI
AJ400901_AF045777,LI,DI,0.4,YES,0,False,0.71,YES,0.05,0.81,0.057,YES,YES,YES,0.04,0.92,0.1,YES,YES,YES,0.04,0.8,2.1,YES,LI,LI
AJ400902_AJ012279,LI,DI,0.4,YES,0,False,0.25,YES,0.01,1,0.26,YES,YES,YES,0.01,1,0.26,YES,YES,YES,0.01,0.67,6.5,YES,LI,LI
AJ400902_AJ012280,LI,DI,0.4,YES,0,False,0.43,YES,0.01,1,1.6,YES,YES,YES,0.01,1,1.6,YES,YES,YES,0.02,0.32,0.33,YES,LI,LI
AJ400902_AF045778,LI,DI,0.3,YES,0,False,0.68,YES,0.01,0.94,0.13,YES,YES,YES,0.01,0.93,0.16,YES,YES,YES,0.04,0.42,0.034,YES,LI,LI
AJ400902_AF135062,LI,DI,0.44,YES,0,False,0.6,YES,0.01,1,2.3,YES,YES,YES,0.01,1,2.3,YES,YES,YES,0.02,0.32,0.43,YES,LI,LI
AJ400902_AJ245406,LI,DI,0.33,YES,0,False,0.04,YES,0,0.86,0.014,YES,YES,YES,0,1,0.82,YES,YES,YES,0,0.43,0.15,YES,LI,LI
AJ400902_AB026845,LI,DI,0.3,YES,0,False,0.1,YES,0,0.83,0.86,YES,YES,YES,0,0.83,0.81,YES,YES,YES,0,0.43,0.17,YES,LI,LI
AJ400902_AF045777,LI,DI,0.44,YES,0,False,0.2,YES,0.01,0.93,0.059,YES,YES,YES,0.01,0.93,0.059,YES,YES,YES,0.03,0.35,0.12,YES,LI,LI
AJ400902_AF241648,LI,DI,0.44,YES,0,False,0.6,YES,0.01,1,2.3,YES,YES,YES,0.01,1,2.3,YES,YES,YES,0.02,0.32,0.43,YES,LI,LI
AJ400902_AF241649,LI,DI,0.3,YES,0,False,0.69,YES,0.02,0.8,0.018,YES,YES,YES,0.02,0.8,0.018,YES,YES,YES,0.02,0.31,1.9,YES,LI,LI
AJ400902_AF045775,LI,DI,0.44,YES,0,False,0.52,YES,0,1,2.1,YES,YES,YES,0,1,1.8,YES,YES,YES,0.01,0.83,2.5,YES,LI,LI
AJ400902_AF045776,LI,DI,0.44,YES,0,False,0.67,YES,0.01,1,0.059,YES,YES,YES,0.01,1,0.059,YES,YES,YES,0.02,0.35,6.3,YES,LI,LI
AY095003_X05280,EF,DI,0.14,NO,0,False,0.16,YES,0.03,1,0,NO,NO,NO,0,0,5,YES,NO,NO,0,0,5,YES,EF,EF
X70866_AL034544,LI,DI,0.09,YES,0,False,0.08,YES,0,0.76,0.13,YES,NO,NO,0,0,5,YES,NO,NO,0,0,5,YES,LI,LI
X70865_AL034544,LI,DI,0.09,YES,0,False,0.06,YES,0,0.86,0.1,YES,NO,NO,0,0,5,YES,NO,NO,0,0,5,YES,LI,LI
X70863_AL034544,EF,DI,0.09,YES,0,False,0.23,YES,0,0.83,0,NO,NO,NO,0,0,5,YES,NO,NO,0,0,5,YES,EF,EF
X70862_AL034544,EF,DI,0.09,YES,0,False,0.21,YES,0,1,0.0007,NO,NO,NO,0,0,5,YES,NO,NO,0,0,5,YES,EF,EF
BT001272_AY069494,EF,DI,0.5,NO,0,True,0.79,YES,0.04,0.92,0,NO,YES,YES,0.01,0.81,0.0008,NO,YES,YES,0.01,0.29,0.16,YES,EF,EF
AF039231_AF220179,EF,DI,0.5,YES,0,False,0.21,YES,0.01,0.83,0,NO,YES,YES,0.01,0.85,0,NO,YES,YES,0.01,0.56,1.3,YES,EF,EF
AF039231_AF220181,LI,DI,0.5,YES,0,False,0.05,YES,0.01,0.79,0.093,YES,YES,YES,0.01,0.79,0.057,YES,YES,YES,0.04,0.43,0,NO,LI,LI
AF545819_U03883,EF,DI,0.31,YES,0,False,0.62,YES,0.02,0.78,0,NO,YES,YES,0.03,0.78,0,NO,YES,YES,0.21,0.36,0,NO,EF,EF
BT003583_S88324,LI,DI,0.17,NO,0,N/A,0.07,YES,0,0.89,0.04,YES,YES,YES,0.01,1,0.031,YES,YES,YES,0.01,0.4,2.8,YES,LI,LI
AJ320165_X75499,LI,DI,0.09,YES,0,True,0.56,YES,0.02,0.88,0.18,YES,YES,YES,0.03,0.78,0.43,YES,YES,YES,0.04,0.3,0.26,YES,LI,LI
AJ320165_AY061580,LI,DI,0.15,NO,0,False,0.38,YES,0.01,0.88,0.26,YES,YES,YES,0.03,0.88,0.4,YES,YES,YES,0.05,0.3,1.5,YES,LI,LI
AJ320165_AF214649,LI,DI,0.58,YES,0,False,0.4,YES,0.01,0.88,0.25,YES,YES,YES,0.03,0.92,0.27,YES,YES,YES,0.05,0.3,0.12,YES,LI,LI
AJ320165_AF214648,LI,DI,0.7,YES,0,False,0.4,YES,0.01,0.88,0.25,YES,YES,YES,0.02,0.92,0.36,YES,YES,YES,0.05,0.27,0.17,YES,LI,LI
AJ320165_U30913,EF,DI,0.5,YES,0,False,0.26,YES,0.01,1,0.0002,NO,YES,YES,0.01,1,0.0002,NO,YES,YES,0.02,0.3,0.76,YES,EF,EF
AJ320164_X75499,LI,DI,0.09,YES,0,True,0.87,YES,0.01,1,0.08,YES,YES,YES,0.02,1,0.058,YES,YES,NO,0,0,5,YES,LI,LI
AJ320164_AF214649,LI,DI,0.58,YES,0,False,0.62,YES,0.01,1,0.003,YES,YES,YES,0.01,1,0.13,YES,YES,YES,0.02,0.63,5.1,YES,LI,LI
AJ320164_AF214648,LI,DI,0.7,YES,0,False,0.62,YES,0.01,1,0.003,YES,YES,YES,0.02,1,0.049,YES,YES,YES,0.02,0.63,7.6,YES,LI,LI
AJ320164_AY061580,LI,DI,0.15,NO,0,False,0.59,YES,0.01,0.93,0.12,YES,YES,YES,0.02,0.93,0.054,YES,YES,YES,0.04,0.28,0.21,YES,LI,LI
AJ320161_AY061580,EF,DI,0.17,NO,0,False,0.84,YES,0.01,1,0.000003,NO,YES,YES,0.01,1,0.1,YES,YES,YES,0.02,0.45,0.9,YES,EF,EF
AJ320163_AY061580,EF,DI,0.17,NO,0,False,0.66,YES,0.01,0.9,0.000004,NO,YES,YES,0.01,1,0.11,YES,YES,YES,0.03,0.35,0.062,YES,EF,EF
AJ320162_X75499,LI,DI,0.09,YES,0,True,0.36,YES,0.02,0.76,0.39,YES,YES,YES,0.03,0.76,0.28,YES,YES,YES,0.07,0.33,0.0002,NO,LI,LI
AJ320162_AF214649,LI,DI,0.58,YES,0,False,0.25,YES,0.03,0.72,0.55,YES,YES,YES,0.08,0.72,0.18,YES,YES,YES,0.13,0.32,0.0004,NO,LI,LI
AJ320162_U30913,EF,DI,0.5,YES,0,False,0.16,YES,0.01,1,0.0001,NO,YES,YES,0.01,1,0.0001,NO,YES,YES,0.03,0.31,0.002,YES,EF,EF
AJ320162_AY061580,LI,DI,0.15,NO,0,False,0.24,YES,0.01,0.84,0.58,YES,YES,YES,0.03,0.84,0.26,YES,YES,YES,0.03,0.38,1.3,YES,LI,LI
BT015270_M15762,EF,DI,0,NO,0,N/A,0.03,YES,0.01,0.88,0,NO,YES,YES,0.01,0.88,0,NO,YES,NO,0,0,5,YES,EF,EF
AY069323_AY094733,EF,DI,0.5,NO,0,True,0.71,YES,0.01,1,0.0002,NO,YES,YES,0.01,0.9,0.029,YES,YES,YES,0.01,0.3,5,YES,EF,EF
AY069323_AY075578,EF,DI,0.71,NO,0,True,0.87,YES,0.01,1,0.0002,NO,YES,YES,0.01,0.94,0.038,YES,YES,YES,0.01,0.3,6,YES,EF,EF
AL109630_AL132651,EF,DI,0.43,YES,0.5,True,0.2,YES,0,1,0,NO,YES,YES,0,1,0.1,YES,YES,YES,0.01,0.26,0.12,YES,EF,EF
L07818_AB029251,LI,DI,0.27,YES,0,N/A,0.33,YES,0.01,0.88,0.14,YES,YES,YES,0.01,0.88,0.13,YES,YES,YES,0.01,0.47,0.6,YES,LI,LI
L07818_AB029250,LI,DI,0.27,YES,0,N/A,0.33,YES,0.01,0.88,0.14,YES,YES,YES,0.01,0.88,0.13,YES,YES,YES,0.01,0.47,0.6,YES,LI,LI
L07818_AB029252,LI,DI,0.27,YES,0,N/A,0.33,YES,0.01,0.88,0.14,YES,YES,YES,0.01,0.88,0.13,YES,YES,YES,0.01,0.47,0.6,YES,LI,LI
AY069184_AY174098,EF,DI,0.1,NO,0,False,0.89,YES,0.08,1,0,NO,YES,YES,0.01,0.88,0.91,YES,YES,YES,0.01,0.43,3.6,YES,EF,EF
AY069184_U55767,EF,DI,0.14,NO,0,False,0.56,YES,0.01,0.78,0,NO,YES,YES,0,0.85,0.7,YES,YES,NO,0,0,5,YES,EF,EF
AF241649_AJ012279,LI,DI,0.3,YES,0,False,0.36,YES,0.02,0.81,0.18,YES,YES,YES,0.02,0.81,0.18,YES,YES,YES,0.07,0.31,0,NO,LI,LI
AF241649_AF045775,LI,DI,0.71,YES,0,False,0.36,YES,0.01,0.94,0.01,YES,YES,YES,0.01,0.94,0.008,YES,YES,YES,0.07,0.22,0,NO,LI,LI
AF241649_AF045777,LI,DI,0.71,YES,0,False,0.28,YES,0.01,0.87,0.5,YES,YES,YES,0.01,0.87,0.5,YES,YES,YES,0.04,0.3,3.1,YES,LI,LI
J01130_J01129,EF,DI,0.71,YES,0.5,N/A,0.3,YES,0.17,0.76,0,NO,YES,YES,0.47,0.76,0,NO,YES,YES,0.42,0.69,0,NO,EF,EF
X78919_AJ002912,LI,DI,0.11,YES,0,N/A,0.16,YES,0.04,1,0.6,YES,YES,YES,0.04,1,0.6,YES,YES,NO,0,0,5,YES,LI,LI
X78919_X02293,LI,DI,0,YES,0,N/A,0.07,YES,0.02,1,0.39,YES,YES,YES,0.02,1,0.39,YES,YES,NO,0,0,5,YES,LI,LI
X78919_K03417,LI,DI,0.06,YES,0,N/A,0.04,YES,0.02,0.85,0.16,YES,YES,YES,0.02,0.85,0.15,YES,YES,NO,0,0,5,YES,LI,LI
X78919_K03416,LI,DI,0.06,YES,0,N/A,0.05,YES,0.01,1,1.6,YES,YES,YES,0.02,1,1.4,YES,YES,NO,0,0,5,YES,LI,LI
X78918_K03416,LI,DI,0.06,YES,0,N/A,0.03,YES,0.02,1,0.068,YES,YES,YES,0.02,1,0.055,YES,YES,NO,0,0,5,YES,LI,LI
X78918_AJ002912,LI,DI,0.11,YES,0,N/A,0.1,YES,0.04,1,0.3,YES,YES,YES,0.04,1,0.3,YES,YES,NO,0,0,5,YES,LI,LI
X78918_AF052752,LI,DI,0.07,YES,0,N/A,0.05,YES,0.03,1,0.046,YES,YES,YES,0.04,1,0.032,YES,YES,YES,0,1,0.16,YES,LI,LI
X78918_X02293,LI,DI,0,YES,0,N/A,0.04,YES,0.02,1,0.18,YES,YES,YES,0.02,1,0.18,YES,YES,NO,0,0,5,YES,LI,LI
X78918_K03417,LI,DI,0.06,YES,0,N/A,0.03,YES,0.01,1,0.28,YES,YES,YES,0.01,1,0.27,YES,YES,NO,0,0,5,YES,LI,LI
X78918_AF109081,LI,DI,0.06,YES,0,N/A,0.05,YES,0.03,1,0.046,YES,YES,YES,0.04,1,0.032,YES,YES,YES,0,1,0.16,YES,LI,LI
X78918_AF109082,LI,DI,0.06,YES,0,N/A,0.05,YES,0.03,1,0.16,YES,YES,YES,0.04,1,0.11,YES,YES,YES,0,1,0.16,YES,LI,LI
BT100187_AY118468,EF,DI,0.71,NO,0,True,0.56,YES,0.01,0.85,0,NO,YES,YES,0.02,0.85,0,NO,YES,YES,0.01,0.44,0.94,YES,EF,EF
AY048023_D00009,LI,DI,0.45,YES,0,N/A,0.75,YES,0.01,0.78,0.27,YES,YES,YES,0.01,1,0.19,YES,YES,YES,0.01,0.37,0.4,YES,LI,LI
S55971_X72830,LI,DI,0.08,YES,0,N/A,0.16,YES,0.01,0.86,0.84,YES,YES,YES,0.02,0.86,0.6,YES,YES,YES,0.03,0.46,2.2,YES,LI,LI
AB055857_AY061624,EF,DI,0.15,NO,0,False,0.9,YES,0.7,0.82,0,NO,YES,YES,0.76,0.82,0,NO,YES,YES,0.7,0.75,0,NO,EF,EF
U29592_AF545820,EF,DI,0.2,YES,0,False,0.06,YES,0.02,0.71,0.00003,NO,YES,YES,0.03,0.71,0.00001,NO,YES,YES,0.06,0.47,0,NO,EF,EF
AY069048_AY052091,EF,DI,0.71,NO,0,True,0.85,YES,0.01,1,0.0002,NO,YES,YES,0.01,0.88,0.088,YES,YES,YES,0.02,0.5,2.5,YES,EF,EF
AL035395_M16150,LI,DI,0.15,YES,0,False,0.03,YES,0,0.86,0.001,YES,YES,YES,0.01,1,1.8,YES,YES,YES,0,0.43,0.99,YES,LI,LI
AL035395_M16151,LI,DI,0.17,YES,0,False,0.03,YES,0,0.73,0.14,YES,YES,YES,0.01,0.93,0.039,YES,YES,YES,0,0.43,0.99,YES,LI,LI
AL035395_M16153,EF,DI,0.17,YES,0,False,0.05,YES,0,0.88,0.000003,NO,YES,YES,0.01,0.92,0.84,YES,YES,YES,0,0.43,0.99,YES,EF,EF
AL035395_M13689,EF,DI,0.05,YES,0,N/A,0.03,YES,0,0.88,0.000002,NO,YES,YES,0.02,0.92,0.33,YES,YES,YES,0,0.43,0.99,YES,EF,EF
AL035395_M16025,EF,DI,0,YES,0,N/A,0.02,YES,0,0.88,0.000001,NO,YES,YES,0.04,0.92,0.027,YES,YES,NO,0,0,5,YES,EF,EF
AL035395_M16149,LI,DI,0.17,YES,0,False,0.02,YES,0,0.95,0.002,YES,YES,YES,0.02,1,0.09,YES,YES,YES,0,0.43,0.99,YES,LI,LI
AL035395_K03507,LI,DI,0.05,YES,0,N/A,0.02,YES,0,0.95,0.002,YES,YES,YES,0.02,1,0.06,YES,YES,YES,0,0.43,0.99,YES,LI,LI
AY060257_M25294,LI,DI,0.2,NO,0,N/A,0.48,YES,0.01,0.78,0.015,YES,YES,YES,0.02,0.81,0.006,YES,YES,YES,0.02,0.58,3.9,YES,LI,LI
AY060250_M88473,LI,DI,0.13,NO,0,N/A,0.19,YES,0.01,0.94,0.008,YES,YES,YES,0.04,0.92,0.24,YES,YES,NO,0,0,5,YES,LI,LI
S64534_X76230,LI,DI,0.14,YES,0,N/A,0.31,YES,0.01,0.93,0.2,YES,YES,YES,0.01,0.93,0.19,YES,YES,YES,0.01,0.28,3.9,YES,LI,LI
S64531_X76230,LI,DI,0.14,YES,0,N/A,0.44,YES,0.01,0.88,0.28,YES,YES,YES,0.01,0.88,0.27,YES,YES,YES,0.01,0.28,5.3,YES,LI,LI
S64530_X76230,LI,DI,0.14,YES,0,N/A,0.44,YES,0.01,0.88,0.28,YES,YES,YES,0.01,0.88,0.27,YES,YES,YES,0.01,0.28,5.4,YES,LI,LI
S64532_X76230,LI,DI,0.14,YES,0,N/A,0.37,YES,0.01,0.88,0.24,YES,YES,YES,0.01,0.88,0.23,YES,YES,YES,0.01,0.28,4.7,YES,LI,LI
AB029251_AY575847,LI,DI,0.36,YES,0,False,0.31,YES,0.01,0.88,0.15,YES,YES,YES,0.01,0.88,0.13,YES,YES,YES,0.01,0.47,0.91,YES,LI,LI
AB029251_L07825,LI,DI,0.27,YES,0,N/A,0.33,YES,0.01,0.88,0.14,YES,YES,YES,0.01,0.88,0.13,YES,YES,YES,0.01,0.47,0.88,YES,LI,LI
AB029251_AF251241,LI,DI,0.55,YES,0,False,0.85,YES,0.02,1,0.19,YES,YES,YES,0.02,1,0.17,YES,YES,YES,0.02,0.36,3.1,YES,LI,LI
AB029251_D00009,LI,DI,0.42,YES,0,N/A,0.36,YES,0.01,1,0.037,YES,YES,YES,0.01,1,0.033,YES,YES,YES,0.01,0.36,6.3,YES,LI,LI
AB029250_AY575847,LI,DI,0.36,YES,0,False,0.31,YES,0.01,0.88,0.15,YES,YES,YES,0.01,0.88,0.13,YES,YES,YES,0.01,0.47,0.92,YES,LI,LI
AB029250_L07825,LI,DI,0.27,YES,0,N/A,0.33,YES,0.01,0.88,0.14,YES,YES,YES,0.01,0.88,0.13,YES,YES,YES,0.01,0.47,0.88,YES,LI,LI
AB029250_AF251241,LI,DI,0.55,YES,0,False,0.85,YES,0.02,1,0.19,YES,YES,YES,0.02,1,0.17,YES,YES,YES,0.02,0.36,3.1,YES,LI,LI
AB029250_D00009,LI,DI,0.42,YES,0,N/A,0.36,YES,0.01,1,0.037,YES,YES,YES,0.01,1,0.033,YES,YES,YES,0.01,0.37,3.9,YES,LI,LI
AB029252_L07825,LI,DI,0.27,YES,0,N/A,0.33,YES,0.01,0.88,0.14,YES,YES,YES,0.01,0.88,0.13,YES,YES,YES,0.01,0.47,0.88,YES,LI,LI
AB029252_D00009,LI,DI,0.42,YES,0,N/A,0.36,YES,0.01,1,0.037,YES,YES,YES,0.01,1,0.033,YES,YES,YES,0.01,0.37,3.9,YES,LI,LI
AB029252_AY575847,LI,DI,0.36,YES,0,False,0.31,YES,0.01,0.88,0.15,YES,YES,YES,0.01,0.88,0.13,YES,YES,YES,0.01,0.47,0.92,YES,LI,LI
AB029252_AF251241,LI,DI,0.55,YES,0,False,0.85,YES,0.02,1,0.19,YES,YES,YES,0.02,1,0.17,YES,YES,YES,0.02,0.36,3.1,YES,LI,LI
AF135167_AJ400900,LI,DI,0.36,YES,0,False,0.32,YES,0.01,0.87,1.3,YES,YES,YES,0.01,0.87,0.85,YES,YES,YES,0.01,0.71,1.5,YES,LI,LI
AF135167_AJ400901,LI,DI,0.36,YES,0,False,0.26,YES,0.01,1,3.8,YES,YES,YES,0.01,1,1.3,YES,YES,NO,0,0,5,YES,LI,LI
AF135167_AJ400902,LI,DI,0.4,YES,0,False,0.95,YES,0.01,0.8,0.027,YES,YES,YES,0.02,0.8,0.018,YES,YES,YES,0.03,0.22,3.4,YES,LI,LI
AF135167_AJ238577,LI,DI,0.36,YES,0,False,0.59,YES,0.01,0.95,0.004,YES,YES,YES,0.01,0.95,0.003,YES,YES,YES,0.06,0.25,0,NO,LI,LI
AF135167_AF045778,LI,DI,0.63,YES,0,False,0.72,YES,0.01,0.89,0.039,YES,YES,YES,0.01,0.93,0.37,YES,YES,NO,0,0,5,YES,LI,LI
AY058278_BT024951,EF,DI,0.5,NO,0,True,0.75,YES,0.01,0.95,0.0001,NO,YES,YES,0.01,0.9,0.003,YES,YES,YES,0.03,0.33,1.2,YES,EF,EF
AY058278_BT001424,EF,DI,0.5,NO,0,True,0.57,YES,0.01,0.95,0.00008,NO,YES,YES,0.01,0.83,0.013,YES,YES,NO,0,0,5,YES,EF,EF
M14978_X55175,LI,DI,0.08,YES,0,N/A,0.89,YES,0.02,1,1.6,YES,NO,NO,0,0,5,YES,NO,NO,0,0,5,YES,LI,LI
M14978_X55169,LI,DI,0.08,YES,0,N/A,0.4,YES,0.02,1,1.9,YES,NO,NO,0,0,5,YES,NO,NO,0,0,5,YES,LI,LI
M14979_X55174,LI,DI,0.08,YES,0,N/A,0.34,YES,0.02,1,3.1,YES,NO,NO,0,0,5,YES,NO,NO,0,0,5,YES,LI,LI
AF186651_X12558,LI,DI,0.25,YES,0,N/A,0.38,YES,0.01,1,1.2,YES,YES,YES,0.02,0.85,0.4,YES,YES,NO,0,0,5,YES,LI,LI
AF186651_X07255,LI,DI,0.18,YES,0,False,0.62,YES,0.01,1,1.9,YES,YES,YES,0.02,0.85,0.79,YES,YES,NO,0,0,5,YES,LI,LI
X07627_M13587,LI,DI,0.18,YES,0,N/A,0.19,YES,0.02,0.83,2.3,YES,YES,YES,0.25,0.82,0.22,YES,YES,NO,0,0,5,YES,LI,LI
X07627_X06383,EF,DI,0.36,YES,0,N/A,0.36,YES,0.02,0.88,0.0005,NO,YES,YES,0.04,0.91,0.13,YES,YES,YES,0.06,0.71,0.013,YES,EF,EF
AF251241_L07821,LI,DI,0.33,YES,0,N/A,0.39,YES,0.01,0.8,0.004,YES,YES,YES,0.01,0.8,0.004,YES,YES,YES,0.02,0.5,0.19,YES,LI,LI
AF251241_AY575847,LI,DI,0.6,YES,0,False,0.37,YES,0.01,0.8,0.004,YES,YES,YES,0.01,0.8,0.004,YES,YES,YES,0.02,0.53,0.19,YES,LI,LI
AF251241_L07825,LI,DI,0.33,YES,0,N/A,0.39,YES,0.01,0.8,0.004,YES,YES,YES,0.01,0.8,0.004,YES,YES,YES,0.02,0.5,0.19,YES,LI,LI
AF251241_L07823,LI,DI,0.33,YES,0,N/A,0.39,YES,0.01,0.8,0.004,YES,YES,YES,0.01,0.8,0.004,YES,YES,YES,0.02,0.5,0.19,YES,LI,LI
L07817_AB029251,LI,DI,0.27,YES,0,N/A,0.33,YES,0.01,0.88,0.14,YES,YES,YES,0.01,0.88,0.12,YES,YES,YES,0.01,0.47,0.59,YES,LI,LI
L07817_AB029250,LI,DI,0.27,YES,0,N/A,0.33,YES,0.01,0.88,0.14,YES,YES,YES,0.01,0.88,0.12,YES,YES,YES,0.01,0.47,0.59,YES,LI,LI
L07817_AB029252,LI,DI,0.27,YES,0,N/A,0.33,YES,0.01,0.88,0.14,YES,YES,YES,0.01,0.88,0.12,YES,YES,YES,0.01,0.47,0.59,YES,LI,LI
AL138972_AY118386,EF,DI,0.22,NO,0,False,0.01,YES,0,1,0,NO,YES,YES,0,0.82,0.75,YES,YES,YES,0.01,0.43,0.83,YES,EF,EF
M16431_X12558,LI,DI,0.1,YES,0,N/A,0.57,YES,0.02,1,0.79,YES,YES,YES,0.03,0.85,0.31,YES,YES,YES,0.04,1,0.016,YES,LI,LI
M16430_X12558,LI,DI,0.1,YES,0,N/A,0.31,YES,0.03,0.9,1.6,YES,YES,YES,0.07,1,0.69,YES,YES,YES,0.04,1,0.016,YES,LI,LI
M37495_BT024968,LI,DI,0.17,NO,0,N/A,0.78,YES,0.01,0.82,0.72,YES,YES,YES,0.01,1,0.75,YES,YES,YES,0.02,0.53,0.39,YES,LI,LI
AY565835_BT029038,LI,DI,0.14,NO,0,False,0.45,YES,0.01,0.86,0.027,YES,YES,YES,0.02,0.86,0.012,YES,YES,YES,0.02,0.55,2.9,YES,LI,LI
K01948_AY060407,LI,DI,0,NO,0,N/A,0.05,YES,0,0.84,0.37,YES,YES,YES,0.01,0.91,3.4,YES,YES,NO,0,0,5,YES,LI,LI
K01947_X78905,LI,DI,0.21,YES,0,N/A,0.16,YES,0.04,0.9,0.41,YES,YES,YES,0.04,0.9,0.41,YES,YES,NO,0,0,5,YES,LI,LI
AB026845_AJ238577,LI,DI,0.17,YES,0,False,0.19,YES,0,1,0.44,YES,YES,YES,0,1,0.42,YES,YES,YES,0.01,0.26,0,NO,LI,LI
AY094763_BT004875,EF,DI,0.71,NO,0,True,0.58,YES,0.02,1,0,NO,YES,YES,0.01,1,2.1,YES,YES,NO,0,0,5,YES,EF,EF
AY094763_M15765,EF,DI,0,NO,0,N/A,0.88,YES,0.03,1,0,NO,YES,YES,0.01,1,1.9,YES,YES,NO,0,0,5,YES,EF,EF
AY094763_L37083,EF,DI,0.15,NO,0,N/A,0.58,YES,0.02,1,0,NO,YES,YES,0.01,1,2.1,YES,YES,NO,0,0,5,YES,EF,EF
AY094763_U13178,EF,DI,0.14,NO,0,False,0.6,YES,0.02,1,0,NO,YES,YES,0.01,1,2.1,YES,YES,NO,0,0,5,YES,EF,EF
U72492_AF220179,EF,DI,0.5,YES,0,False,0.15,YES,0.01,0.83,0,NO,YES,YES,0.02,0.85,0,NO,YES,YES,0.02,0.21,0.86,YES,EF,EF
BT029698_X75499,EF,DI,0,NO,0,False,0.53,YES,0.02,0.97,0,NO,YES,YES,0.01,0.78,0.11,YES,YES,YES,0.01,0.26,1.6,YES,EF,EF
BT029698_AF214649,LI,DI,0.14,NO,0,False,0.73,YES,0.01,0.78,0.25,YES,YES,YES,0.01,0.78,0.072,YES,YES,YES,0.01,0.4,6.7,YES,LI,LI
BT029698_AY061580,EF,DI,0.71,NO,0,True,0.77,YES,0.01,1,0,NO,YES,YES,0.01,1,0.11,YES,YES,YES,0.02,0.45,0.73,YES,EF,EF
BT029698_AF214648,LI,DI,0.17,NO,0,False,0.73,YES,0.01,0.78,0.25,YES,YES,YES,0.01,0.78,0.095,YES,YES,YES,0.01,0.38,9.4,YES,LI,LI
M73529_AY075410,EF,DI,0.17,NO,0,False,0.81,YES,0.01,0.79,0.0002,NO,YES,YES,0.01,0.79,0.00003,NO,YES,YES,0.01,0.37,4.2,YES,EF,EF
X17471_AY174097,LI,DI,0,YES,0,N/A,0.06,YES,0,0.89,0.3,YES,YES,YES,0.02,1,0.17,YES,YES,NO,0,0,5,YES,LI,LI
X17471_AY174098,LI,DI,0,YES,0,N/A,0.08,YES,0,1,0.71,YES,YES,YES,0,1,1.6,YES,YES,YES,0.02,0.5,0.86,YES,LI,LI
X17471_U55767,LI,DI,0,NO,0,N/A,0.13,YES,0,1,0.45,YES,YES,YES,0.02,1,0.41,YES,YES,NO,0,0,5,YES,LI,LI
BT025955_AY113420,LI,DI,0.71,NO,0,True,0.79,YES,0.01,0.93,0.65,YES,YES,YES,0.01,1,0.76,YES,YES,YES,0.03,0.47,0.34,YES,LI,LI
BT025955_BT011082,EF,DI,0.71,NO,0,True,0.35,YES,0.01,0.92,0,NO,YES,YES,0.01,1,1,YES,YES,NO,0,0,5,YES,EF,EF
BT025957_AY113420,LI,DI,0.71,NO,0,True,0.7,YES,0.01,0.93,0.58,YES,YES,YES,0.01,1,0.94,YES,YES,YES,0.03,0.47,0.29,YES,LI,LI
BT025957_BT011082,EF,DI,0.71,NO,0,True,0.31,YES,0.01,0.92,0,NO,YES,YES,0.02,0.82,0.00002,NO,YES,YES,0.01,0.43,4.9,YES,EF,EF
S65724_M74583,LI,DI,0.33,YES,0,N/A,0.04,YES,0.01,0.94,0.15,YES,YES,YES,0.01,0.94,0.073,YES,YES,YES,0.01,0.33,2.2,YES,LI,LI
S65724_D13330,LI,DI,0.44,YES,0,N/A,0.04,YES,0.01,0.94,0.14,YES,YES,YES,0.01,0.94,0.073,YES,YES,YES,0.01,0.33,2.2,YES,LI,LI
M13360_J02788,LI,DI,0.5,YES,0,N/A,0.59,YES,0,0.84,0.46,YES,YES,YES,0.01,0.81,0.5,YES,YES,YES,0.02,0.33,1.8,YES,LI,LI
M13360_X60196,LI,DI,0.38,YES,0,N/A,0.99,YES,0.01,0.89,0.27,YES,YES,YES,0.01,0.88,0.58,YES,YES,YES,0.03,0.5,0.37,YES,LI,LI
X57746_X72830,LI,DI,0.3,YES,0.33,True,0.43,YES,0.01,0.76,0.086,YES,YES,YES,0.01,0.76,0.06,YES,YES,YES,0.02,0.27,0.00003,NO,LI,LI
D13004_L07585,LI,DI,0.33,YES,0,N/A,0.66,YES,0.01,0.78,0.018,YES,NO,NO,0,0,5,YES,NO,NO,0,0,5,YES,LI,LI
K01963_X05427,LI,DI,0.27,YES,0,N/A,0.05,YES,0,0.82,4.6,YES,YES,YES,0.07,0.76,0.8,YES,YES,NO,0,0,5,YES,LI,LI
K01962_X12558,LI,DI,0.07,YES,0,N/A,0.56,YES,0.02,1,0.8,YES,YES,YES,0.03,0.85,0.29,YES,YES,NO,0,0,5,YES,LI,LI
K01962_X07255,LI,DI,0,YES,0,N/A,0.91,YES,0.02,1,1.3,YES,YES,YES,0.03,0.85,0.58,YES,YES,NO,0,0,5,YES,LI,LI
K01961_X07255,LI,DI,0,YES,0,N/A,0.7,YES,0.03,0.82,0.82,YES,YES,YES,0.02,1,5.1,YES,YES,NO,0,0,5,YES,LI,LI
K01961_X12558,LI,DI,0.07,YES,0,N/A,0.89,YES,0.03,0.92,0.5,YES,YES,YES,0.02,1,2.6,YES,YES,NO,0,0,5,YES,LI,LI
X55172_M14981,LI,DI,0.08,YES,0,N/A,0.34,YES,0.02,1,3.1,YES,NO,NO,0,0,5,YES,NO,NO,0,0,5,YES,LI,LI
X55173_M14981,LI,DI,0.08,YES,0,N/A,0.47,YES,0.02,1,0.35,YES,NO,NO,0,0,5,YES,NO,NO,0,0,5,YES,LI,LI
X55174_M14980,LI,DI,0.08,YES,0,N/A,0.47,YES,0.02,1,0.35,YES,NO,NO,0,0,5,YES,NO,NO,0,0,5,YES,LI,LI
X53332_AL034544,EF,DI,0,YES,0,False,0.18,YES,0,0.93,0.000001,NO,NO,NO,0,0,5,YES,NO,NO,0,0,5,YES,EF,EF
AF238309_X73045,EF,DI,0,NO,0,False,0.16,YES,0.01,0.94,0,NO,YES,YES,0.03,0.94,0,NO,YES,YES,0.02,0.75,0.21,YES,EF,EF
AY051607_BT125874,EF,DI,0.5,NO,0,True,0.87,YES,0.01,1,0.00003,NO,YES,YES,0.01,0.89,0.049,YES,YES,YES,0.02,0.32,0.066,YES,EF,EF
U87150_AF003107,LI,DI,0.45,YES,0,False,0.27,YES,0.01,0.93,2,YES,YES,YES,0.01,1,0.27,YES,YES,NO,0,0,5,YES,LI,LI
S74010_M37783,LI,DI,0,YES,0,N/A,0.06,YES,0,0.89,0.12,YES,YES,YES,0.03,1,0.14,YES,YES,YES,0.05,0.22,0.6,YES,LI,LI
S74010_X03875,LI,DI,0.08,YES,0,N/A,0.1,YES,0.01,0.81,0.067,YES,YES,YES,0.02,0.81,0.038,YES,YES,YES,0.01,0.33,4.1,YES,LI,LI
S74010_AY089560,LI,DI,0.18,NO,0,N/A,0.07,YES,0,0.84,0.37,YES,YES,YES,0,0.87,1.2,YES,YES,NO,0,0,5,YES,LI,LI
S74010_X03877,LI,DI,0,YES,0,N/A,0.43,YES,0.02,0.86,0.69,YES,YES,YES,0.04,1,0.16,YES,YES,YES,0.02,0.67,6.9,YES,LI,LI
S74010_X03878,LI,DI,0.08,YES,0,N/A,0.97,YES,0.05,0.85,0.98,YES,YES,YES,0.05,0.85,0.81,YES,YES,YES,0.05,0.44,1.9,YES,LI,LI
S74010_AF129814,LI,DI,0.31,YES,0,N/A,0.11,YES,0,1,0.79,YES,YES,YES,0,1,0.79,YES,YES,YES,0.01,0.37,7.1,YES,LI,LI
BT011074_AY122251,EF,DI,0.71,NO,0,True,0.23,YES,0,1,0.0007,NO,YES,YES,0.01,1,1.3,YES,YES,NO,0,0,5,YES,EF,EF
AJ012280_AF045778,LI,DI,0.3,YES,0,False,0.3,YES,0.01,0.89,0.68,YES,YES,YES,0.02,0.89,0.23,YES,YES,NO,0,0,5,YES,LI,LI
AJ012280_AJ238577,LI,DI,0.25,YES,0,False,0.24,YES,0,0.93,0.24,YES,YES,YES,0,0.93,0.24,YES,YES,YES,0.05,0.23,0,NO,LI,LI
AJ012280_AF045775,LI,DI,0.44,YES,0,False,0.23,YES,0.01,0.84,0.006,YES,YES,YES,0.01,0.84,0.005,YES,YES,YES,0.09,0.36,0,NO,LI,LI
AJ012280_AF045777,LI,DI,0.44,YES,0,False,0.45,YES,0.01,1,1.1,YES,YES,YES,0.01,1,1.1,YES,YES,YES,0.02,0.8,6.1,YES,LI,LI
AY118468_AY113653,EF,DI,0.71,NO,0,True,0.81,YES,0.02,0.99,0,NO,YES,YES,0.01,0.93,0.17,YES,YES,YES,0.01,0.42,2,YES,EF,EF
AB035812_U26713,EF,DI,0.62,YES,0,False,0.67,YES,0.02,0.88,0.0004,NO,YES,YES,0.06,1,4.2,YES,YES,NO,0,0,5,YES,EF,EF
AB035812_U26715,EF,DI,0.53,YES,0,False,0.47,YES,0.01,0.86,0.00003,NO,YES,YES,0.01,0.89,0.001,YES,YES,YES,0.02,0.67,4.9,YES,EF,EF
AB035812_U26714,LI,DI,0.47,YES,0,False,0.26,YES,0.01,0.87,0.008,YES,YES,YES,0.01,1,1.3,YES,YES,NO,0,0,5,YES,LI,LI
AB035812_U26717,LI,DI,0.5,YES,0,False,0.58,YES,0.01,0.88,0.16,YES,YES,YES,0.01,0.85,0.41,YES,YES,NO,0,0,5,YES,LI,LI
AB035812_U26716,EF,DI,0.42,YES,0,False,0.21,YES,0.01,0.81,0.0008,NO,YES,YES,0,0.92,0.12,YES,YES,NO,0,0,5,YES,EF,EF
K03508_M16025,EF,DI,0.13,YES,0,N/A,0.06,YES,0,0.88,0.000001,NO,YES,YES,0,1,0.023,YES,YES,YES,0,1,0.003,YES,EF,EF
M16025_M16152,EF,DI,0.15,YES,0,N/A,0.09,YES,0,0.88,0,NO,YES,YES,0,1,0.014,YES,YES,YES,0,1,0.003,YES,EF,EF
AL035312_BT003182,EF,DI,0.22,NO,0,False,0.3,YES,0.01,0.77,0,NO,YES,YES,0.01,0.96,0,NO,YES,YES,0.01,0.75,4.6,YES,EF,EF
AL035312_BT001414,LI,DI,0.22,NO,0,False,0.1,YES,0,1,0.033,YES,YES,YES,0.01,0.88,0.07,YES,YES,YES,0.01,0.67,5.4,YES,LI,LI
AF204285_AF186078,EF,DI,0.46,YES,0,False,0.46,YES,0.02,0.81,0,NO,YES,YES,0.02,0.81,0,NO,YES,YES,0.02,0.67,0.000003,NO,EF,EF
AY665838_AY070875,EF,DI,0.17,NO,0,False,0.57,YES,0.01,1,0,NO,YES,YES,0.01,1,3,YES,YES,NO,0,0,5,YES,EF,EF
AF026500_AY119021,EF,DI,0.18,NO,0,False,0.15,YES,0.07,0.69,0,NO,YES,YES,0.08,0.69,0,NO,YES,YES,0.1,0.61,0,NO,EF,EF
AF026500_AF026502,EF,DI,0.75,YES,0.5,True,1,YES,0.57,0.66,0,NO,YES,YES,0.57,0.66,0,NO,YES,YES,0.64,0.64,0,NO,EF,EF
AF026502_AY119021,EF,DI,0.18,NO,0,False,0.15,YES,0.02,0.73,0.0002,NO,YES,YES,0.02,0.73,0.0002,NO,YES,YES,0.09,0.58,0,NO,EF,EF
U26715_AB008113,LI,DI,0.47,YES,0,False,0.47,YES,0.01,0.83,0.001,YES,YES,YES,0.01,0.89,0.001,YES,YES,YES,0.02,0.67,5,YES,LI,LI
U26714_AB008113,LI,DI,0.41,YES,0,False,0.26,YES,0.01,0.88,0.008,YES,YES,YES,0.01,1,1.3,YES,YES,NO,0,0,5,YES,LI,LI
U26717_AB008113,LI,DI,0.44,YES,0,False,0.58,YES,0.01,0.83,0.013,YES,YES,YES,0.01,0.85,0.41,YES,YES,NO,0,0,5,YES,LI,LI
U26716_AB008113,EF,DI,0.37,YES,0,False,0.21,YES,0,0.91,0.0009,NO,YES,YES,0,0.92,0.12,YES,YES,NO,0,0,5,YES,EF,EF
AJ277193_AY061580,EF,DI,0.17,NO,0,False,0.94,YES,0.02,1,0.000001,NO,YES,YES,0.01,1,0.073,YES,YES,YES,0.03,0.45,0.52,YES,EF,EF
AJ277193_AF214649,LI,DI,0.5,YES,0,False,0.99,YES,0.02,0.78,0.18,YES,YES,YES,0.02,0.78,0.049,YES,YES,YES,0.01,0.5,5.2,YES,LI,LI
AJ277191_AF214649,LI,DI,0.5,YES,0,False,0.57,YES,0.01,0.78,0.32,YES,YES,YES,0.01,0.78,0.088,YES,YES,NO,0,0,5,YES,LI,LI
AJ277190_AF214648,LI,DI,0.5,YES,0,False,0.57,YES,0.01,0.83,0.092,YES,YES,YES,0.01,0.83,0.032,YES,YES,YES,0.02,0.19,1.1,YES,LI,LI
AJ277190_AF214649,LI,DI,0.42,YES,0,False,0.57,YES,0.01,0.83,0.092,YES,YES,YES,0.01,0.83,0.024,YES,YES,YES,0.02,0.19,0.38,YES,LI,LI
AJ277190_AY061580,EF,DI,0.18,NO,0,False,0.6,YES,0.01,1,0.000004,NO,YES,YES,0.01,1,0.13,YES,YES,YES,0.01,0.5,0.96,YES,EF,EF
AJ277194_AF214649,LI,DI,0.5,YES,0,False,0.55,YES,0.01,0.89,0.095,YES,YES,YES,0.01,0.78,0.078,YES,YES,YES,0.01,0.4,6.7,YES,LI,LI
AJ277194_AY061580,EF,DI,0.17,NO,0,False,0.58,YES,0.02,0.78,0,NO,YES,YES,0.01,1,0.12,YES,YES,YES,0.01,0.5,0.82,YES,EF,EF
X12559_X07255,LI,DI,0.2,YES,0,N/A,0.24,YES,0.02,0.92,0.28,YES,YES,YES,0.05,1,2,YES,YES,NO,0,0,5,YES,LI,LI
X03791_AY060407,LI,DI,0,NO,0,N/A,0.7,YES,0.01,0.83,0.01,YES,NO,NO,0,0,5,YES,NO,NO,0,0,5,YES,LI,LI
AF045778_AJ012279,LI,DI,0.3,YES,0,False,0.17,YES,0.01,0.88,1.3,YES,YES,NO,0,0,5,YES,YES,NO,0,0,5,YES,LI,LI
AF045778_AJ238575,LI,DI,0.63,YES,0,False,0.38,YES,0,0.94,0.042,YES,YES,YES,0,0.93,0.96,YES,YES,NO,0,0,5,YES,LI,LI
AF045778_AJ238577,LI,DI,0.56,YES,0,False,0.82,YES,0.01,0.83,0.067,YES,YES,YES,0.01,0.81,0.08,YES,YES,NO,0,0,5,YES,LI,LI
AF045778_AJ245406,LI,DI,0.57,YES,0,False,0.06,YES,0,0.91,0.021,YES,YES,YES,0,1,1.4,YES,YES,YES,0,0.29,0.17,YES,LI,LI
AF045778_AB026845,LI,DI,0.33,YES,0,False,0.15,YES,0,0.94,0.1,YES,YES,YES,0,0.93,1.4,YES,YES,YES,0,0.29,0.31,YES,LI,LI
AF045777_AJ012279,LI,DI,0.44,YES,0,False,0.8,YES,0.02,1,2.1,YES,YES,YES,0.02,1,2.1,YES,YES,NO,0,0,5,YES,LI,LI
AF045777_AJ238575,LI,DI,0.44,YES,0,False,0.05,YES,0,0.88,0.23,YES,YES,YES,0.01,0.88,0.1,YES,YES,YES,0.03,0.45,2.6,YES,LI,LI
AF045777_AJ238577,LI,DI,0.4,YES,0,False,0.11,YES,0.01,0.85,0.11,YES,YES,YES,0.01,0.85,0.11,YES,YES,YES,0.01,0.71,3.4,YES,LI,LI
AF045777_AJ245406,LI,DI,0.38,YES,0,False,0.01,YES,0,0.87,0.032,YES,YES,YES,0,0.93,0.54,YES,YES,YES,0,0.28,0.037,YES,LI,LI
AF045777_AB026845,LI,DI,0.5,YES,0,False,0.02,YES,0,0.93,0.57,YES,YES,YES,0,0.93,0.53,YES,YES,YES,0,0.28,0.11,YES,LI,LI
M74583_S65712,LI,DI,0.19,YES,0,N/A,0.02,YES,0,1,0.06,YES,YES,YES,0.01,1,0.36,YES,YES,NO,0,0,5,YES,LI,LI
M74583_S65719,LI,DI,0.19,YES,0,N/A,0.04,YES,0,1,0.14,YES,YES,YES,0.01,0.94,0.069,YES,YES,YES,0.01,0.33,1.9,YES,LI,LI
AY565930_BT029038,LI,DI,0.14,NO,0,False,0.41,YES,0.01,0.86,0.025,YES,YES,YES,0.02,0.86,0.012,YES,YES,YES,0.01,0.4,5,YES,LI,LI
AY565937_AY565744,LI,DI,0.75,YES,0.5,True,0.8,YES,0.02,0.93,0.18,YES,YES,YES,0.01,1,0.31,YES,YES,YES,0.03,0.67,2.9,YES,LI,LI
M17837_AY118512,LI,DI,0,NO,0,N/A,0.54,YES,0,0.92,0.007,YES,YES,YES,0.01,0.85,0.5,YES,YES,YES,0.01,0.31,6.3,YES,LI,LI
U85651_AF003107,LI,DI,0.38,YES,0,False,0.08,YES,0.01,0.81,0.55,YES,YES,YES,0.01,1,0.27,YES,YES,NO,0,0,5,YES,LI,LI
AY069415_AJ272389,EF,DI,0.14,NO,0,False,0.47,YES,0.03,1,0,NO,YES,YES,0.03,0.79,0.004,YES,YES,YES,0.04,0.28,0.065,YES,EF,EF
U55767_AY174097,EF,DI,0.23,NO,0,False,0.44,YES,0.01,0.83,0.000002,NO,YES,YES,0.06,1,0.38,YES,YES,NO,0,0,5,YES,EF,EF
U55767_AY174098,LI,DI,0.23,NO,0,False,0.63,YES,0,0.84,0.038,YES,YES,YES,0,1,2.8,YES,YES,NO,0,0,5,YES,LI,LI
U55767_X14476,EF,DI,0.14,NO,0,N/A,0.81,YES,0.01,1,0,NO,YES,YES,0.01,1,0,NO,YES,YES,0.01,1,0.002,YES,EF,EF
U55767_AF044974,LI,DI,0.19,NO,0,False,0.84,YES,0,0.88,1.2,YES,YES,YES,0,0.85,0.84,YES,YES,NO,0,0,5,YES,LI,LI
AL035436_M16152,EF,DI,0.12,YES,0,False,0.29,YES,0,0.78,0.000004,NO,YES,YES,0,0.9,0.077,YES,YES,YES,0,0.4,4.5,YES,EF,EF
AY565744_BT030824,EF,DI,0.13,NO,0,False,0.3,YES,0.03,0.99,0,NO,YES,YES,0.01,1,0.81,YES,YES,YES,0.01,0.25,4.9,YES,EF,EF
M12009_AY060407,LI,DI,0.08,NO,0,N/A,0.04,YES,0,1,1.1,YES,YES,YES,0.01,1,2.8,YES,YES,NO,0,0,5,YES,LI,LI
AF038501_BT024951,LI,DI,0.15,NO,0,False,0.09,YES,0.01,0.82,1.8,YES,YES,YES,0.01,0.82,1.3,YES,YES,YES,0.02,0.38,0.22,YES,LI,LI
AF038501_BT001424,LI,DI,0.15,NO,0,False,0.12,YES,0.01,0.88,0.12,YES,YES,YES,0.03,0.79,0.5,YES,YES,NO,0,0,5,YES,LI,LI
BT010241_X05724,EF,DI,0.18,NO,0,False,0.1,YES,0.02,1,0,NO,NO,NO,0,0,5,YES,NO,NO,0,0,5,YES,EF,EF
X02220_K02622,LI,DI,0.21,YES,0,N/A,0.86,YES,0.02,0.8,1,YES,YES,YES,0.02,0.8,0.092,YES,YES,NO,0,0,5,YES,LI,LI
BT011112_AY094733,EF,DI,0.71,NO,0,True,0.42,YES,0,0.89,0,NO,YES,YES,0.01,0.77,0,NO,YES,YES,0,0.3,1.1,YES,EF,EF
X14460_K03517,LI,DI,0.13,YES,0,N/A,0.15,YES,0.01,0.92,0.43,YES,YES,YES,0.03,0.92,0.14,YES,YES,NO,0,0,5,YES,LI,LI
AF044974_AY174098,EF,DI,0.3,YES,0,False,0.75,YES,0.05,1,0,NO,YES,YES,0,0.88,1.1,YES,YES,YES,0.01,0.43,4.1,YES,EF,EF
EF221635_BT011386,EF,DI,0.15,NO,0,False,0.89,YES,0.02,0.82,0.00001,NO,YES,YES,0.03,0.82,0.000006,NO,YES,YES,0.03,0.33,0.000004,NO,EF,EF
AF220179_U14403,LI,DI,0.33,YES,0,False,0.51,YES,0.03,0.81,0.012,YES,YES,YES,0.04,0.81,0.008,YES,YES,YES,0.03,0.56,0.49,YES,LI,LI
AF220179_D84437,EF,DI,0.6,YES,0,True,0.29,YES,0.01,0.85,0,NO,YES,YES,0.01,0.85,0,NO,YES,YES,0.02,0.21,1.5,YES,EF,EF
AF220179_D84438,LI,DI,0.5,YES,0,True,0.97,YES,0.02,0.82,0.96,YES,YES,YES,0.02,1,0.53,YES,YES,YES,0.03,0.25,1.7,YES,LI,LI
AF220179_BT024450,EF,DI,0.17,NO,0,False,0.23,YES,0.01,0.83,0.000001,NO,YES,YES,0.01,0.83,0.000001,NO,YES,YES,0.01,0.35,4.4,YES,EF,EF
AF220178_U14403,LI,DI,0.33,YES,0,False,0.57,YES,0.02,1,0.13,YES,YES,YES,0.02,1,0.091,YES,YES,YES,0.06,0.29,1.5,YES,LI,LI
AF220178_D84437,EF,DI,0.6,YES,0,True,0.26,YES,0.02,0.73,0,NO,YES,YES,0.01,0.95,0.0003,NO,YES,YES,0.03,0.39,0,NO,EF,EF
AF220178_D84438,LI,DI,0.5,YES,0,True,0.92,YES,0.02,1,0.071,YES,YES,YES,0.02,1,1.6,YES,YES,NO,0,0,5,YES,LI,LI
AY069741_S67762,EF,DI,0.2,NO,0,N/A,0.24,YES,0.01,0.84,0.00003,NO,YES,YES,0.01,0.76,0.003,YES,YES,YES,0.05,0.31,0,NO,EF,EF
U05240_AY071210,LI,DI,0.14,NO,0,False,0.9,YES,0.01,0.88,0.002,YES,YES,YES,0.01,0.94,0.09,YES,YES,YES,0.01,0.6,1.1,YES,LI,LI
BT012469_S63761,LI,DI,0.13,NO,0,N/A,0.18,YES,0,0.94,0.23,YES,YES,YES,0.01,0.84,0.66,YES,YES,YES,0.01,0.4,2.3,YES,LI,LI
U30914_AY061580,LI,DI,0.15,NO,0,False,0.69,YES,0.01,1,0.29,YES,YES,YES,0.01,1,0.11,YES,YES,YES,0.02,0.43,0.84,YES,LI,LI
U30913_AY061580,LI,DI,0.15,NO,0,False,0.67,YES,0.01,1,0.3,YES,YES,YES,0.01,1,0.11,YES,YES,YES,0.01,0.4,0.45,YES,LI,LI
U30913_AJ277178,EF,DI,0.55,YES,0,False,0.54,YES,0.01,1,0.0005,NO,YES,YES,0.01,1,0.0002,NO,YES,YES,0.03,0.29,0.13,YES,EF,EF
AJ271647_AY060469,EF,DI,0.18,NO,0,False,0.43,YES,0,1,0.000004,NO,YES,YES,0.01,1,0.000002,NO,YES,YES,0.01,0.35,0.082,YES,EF,EF
X14397_AY060357,LI,DI,0.07,NO,0,N/A,0.04,YES,0,1,0.28,YES,YES,YES,0.01,0.92,0.73,YES,YES,YES,0.01,0.38,0.32,YES,LI,LI
X14395_AY060357,LI,DI,0.07,NO,0,N/A,0.22,YES,0,0.89,0.044,YES,YES,YES,0.01,0.87,1.4,YES,YES,YES,0.02,0.83,0.39,YES,LI,LI
X14394_AY060357,LI,DI,0.07,NO,0,N/A,0.28,YES,0,0.93,2.3,YES,YES,YES,0.01,1,1.7,YES,YES,YES,0.02,0.35,0.081,YES,LI,LI
M23635_S88324,LI,DI,0.14,YES,0,N/A,0.14,YES,0.01,0.78,0.86,YES,YES,YES,0.04,1,2.2,YES,YES,NO,0,0,5,YES,LI,LI
AY061154_BT024968,EF,DI,0.71,NO,0,True,0.87,YES,0.01,0.92,0.0001,NO,YES,YES,0.01,1,0.75,YES,YES,YES,0.02,0.53,0.42,YES,EF,EF
AH003430_AF433680,LI,DI,0.5,YES,0,False,0.31,YES,0,1,0.27,YES,YES,YES,0.01,1,1.4,YES,YES,NO,0,0,5,YES,LI,LI
U72331_AF003107,LI,DI,0.42,YES,0,False,0.08,YES,0.01,0.81,0.55,YES,YES,YES,0.01,1,0.27,YES,YES,NO,0,0,5,YES,LI,LI
AY069408_AY075410,EF,DI,0.71,NO,0,True,0.93,YES,0.02,0.85,0,NO,YES,YES,0.02,1,0.06,YES,YES,NO,0,0,5,YES,EF,EF
AY565703_BT030824,EF,DI,0.13,NO,0,False,0.23,YES,0.03,0.99,0,NO,YES,YES,0.01,1,0.46,YES,YES,YES,0.01,0.25,3.8,YES,EF,EF
AY070875_BT126178,EF,DI,0.5,NO,0,True,0.73,YES,0.02,1,0,NO,YES,YES,0.01,0.82,0.91,YES,YES,NO,0,0,5,YES,EF,EF
AY070875_BT125831,EF,DI,0.5,NO,0,True,0.83,YES,0.02,1,0,NO,YES,YES,0.01,0.82,0.93,YES,YES,NO,0,0,5,YES,EF,EF
AY070875_X54504,EF,DI,0.06,NO,0,False,0.69,YES,0.02,1,0,NO,YES,YES,0.01,0.82,0.92,YES,YES,NO,0,0,5,YES,EF,EF
AY094786_BT015280,EF,DI,0.71,NO,0,True,0.77,YES,0.01,1,0.0004,NO,YES,YES,0.01,0.94,0.15,YES,YES,YES,0.02,0.26,2.9,YES,EF,EF
AY071210_U93032,LI,DI,0.17,NO,0,False,0.5,YES,0.01,0.9,0.16,YES,YES,YES,0.01,0.9,0.091,YES,YES,YES,0.02,0.35,0.67,YES,LI,LI
X06384_M13587,LI,DI,0.27,YES,0,N/A,0.08,YES,0.01,0.91,1.6,YES,YES,YES,0.07,0.92,0.29,YES,YES,NO,0,0,5,YES,LI,LI
V00200_M28334,EF,DI,0.08,YES,0,N/A,0.99,YES,0.02,0.85,0.00001,NO,YES,YES,0.02,0.85,0.00001,NO,YES,YES,0.19,0.41,0,NO,EF,EF
M23636_S88324,LI,DI,0.14,YES,0,N/A,0.16,YES,0.01,1,0.21,YES,YES,YES,0.01,1,0.031,YES,YES,YES,0.01,0.4,2.6,YES,LI,LI
AY089560_X03879,LI,DI,0.03,NO,0,N/A,0.38,YES,0,1,0.015,YES,YES,YES,0,1,0.009,YES,YES,YES,0.01,0.21,1.8,YES,LI,LI
AY089560_X03877,LI,DI,0,NO,0,N/A,0.15,YES,0.01,0.83,0.89,YES,YES,YES,0,0.92,0.64,YES,YES,YES,0.01,0.25,2.6,YES,LI,LI
AY089560_X03878,LI,DI,0.04,NO,0,N/A,0.06,YES,0,0.9,0.002,YES,YES,YES,0.01,0.89,0.076,YES,YES,YES,0.01,0.3,2.3,YES,LI,LI
AY089560_M37783,LI,DI,0,NO,0,N/A,0.89,YES,0.01,0.74,0.16,YES,YES,YES,0,0.87,1.9,YES,YES,YES,0.01,0.64,0.55,YES,LI,LI
D13330_S65712,LI,DI,0.22,YES,0,N/A,0.02,YES,0,1,0.059,YES,YES,YES,0.01,1,0.36,YES,YES,NO,0,0,5,YES,LI,LI
D13330_S65719,LI,DI,0.22,YES,0,N/A,0.04,YES,0,1,0.14,YES,YES,YES,0.01,0.94,0.069,YES,YES,YES,0.01,0.33,1.9,YES,LI,LI
M25294_BT029258,LI,DI,0.2,NO,0,N/A,0.48,YES,0.01,0.78,0.015,YES,YES,YES,0.02,0.81,0.006,YES,YES,NO,0,0,5,YES,LI,LI
BT024968_BT099672,EF,DI,0.71,NO,0,True,0.59,YES,0.01,0.78,0,NO,YES,YES,0.01,0.76,0.008,YES,YES,NO,0,0,5,YES,EF,EF
M12175_M16025,LI,DI,0.15,YES,0,N/A,0.42,YES,0.01,1,1.9,YES,YES,YES,0.04,0.82,0.41,YES,YES,NO,0,0,5,YES,LI,LI
M12175_AL035436,EF,DI,0,YES,0,N/A,0.01,YES,0,0.86,0.000002,NO,YES,YES,0.01,0.7,0.15,YES,YES,YES,0.01,0.5,1.8,YES,EF,EF
M59448_S88324,LI,DI,0.15,YES,0,N/A,0.06,YES,0,0.89,0.051,YES,YES,YES,0.01,1,0.032,YES,YES,YES,0.01,0.4,2.7,YES,LI,LI
AY061580_X75499,EF,DI,0,NO,0,False,0.68,YES,0.02,0.96,0.000001,NO,YES,YES,0.02,0.88,0.16,YES,YES,YES,0.03,0.4,0.32,YES,EF,EF
AY061580_X75498,LI,DI,0,NO,0,False,0.73,YES,0.01,1,0.28,YES,YES,YES,0.01,1,0.12,YES,YES,YES,0.01,0.5,0.64,YES,LI,LI
AY061580_BT003579,EF,DI,0.71,NO,0,True,0.46,YES,0.01,1,0.000001,NO,YES,YES,0.01,1,0.12,YES,YES,YES,0.01,0.5,0.78,YES,EF,EF
AY061580_U30905,LI,DI,0.17,NO,0,False,0.59,YES,0.01,1,0.34,YES,YES,YES,0.01,1,0.13,YES,YES,YES,0.01,0.4,0.65,YES,LI,LI
AY061580_AJ277188,EF,DI,0.18,NO,0,False,0.64,YES,0.02,0.84,0.000001,NO,YES,YES,0.01,1,0.12,YES,YES,YES,0.01,0.5,1,YES,EF,EF
AY061580_AJ277189,EF,DI,0.18,NO,0,False,0.55,YES,0.01,0.85,0.000005,NO,YES,YES,0.01,1,0.12,YES,YES,YES,0.01,0.5,0.72,YES,EF,EF
AY061580_AF214649,LI,DI,0.14,NO,0,False,0.95,YES,0.01,0.89,0.67,YES,YES,YES,0.02,0.92,0.35,YES,YES,YES,0.02,1,2.4,YES,LI,LI
AY061580_AF214648,LI,DI,0.17,NO,0,False,0.95,YES,0.01,0.89,0.67,YES,YES,YES,0.03,0.89,0.13,YES,YES,YES,0.03,0.5,0.33,YES,LI,LI
AY061580_AJ277181,EF,DI,0.17,NO,0,False,0.74,YES,0.01,0.96,0.000004,NO,YES,YES,0.01,1,0.11,YES,YES,YES,0.02,0.5,0.7,YES,EF,EF
AY061580_AJ277182,EF,DI,0.17,NO,0,False,0.61,YES,0.01,1,0.00005,NO,YES,YES,0.01,1,0.11,YES,YES,YES,0.02,0.5,0.65,YES,EF,EF
AY061580_AJ277183,EF,DI,0.17,NO,0,False,0.58,YES,0.01,1,0.000005,NO,YES,YES,0.01,1,0.11,YES,YES,YES,0.02,0.5,0.62,YES,EF,EF
AY061580_AJ277184,EF,DI,0.17,NO,0,False,0.7,YES,0.02,0.93,0,NO,YES,YES,0.02,0.89,0.2,YES,YES,YES,0.06,0.27,3.5,YES,EF,EF
AY061580_AJ277186,EF,DI,0.18,NO,0,False,0.62,YES,0.01,0.93,0,NO,YES,YES,0.01,1,0.12,YES,YES,YES,0.01,0.5,0.75,YES,EF,EF
AY061580_AJ277187,EF,DI,0.18,NO,0,False,0.68,YES,0.01,0.96,0.000001,NO,YES,YES,0.01,1,0.12,YES,YES,YES,0.01,0.5,0.69,YES,EF,EF
AY061580_AJ277180,EF,DI,0.17,NO,0,False,0.62,YES,0.01,1,0.0006,NO,YES,YES,0.01,1,0.11,YES,YES,YES,0.02,0.5,0.74,YES,EF,EF
AY061580_AJ277174,EF,DI,0.18,NO,0,False,0.77,YES,0.01,1,0.000003,NO,YES,YES,0.01,1,0.1,YES,YES,YES,0.02,0.5,0.61,YES,EF,EF
AY061580_AJ277185,LI,DI,0.18,NO,0,False,0.55,YES,0.01,1,0.37,YES,YES,YES,0.01,1,0.12,YES,YES,YES,0.01,0.5,0.8,YES,LI,LI
AY061580_AJ277175,EF,DI,0.18,NO,0,False,0.95,YES,0.03,0.73,0.000003,NO,YES,YES,0.01,1,0.084,YES,YES,YES,0.02,0.5,0.49,YES,EF,EF
AY061580_AJ277177,EF,DI,0.18,NO,0,False,0.74,YES,0.01,0.95,0.00004,NO,YES,YES,0.01,1,0.11,YES,YES,YES,0.02,0.5,0.6,YES,EF,EF
AY061580_AJ277176,EF,DI,0.18,NO,0,False,0.6,YES,0.01,1,0.00002,NO,YES,YES,0.01,1,0.11,YES,YES,YES,0.02,0.5,0.66,YES,EF,EF
AY061580_AJ277178,EF,DI,0.17,NO,0,False,0.8,YES,0.02,1,0,NO,YES,YES,0.02,0.86,1.3,YES,YES,YES,0.03,0.5,2,YES,EF,EF
AY061580_AJ277192,EF,DI,0.17,NO,0,False,0.58,YES,0.01,1,0.000005,NO,YES,YES,0.01,1,0.13,YES,YES,YES,0.01,0.4,0.62,YES,EF,EF
AY061580_U62802,EF,DI,0.17,NO,0,False,0.74,YES,0.01,1,0.00004,NO,YES,YES,0.01,1,0.11,YES,YES,YES,0.02,0.47,0.76,YES,EF,EF
AL031583_AL132792,EF,DI,0.43,YES,0,True,0.43,YES,0.01,0.88,0,NO,YES,YES,0,0.77,0.00007,NO,YES,YES,0.01,0.33,0.011,YES,EF,EF
AF214648_X75498,LI,DI,0.09,YES,0,False,0.69,YES,0.01,0.89,0.075,YES,YES,YES,0.01,0.78,0.1,YES,YES,YES,0.01,0.32,8.5,YES,LI,LI
AF214649_X75498,LI,DI,0.08,YES,0,False,0.69,YES,0.01,0.89,0.075,YES,YES,YES,0.01,0.78,0.078,YES,YES,YES,0.01,0.57,6.1,YES,LI,LI
AF214649_AJ277184,LI,DI,0.5,YES,0,False,0.74,YES,0.01,1,0.47,YES,YES,YES,0.01,1,0.14,YES,YES,YES,0.02,0.19,4.8,YES,LI,LI
AF214649_AJ277177,LI,DI,0.42,YES,0,False,0.71,YES,0.01,0.78,0.26,YES,YES,YES,0.01,0.78,0.073,YES,YES,YES,0.02,0.29,0.13,YES,LI,LI
AF214649_AJ277176,LI,DI,0.42,YES,0,False,0.57,YES,0.01,0.78,0.32,YES,YES,YES,0.01,0.78,0.071,YES,YES,YES,0.02,0.24,1,YES,LI,LI
AF214649_BT003579,LI,DI,0.14,NO,0,False,0.44,YES,0.01,0.78,0.42,YES,YES,YES,0.01,0.78,0.079,YES,YES,YES,0.01,0.3,0.59,YES,LI,LI
AF214649_AJ277182,LI,DI,0.5,YES,0,False,0.58,YES,0.01,0.78,0.32,YES,YES,YES,0.01,0.78,0.075,YES,YES,YES,0.01,0.6,1,YES,LI,LI
AF214649_AJ277178,LI,DI,0.5,YES,0,False,0.85,YES,0.01,0.89,0.044,YES,YES,YES,0.02,1,0.85,YES,YES,YES,0.06,0.29,0.37,YES,LI,LI
AY058575_S63761,LI,DI,0.13,NO,0,N/A,0.57,YES,0.01,0.93,0.25,YES,YES,YES,0.01,0.79,1.3,YES,YES,YES,0.01,0.4,2.4,YES,LI,LI
BT003802_AF050132,LI,DI,0.2,NO,0,False,0.13,YES,0.01,0.78,0.36,YES,YES,YES,0.02,0.78,0.2,YES,YES,YES,0.01,0.5,4,YES,LI,LI
S88324_BT100240,LI,DI,0.17,NO,0,N/A,0.09,YES,0,1,0.1,YES,YES,YES,0.01,1,0.36,YES,YES,NO,0,0,5,YES,LI,LI
S88324_BT120392,LI,DI,0.17,NO,0,N/A,0.09,YES,0,0.93,0.4,YES,YES,YES,0.01,1,4.2,YES,YES,NO,0,0,5,YES,LI,LI
M23222_M15762,EF,DI,0.06,YES,0,N/A,0.03,YES,0.01,0.88,0,NO,YES,YES,0.01,0.88,0,NO,YES,NO,0,0,5,YES,EF,EF
BT011082_AY113420,EF,DI,0.71,NO,0,True,0.44,YES,0.01,1,0.0003,NO,YES,YES,0.02,0.8,0.62,YES,YES,YES,0.01,0.5,3.9,YES,EF,EF
AF003622_AY051596,LI,DI,0.15,NO,0,False,0.44,YES,0,0.78,0.005,YES,YES,YES,0,0.79,0.21,YES,YES,YES,0.01,0.39,6.4,YES,LI,LI
M14203_M19537,LI,DI,0.43,YES,0,N/A,0.4,YES,0.01,0.86,0.043,YES,YES,YES,0.01,0.93,0.045,YES,YES,YES,0.01,0.27,3.9,YES,LI,LI
AL022139_AF181628,EF,DI,0.22,YES,0,False,0.16,YES,0.01,1,0,NO,YES,YES,0.01,0.88,0.002,YES,YES,YES,0.01,0.26,1.9,YES,EF,EF
AL022139_J04516,EF,DI,0,YES,0,N/A,0.11,YES,0.01,1,0,NO,YES,YES,0.01,0.88,0.002,YES,YES,YES,0.01,0.26,1.9,YES,EF,EF
AL022139_X55775,LI,DI,0,YES,0,N/A,0.01,YES,0,0.93,2.4,YES,NO,NO,0,0,5,YES,NO,NO,0,0,5,YES,LI,LI
AY060226_AY118507,EF,DI,0.5,NO,0,True,0.6,YES,0.01,1,0.0002,NO,YES,YES,0.01,1,0.19,YES,YES,YES,0.07,0.26,0.97,YES,EF,EF
BT099726_AY075410,EF,DI,0.5,NO,0,True,0.49,YES,0.01,0.85,0,NO,YES,YES,0.01,0.79,0.00004,NO,YES,YES,0.01,0.37,4.1,YES,EF,EF
AY438200_X05140,LI,DI,0.1,YES,0,N/A,0.4,YES,0.03,0.79,0.72,YES,YES,YES,0.03,0.79,0.72,YES,YES,YES,0.04,0.21,4.1,YES,LI,LI
M37783_X03877,LI,DI,0.2,YES,0,N/A,0.14,YES,0,0.93,0.29,YES,YES,YES,0.03,0.91,0.93,YES,YES,YES,0.03,0.44,1.4,YES,LI,LI
M37783_X03878,LI,DI,0.14,YES,0,N/A,0.06,YES,0,0.89,0.033,YES,YES,YES,0.04,0.8,0.11,YES,YES,NO,0,0,5,YES,LI,LI
M37783_X03879,LI,DI,0.12,YES,0,N/A,0.33,YES,0,1,0.005,YES,YES,YES,0.01,0.86,1.9,YES,YES,YES,0.04,0.38,1.2,YES,LI,LI
M37783_AF129814,LI,DI,0.07,YES,0,N/A,0.54,YES,0,0.89,0.096,YES,YES,YES,0.01,0.79,0.009,YES,YES,YES,0.01,0.67,0.49,YES,LI,LI
AY565789_BT029038,LI,DI,0.14,NO,0,False,0.41,YES,0.01,0.86,0.025,YES,YES,YES,0.02,0.86,0.012,YES,YES,YES,0.01,0.4,5,YES,LI,LI
AJ277177_X75499,EF,DI,0.11,YES,0,True,0.51,YES,0.01,0.95,0.00003,NO,YES,YES,0.01,0.78,0.11,YES,YES,YES,0.04,0.28,0.00003,NO,EF,EF
AJ277177_AF214648,LI,DI,0.5,YES,0,False,0.71,YES,0.01,0.78,0.26,YES,YES,YES,0.01,0.78,0.097,YES,YES,YES,0.02,0.29,0.29,YES,LI,LI
AJ277176_AF214648,LI,DI,0.5,YES,0,False,0.57,YES,0.01,0.78,0.32,YES,YES,YES,0.01,0.78,0.095,YES,YES,YES,0.02,0.24,1.9,YES,LI,LI
AJ277179_X75499,LI,DI,0.1,YES,0,True,0.46,YES,0.01,0.78,0.2,YES,YES,YES,0.01,0.78,0.12,YES,YES,YES,0.01,0.26,1.4,YES,LI,LI
AJ277179_AY061580,LI,DI,0.17,NO,0,False,0.68,YES,0.01,1,0.3,YES,YES,YES,0.01,1,0.11,YES,YES,YES,0.02,0.31,0.24,YES,LI,LI
AJ277179_AF214649,LI,DI,0.5,YES,0,False,0.64,YES,0.01,1,0.081,YES,YES,YES,0.01,0.78,0.074,YES,YES,YES,0.01,0.4,6.5,YES,LI,LI
AL121800_AY119511,EF,DI,0.22,NO,0,False,0.02,YES,0,1,0,NO,YES,YES,0,0.79,0.57,YES,YES,YES,0.02,0.27,3.8,YES,EF,EF
AF351187_AY069860,EF,DI,0.15,NO,0,False,0.61,YES,0.01,0.83,0.0003,NO,YES,YES,0.01,0.83,0.0003,NO,YES,YES,0.01,0.31,0.1,YES,EF,EF
K03417_X78920,LI,DI,0.05,YES,0,N/A,0.07,YES,0.03,0.88,0.3,YES,YES,YES,0.03,0.88,0.29,YES,YES,NO,0,0,5,YES,LI,LI
K03417_AJ002912,LI,DI,0,YES,0,N/A,0.28,YES,0.02,0.91,1.4,YES,YES,YES,0.02,0.91,1.4,YES,YES,YES,0.02,0.31,0.28,YES,LI,LI
K03417_X02293,LI,DI,0.22,YES,0,N/A,0.66,YES,0.04,0.81,0.007,YES,YES,YES,0.04,0.81,0.006,YES,YES,YES,0.03,0.67,0.96,YES,LI,LI
K03416_X78920,LI,DI,0.05,YES,0,N/A,0.08,YES,0.02,0.85,0.25,YES,YES,YES,0.03,0.85,0.21,YES,YES,NO,0,0,5,YES,LI,LI
K03416_AJ002912,LI,DI,0,YES,0,N/A,0.33,YES,0.02,1,1.2,YES,YES,YES,0.02,1,0.98,YES,YES,YES,0.04,0.28,0.084,YES,LI,LI
K03416_K03054,LI,DI,0.32,YES,0.33,N/A,0.09,YES,0,1,0.97,YES,YES,YES,0,1,0.63,YES,YES,YES,0.01,0.22,0.0009,NO,LI,LI
K03416_X02293,LI,DI,0.21,YES,0,N/A,0.78,YES,0.04,0.81,0.068,YES,YES,YES,0.05,0.81,0.056,YES,YES,YES,0.08,0.23,0.44,YES,LI,LI
X78920_AJ002912,LI,DI,0.09,YES,0,N/A,0.25,YES,0.05,1,0.3,YES,YES,YES,0.05,1,0.3,YES,YES,NO,0,0,5,YES,LI,LI
X78920_X02293,LI,DI,0,YES,0,N/A,0.11,YES,0.02,1,0.2,YES,YES,YES,0.02,1,0.2,YES,YES,NO,0,0,5,YES,LI,LI
AY058793_BT012324,EF,DI,0.5,NO,0,True,0.92,YES,0.02,0.96,0.000009,NO,YES,YES,0.01,0.88,0.48,YES,YES,NO,0,0,5,YES,EF,EF
AI063811_U51858,EF,DI,0.16,YES,0,N/A,0.27,YES,0.03,1,0,NO,NO,NO,0,0,5,YES,NO,NO,0,0,5,YES,EF,EF
X07134_X78908,LI,DI,0.08,YES,0,N/A,0.14,YES,0.01,1,0.19,YES,YES,YES,0.01,1,0.11,YES,YES,YES,0.01,0.8,2.5,YES,LI,LI
AH003854_X58436,EF,DI,0.09,YES,0,N/A,0.13,YES,0.01,1,0.0009,NO,YES,YES,0.01,1,0.0006,NO,YES,YES,0.01,0.71,0.09,YES,EF,EF
M88472_BT001893,LI,DI,0.14,NO,0,N/A,0.21,YES,0.01,1,0.13,YES,YES,YES,0.01,0.88,0.059,YES,YES,YES,0.02,0.23,0.25,YES,LI,LI
X78908_X06184,LI,DI,0.11,YES,0,N/A,0.2,YES,0.01,1,0.14,YES,YES,YES,0.01,1,0.097,YES,YES,YES,0.02,0.35,6.3,YES,LI,LI
J01404_M37275,EF,DI,0.28,YES,0,N/A,0.63,YES,0.05,0.99,0,NO,YES,YES,0.02,0.93,0.026,YES,YES,YES,0.02,0.67,0.98,YES,EF,EF
Z00030_AY118512,LI,DI,0.07,NO,0,N/A,0.52,YES,0,0.92,0.007,YES,YES,YES,0.01,0.85,0.5,YES,YES,YES,0.01,0.31,6.3,YES,LI,LI
X16826_X68393,EF,DI,0.07,YES,0,False,0.55,YES,0.01,0.98,0,NO,YES,YES,0,0.93,0.81,YES,YES,NO,0,0,5,YES,EF,EF
L41945_AY061328,EF,DI,0.11,NO,0,N/A,0.16,YES,0.03,0.96,0,NO,YES,YES,0.01,0.89,0.044,YES,YES,YES,0.03,0.35,6.5,YES,EF,EF
L41945_BT125926,EF,DI,0.11,NO,0,N/A,0.16,YES,0.03,0.96,0,NO,YES,YES,0.01,0.89,0.044,YES,YES,YES,0.03,0.35,6.6,YES,EF,EF
L41945_M34069,EF,DI,0.25,YES,0,N/A,0.15,YES,0.03,0.96,0,NO,YES,YES,0.01,0.89,0.044,YES,YES,YES,0.03,0.35,6.4,YES,EF,EF
AY060919_AY119597,LI,DI,0.5,NO,0,True,0.48,YES,0.01,0.91,0.001,YES,YES,YES,0.01,0.88,0.48,YES,YES,YES,0.01,0.5,1.7,YES,LI,LI
AY048030_L07819,LI,DI,0.29,YES,0,N/A,0.69,YES,0.01,1,0.084,YES,YES,YES,0.01,1,0.018,YES,YES,YES,0.02,0.45,1.1,YES,LI,LI
AY048030_AY575847,LI,DI,0.38,YES,0,False,0.64,YES,0.01,0.89,0.091,YES,YES,YES,0.01,0.81,0.23,YES,YES,YES,0.01,0.47,1.4,YES,LI,LI
AY048030_L07823,LI,DI,0.29,YES,0,N/A,0.69,YES,0.01,1,0.084,YES,YES,YES,0.01,1,0.018,YES,YES,YES,0.02,0.45,1.1,YES,LI,LI
AY048030_L07821,LI,DI,0.29,YES,0,N/A,0.69,YES,0.01,1,0.084,YES,YES,YES,0.01,1,0.018,YES,YES,YES,0.02,0.45,1.1,YES,LI,LI
BT029038_AY565947,LI,DI,0.14,NO,0,False,0.44,YES,0.01,0.86,0.027,YES,YES,YES,0.02,0.86,0.012,YES,YES,YES,0.02,0.32,3.8,YES,LI,LI
AE001572_S61883,EF,DI,0.2,YES,0,N/A,0.02,YES,0,1,0,NO,YES,YES,0,0.83,0.14,YES,YES,YES,0,0.4,4.9,YES,EF,EF
AY094749_AJ012279,LI,DI,0.18,NO,0,False,0.15,YES,0,1,1.5,YES,YES,YES,0.01,1,0.83,YES,YES,YES,0.03,0.26,1.1,YES,LI,LI
AY094749_AF241649,LI,DI,0.2,NO,0,False,0.43,YES,0.01,0.8,0.028,YES,YES,YES,0.01,0.89,0.056,YES,YES,YES,0.02,0.47,0.097,YES,LI,LI
AY094749_AJ400900,LI,DI,0.17,NO,0,False,0.21,YES,0.01,0.89,0.58,YES,YES,YES,0.01,0.89,0.32,YES,YES,YES,0.01,0.67,2,YES,LI,LI
AY094749_AJ238575,LI,DI,0.18,NO,0,False,0.42,YES,0,1,0.013,YES,YES,YES,0.01,1,0.003,YES,YES,YES,0.01,0.8,6.2,YES,LI,LI
AY094749_AJ238577,LI,DI,0.17,NO,0,False,0.9,YES,0.01,0.8,0.021,YES,YES,YES,0.01,0.8,0.012,YES,YES,YES,0.01,0.32,6.9,YES,LI,LI
AY094749_AF135167,LI,DI,0.18,NO,0,False,0.65,YES,0.01,0.8,0.043,YES,YES,YES,0.01,0.89,0.056,YES,YES,YES,0.02,0.47,0.097,YES,LI,LI
AY094749_AF135062,LI,DI,0.2,NO,0,False,0.37,YES,0,1,3.7,YES,YES,YES,0.01,0.8,2.1,YES,YES,YES,0.03,0.24,0.45,YES,LI,LI
AY094749_AJ245406,LI,DI,0.22,NO,0,False,0.07,YES,0,0.91,0.007,YES,YES,YES,0,0.91,0.001,YES,YES,YES,0,0.35,3.8,YES,LI,LI
AY094749_AB026845,LI,DI,0.2,NO,0,False,0.17,YES,0,0.81,0.4,YES,YES,YES,0,1,2.6,YES,YES,YES,0,0.24,1.3,YES,LI,LI
AY094749_AF045776,LI,DI,0.2,NO,0,False,0.41,YES,0.01,1,0.096,YES,YES,YES,0.01,0.93,0.66,YES,YES,YES,0.01,0.47,2.9,YES,LI,LI
AY094749_AF045777,LI,DI,0.2,NO,0,False,0.12,YES,0.01,0.76,0.008,YES,YES,YES,0.02,0.76,0.004,YES,YES,YES,0.02,0.4,0.18,YES,LI,LI
AY094749_AJ012280,LI,DI,0.18,NO,0,False,0.27,YES,0,1,2.6,YES,YES,YES,0.01,1,5.2,YES,YES,YES,0.05,0.23,0.14,YES,LI,LI
AY094749_AF241648,LI,DI,0.2,NO,0,False,0.37,YES,0,1,3.7,YES,YES,YES,0.01,0.8,2.1,YES,YES,YES,0.03,0.24,0.45,YES,LI,LI
AY094749_AF045778,LI,DI,0.2,NO,0,False,0.9,YES,0.01,0.76,0.061,YES,YES,YES,0.02,0.76,0.012,YES,YES,YES,0.07,0.33,0.011,YES,LI,LI
AY094749_AF045775,LI,DI,0.2,NO,0,False,0.85,YES,0,0.88,0.96,YES,YES,YES,0,1,0.47,YES,YES,YES,0.01,0.27,0.36,YES,LI,LI
AY094749_AJ400901,LI,DI,0.17,NO,0,False,0.17,YES,0.01,0.88,0.14,YES,YES,YES,0.01,0.88,0.041,YES,YES,NO,0,0,5,YES,LI,LI
AJ245406_AJ238577,EF,DI,0.44,YES,0,False,0.08,YES,0,0.89,0.0006,NO,YES,YES,0,0.84,0.12,YES,YES,YES,0.01,0.26,0,NO,EF,EF
BT003579_X75499,EF,DI,0,NO,0,False,0.31,YES,0.01,1,0,NO,YES,YES,0.01,0.78,0.12,YES,YES,YES,0.02,0.18,0.71,YES,EF,EF
BT003579_AF214648,LI,DI,0.17,NO,0,False,0.44,YES,0.01,0.78,0.42,YES,YES,YES,0.01,0.78,0.1,YES,YES,YES,0.01,0.3,1.2,YES,LI,LI
M15762_M15763,LI,DI,0.6,YES,0.5,N/A,1,YES,0.08,1,0.002,YES,YES,YES,0.08,1,0.002,YES,YES,NO,0,0,5,YES,LI,LI
J02788_X60196,LI,DI,0.56,YES,0,N/A,0.59,YES,0,1,0.011,YES,YES,YES,0,1,0.22,YES,YES,YES,0.03,0.32,1.2,YES,LI,LI
J02788_X53155,LI,DI,0.07,YES,0,N/A,0.56,YES,0,0.89,0.4,YES,YES,YES,0,0.89,0.17,YES,YES,YES,0.01,0.3,2.9,YES,LI,LI
AF003107_AY069862,LI,DI,0.15,NO,0,False,0.11,YES,0.01,0.84,0.43,YES,YES,YES,0.01,1,0.27,YES,YES,NO,0,0,5,YES,LI,LI
K01959_X05427,LI,DI,0.23,YES,0,N/A,0.05,YES,0,0.83,1.3,YES,YES,YES,0.07,0.76,0.79,YES,YES,NO,0,0,5,YES,LI,LI
X05724_X76210,EF,DI,0.09,YES,0,N/A,0.07,YES,0.01,1,0,NO,NO,NO,0,0,5,YES,NO,NO,0,0,5,YES,EF,EF
AY060918_AY102658,EF,DI,0.5,NO,0,True,0.62,YES,0.01,0.9,0.00009,NO,YES,YES,0.01,1,0.45,YES,YES,YES,0.01,0.33,0.79,YES,EF,EF
AY051809_BT011367,EF,DI,0.5,NO,0,True,0.81,YES,0.01,1,0.0005,NO,YES,YES,0.01,0.88,0.12,YES,YES,YES,0.05,0.31,0,NO,EF,EF
AF017777_AY128468,EF,DI,0.05,NO,0,False,0.08,YES,0.02,0.99,0,NO,YES,YES,0.01,0.8,0,NO,YES,YES,0.01,0.36,9.4,YES,EF,EF
M17155_X78908,LI,DI,0.27,YES,0,N/A,0.24,YES,0.01,1,0.11,YES,YES,YES,0.01,1,0.11,YES,YES,NO,0,0,5,YES,LI,LI
M14981_X55169,LI,DI,0.08,YES,0,N/A,0.29,YES,0.02,1,0.73,YES,NO,NO,0,0,5,YES,NO,NO,0,0,5,YES,LI,LI
M14982_X55169,LI,DI,0.08,YES,0,N/A,0.47,YES,0.02,1,5.6,YES,NO,NO,0,0,5,YES,NO,NO,0,0,5,YES,LI,LI
AL021726_AY061827,LI,DI,0.22,NO,0,False,0.15,YES,0,0.85,0.039,YES,YES,YES,0.01,0.79,0.023,YES,YES,YES,0.01,0.29,1.6,YES,LI,LI
AB008113_U26713,LI,DI,0.54,YES,0,False,0.67,YES,0.03,0.78,0.017,YES,YES,YES,0.06,1,4.2,YES,YES,NO,0,0,5,YES,LI,LI
U62802_X75499,EF,DI,0.1,YES,0,False,0.5,YES,0.01,1,0.0001,NO,YES,YES,0.01,0.78,0.12,YES,YES,YES,0.01,0.26,1.3,YES,EF,EF
BT010238_BT029117,LI,DI,0.71,NO,0,True,0.89,YES,0.01,0.83,0.023,YES,YES,YES,0.02,0.92,1.9,YES,YES,YES,0.02,0.33,0.7,YES,LI,LI
BT099999_BT024951,EF,DI,0.71,NO,0,True,0.68,YES,0.01,1,0,NO,YES,YES,0.01,0.9,0.003,YES,YES,YES,0.02,0.33,1.6,YES,EF,EF
BT099999_BT001424,EF,DI,0.71,NO,0,True,0.52,YES,0.01,1,0,NO,YES,YES,0.01,0.83,0.015,YES,YES,YES,0.01,0.32,2.3,YES,EF,EF
AF102135_BT058012,EF,DI,0.14,NO,0,False,0.89,YES,0.02,1,0,NO,NO,NO,0,0,5,YES,NO,NO,0,0,5,YES,EF,EF
X54005_AL034544,LI,DI,0,YES,0,N/A,0.1,YES,0,0.86,0.16,YES,NO,NO,0,0,5,YES,NO,NO,0,0,5,YES,LI,LI
AJ277188_X75499,EF,DI,0.11,YES,0,True,0.44,YES,0.01,0.89,0.00001,NO,YES,YES,0.01,0.78,0.13,YES,YES,YES,0.02,0.24,0.0003,NO,EF,EF
AJ277184_X75499,EF,DI,0.1,YES,0,True,0.97,YES,0.05,0.75,0.000004,NO,YES,YES,0.01,1,0.22,YES,YES,YES,0.01,0.5,1.4,YES,EF,EF
AJ277184_AF214648,LI,DI,0.6,YES,0,False,0.74,YES,0.01,1,0.47,YES,YES,YES,0.01,1,0.18,YES,YES,YES,0.01,0.5,1.1,YES,LI,LI
AJ277185_X75499,LI,DI,0.11,YES,0,True,0.37,YES,0.01,0.76,0.072,YES,YES,YES,0.01,0.85,0.12,YES,YES,YES,0.01,0.26,1.4,YES,LI,LI
M19547_AY118512,LI,DI,0,NO,0,N/A,0.55,YES,0,0.92,0.007,YES,YES,YES,0.01,0.85,0.5,YES,YES,YES,0.01,0.31,6.3,YES,LI,LI
Y09934_BT024951,LI,DI,0,NO,0,False,0.07,YES,0.01,0.86,1.4,YES,NO,NO,0,0,5,YES,NO,NO,0,0,5,YES,LI,LI
Y09935_BT024951,LI,DI,0,NO,0,False,0.07,YES,0.01,0.86,1.4,YES,NO,NO,0,0,5,YES,NO,NO,0,0,5,YES,LI,LI
Y09932_BT024951,LI,DI,0,NO,0,False,0.07,YES,0,1,1.4,YES,NO,NO,0,0,5,YES,NO,NO,0,0,5,YES,LI,LI
Y09933_BT024951,LI,DI,0,NO,0,False,0.07,YES,0,1,1.4,YES,NO,NO,0,0,5,YES,NO,NO,0,0,5,YES,LI,LI
Y09930_BT024951,LI,DI,0,NO,0,False,0.07,YES,0,1,1.4,YES,NO,NO,0,0,5,YES,NO,NO,0,0,5,YES,LI,LI
Y09931_BT024951,LI,DI,0,NO,0,False,0.07,YES,0,1,1.4,YES,NO,NO,0,0,5,YES,NO,NO,0,0,5,YES,LI,LI
AY060357_X14396,LI,DI,0.07,NO,0,N/A,0.29,YES,0,0.89,0.2,YES,YES,YES,0.01,0.83,1.8,YES,YES,NO,0,0,5,YES,LI,LI
AY119664_AL034544,EF,DI,0.22,NO,0,False,0.24,YES,0,1,0.000005,NO,NO,NO,0,0,5,YES,NO,NO,0,0,5,YES,EF,EF
M11798_M19537,LI,DI,0.33,YES,0,N/A,0.68,YES,0.01,0.86,0.16,YES,YES,YES,0.01,0.88,0.36,YES,YES,NO,0,0,5,YES,LI,LI
AJ238575_AF045776,LI,DI,0.44,YES,0,False,0.17,YES,0,0.83,0.23,YES,YES,YES,0.01,0.83,0.1,YES,YES,YES,0.03,0.24,0.2,YES,LI,LI
AJ238577_AJ012279,LI,DI,0.25,YES,0,False,0.14,YES,0,1,1.6,YES,YES,YES,0,1,1.6,YES,YES,YES,0.04,0.21,0,NO,LI,LI
AF129814_X03879,LI,DI,0.13,YES,0,N/A,0.62,YES,0.01,0.77,1.3,YES,YES,YES,0.01,0.77,0.89,YES,YES,YES,0.01,0.3,0.4,YES,LI,LI
AF129814_X03875,LI,DI,0.19,YES,0,N/A,0.97,YES,0.01,0.79,0.053,YES,YES,YES,0.01,0.79,0.03,YES,YES,YES,0.01,0.18,1.7,YES,LI,LI
BK003285_AY119566,LI,DI,0.18,NO,0,False,0.7,YES,0.01,0.83,0.3,YES,YES,YES,0.01,0.83,0.25,YES,YES,YES,0.01,0.57,2.2,YES,LI,LI
X03876_S74010,LI,DI,0.07,YES,0,N/A,0.64,YES,0.02,1,0.46,YES,YES,YES,0.03,1,0.37,YES,YES,NO,0,0,5,YES,LI,LI
X03876_M37783,LI,DI,0.13,YES,0,N/A,0.09,YES,0,0.87,2.3,YES,YES,YES,0.03,0.91,2.1,YES,YES,NO,0,0,5,YES,LI,LI
AL132792_AF195242,EF,DI,0.18,YES,0,False,0.02,YES,0,1,0,NO,YES,YES,0,0.9,0.31,YES,YES,YES,0.01,0.34,1.2,YES,EF,EF
M31900_M31902,EF,DI,0.4,YES,0.33,N/A,0.67,YES,0.59,0.99,0,NO,YES,YES,0.03,1,0,NO,YES,YES,1,1,0,NO,EF,EF
M59447_S88324,LI,DI,0.15,YES,0,N/A,0.09,YES,0.01,0.89,0.37,YES,YES,YES,0.01,1,0.031,YES,YES,YES,0.01,0.4,2.6,YES,LI,LI
S64529_X76230,LI,DI,0.14,YES,0,N/A,0.5,YES,0.01,0.88,0.32,YES,YES,YES,0.01,0.88,0.31,YES,YES,NO,0,0,5,YES,LI,LI
D00009_AB029195,LI,DI,0.45,YES,0,N/A,0.31,YES,0.01,0.86,0.39,YES,YES,YES,0.01,0.86,0.39,YES,YES,YES,0.01,0.64,0.43,YES,LI,LI
D00009_AB029196,LI,DI,0.45,YES,0,N/A,0.31,YES,0.01,0.86,0.39,YES,YES,YES,0.01,0.86,0.39,YES,YES,YES,0.01,0.64,0.43,YES,LI,LI
D00009_AB029194,LI,DI,0.45,YES,0,N/A,0.31,YES,0.01,0.86,0.39,YES,YES,YES,0.01,0.86,0.39,YES,YES,YES,0.01,0.64,0.43,YES,LI,LI
X14215_X97437,EF,DI,0.08,YES,0,N/A,0.4,YES,0.03,0.86,0,NO,YES,YES,0.09,0.83,0,NO,YES,NO,0,0,5,YES,EF,EF
AJ012279_AF045776,LI,DI,0.44,YES,0,False,0.37,YES,0.02,0.89,0.014,YES,YES,YES,0.02,0.89,0.014,YES,YES,YES,0.03,0.33,0.21,YES,LI,LI
X07133_X78908,LI,DI,0.08,YES,0,N/A,0.22,YES,0.01,1,0.13,YES,YES,YES,0.01,1,0.097,YES,YES,YES,0.02,0.35,6.6,YES,LI,LI
X05427_X05723,EF,DI,0.36,YES,0,N/A,0.19,YES,0.01,1,0,NO,YES,YES,0.01,1,0.82,YES,YES,YES,0.01,0.71,5.6,YES,EF,EF
X05427_X05724,LI,DI,0.44,YES,0,N/A,0.07,YES,0.01,0.81,0.15,YES,NO,NO,0,0,5,YES,NO,NO,0,0,5,YES,LI,LI
X05427_X05725,LI,DI,0.44,YES,0,N/A,0.03,YES,0,0.84,0.19,YES,NO,NO,0,0,5,YES,NO,NO,0,0,5,YES,LI,LI
X05427_X05727,LI,DI,0.44,YES,0,N/A,0.78,YES,0.01,0.77,0.039,YES,NO,NO,0,0,5,YES,NO,NO,0,0,5,YES,LI,LI
AJ002918_X72830,LI,DI,0.1,YES,0,False,0.16,YES,0.01,1,2.8,YES,YES,YES,0.01,1,2,YES,YES,YES,0.03,0.46,2,YES,LI,LI
AL031025_AY122166,EF,DI,0.22,NO,0,False,0.08,YES,0,0.83,0,NO,YES,YES,0.02,0.83,0,NO,YES,YES,0.01,0.5,2.9,YES,EF,EF
AL031025_AY061827,EF,DI,0.22,NO,0,False,0.07,YES,0.02,0.99,0,NO,YES,YES,0.01,0.88,0.006,YES,YES,YES,0.01,0.63,0.35,YES,EF,EF
AL031765_X64419,LI,DI,0,YES,0,False,0,YES,0,0.84,1.4,YES,YES,YES,0,0.84,0.86,YES,YES,YES,0.02,0.71,0,NO,LI,LI
AY906406_AY906697,DI,LI,0.6,YES,0.5,True,0.8,YES,0.04,0.88,0.048,YES,YES,YES,0.04,0.88,0.047,YES,YES,YES,0.03,0.8,2,YES,DI,DI
AF466632_BT133428,DI,EF,0.15,NO,0,False,0.9,YES,0.01,0.83,0,NO,YES,YES,0.01,0.83,0,NO,YES,YES,0.02,0.63,0,NO,DI,DI
M71248_BT030985,DI,LI,0.17,NO,0,N/A,0.63,YES,0.01,0.93,0.57,YES,YES,YES,0.02,0.94,0.012,YES,YES,YES,0.02,0.45,2,YES,DI,DI
AY564918_AY565814,DI,LI,0.62,YES,0.5,True,0.33,YES,0.01,1,0.036,YES,YES,YES,0.02,0.8,0.4,YES,YES,YES,0.07,0.35,0.016,YES,DI,DI
AY564918_AY565838,DI,LI,0.62,YES,0.5,True,0.33,YES,0.01,0.83,0.01,YES,YES,YES,0.02,0.8,0.4,YES,YES,YES,0.07,0.33,0.027,YES,DI,DI
AY564918_AY565774,DI,LI,0.62,YES,0.5,True,0.34,YES,0.01,1,0.036,YES,YES,YES,0.02,0.8,0.4,YES,YES,YES,0.07,0.33,0.027,YES,DI,DI
EU088953_EU089033,DI,ES,0.83,YES,0.5,True,1,YES,0.99,0.99,0,NO,YES,YES,0.99,0.99,0,NO,YES,YES,0.99,0.99,0,NO,DI,DI
AY906118_AY906013,DI,ES,0.87,YES,0.5,True,1,YES,1,0.99,0,NO,YES,YES,1,1,0,NO,YES,YES,1,1,0,NO,DI,DI
AE003524_AF075247,DI,EF,0.19,YES,0,False,0.01,YES,0,0.98,0,NO,YES,YES,0,0.95,0.2,YES,YES,YES,0.01,0.64,0.27,YES,DI,DI
AY344360_AY344277,DI,LI,0.64,YES,0.5,True,0.98,YES,0.02,1,1.4,YES,YES,YES,0.02,1,0.78,YES,YES,NO,0,0,5,YES,DI,DI
AF350484_AY846859,DI,EF,0.33,YES,0,False,0.63,YES,0.58,0.99,0,NO,YES,YES,0.95,0.99,0,NO,YES,YES,0.95,0.99,0,NO,DI,DI
AF350481_AF385405,DI,ES,0.6,YES,0,False,1,YES,1,0.99,0,NO,YES,YES,1,0.99,0,NO,YES,YES,1,0.99,0,NO,DI,DI
AY905910_AY906111,DI,ES,0.87,YES,0.5,True,1,YES,0.99,0.99,0,NO,YES,YES,1,0.99,0,NO,YES,YES,0.99,0.99,0,NO,DI,DI
AB066627_AB042625,DI,LI,0.22,YES,0.5,False,0.07,YES,0.01,0.87,0.24,YES,YES,YES,0.01,0.87,0.17,YES,YES,NO,0,0,5,YES,DI,DI
AY118840_S94723,DI,EF,0.18,NO,0,N/A,0.86,YES,0.02,1,0,NO,YES,YES,0.02,1,0,NO,YES,YES,0.01,0.4,1.1,YES,DI,DI
FJ219339_FJ219244,DI,LI,0.55,YES,0.5,True,0.31,YES,0.01,1,0.15,YES,YES,YES,0.01,1,0.15,YES,YES,YES,0.01,0.39,3,YES,DI,DI
AY906004_AY906117,DI,ES,0.87,YES,0.5,True,1,YES,0.99,0.99,0,NO,YES,YES,1,0.99,0,NO,YES,YES,0.99,0.99,0,NO,DI,DI
X03062_M27289,DI,EF,0,YES,0,N/A,0.73,YES,0.04,0.92,0,NO,YES,YES,0.05,0.92,0,NO,YES,YES,0.13,0.46,0,NO,DI,DI
X91061_BT032790,DI,EF,0,NO,0,False,0.69,YES,0.06,0.96,0,NO,YES,YES,0.05,1,0.037,YES,YES,NO,0,0,5,YES,DI,DI
AY906021_AY906111,DI,ES,0.87,YES,0.5,True,1,YES,1,1,0,NO,YES,YES,1,1,0,NO,YES,YES,1,1,0,NO,DI,DI
AY906123_AY906112,DI,ES,0.87,YES,0.5,True,1,YES,1,0.99,0,NO,YES,YES,1,1,0,NO,YES,YES,1,1,0,NO,DI,DI
AF295947_AY846852,DI,EF,0.32,YES,0,False,0.73,YES,0.58,0.99,0,NO,YES,YES,0.93,0.99,0,NO,YES,YES,0.94,0.99,0,NO,DI,DI
AY344329_AY344313,DI,LI,0.64,YES,0.5,True,0.52,YES,0.01,1,0.48,YES,YES,YES,0.01,1,0.36,YES,YES,NO,0,0,5,YES,DI,DI
AY071305_BT003557,DI,EF,0.5,NO,0,True,0.45,YES,0.42,0.99,0,NO,YES,YES,0.01,0.87,1.3,YES,YES,YES,0.02,0.33,4.4,YES,DI,DI
AY274372_FJ686094,DI,ES,0.31,YES,0,False,0.97,YES,0.97,0.99,0,NO,YES,YES,0.97,0.99,0,NO,YES,YES,0.96,1,0,NO,DI,DI
AY344280_AY344354,DI,LI,0.64,YES,0.5,True,0.98,YES,0.02,1,1.4,YES,YES,YES,0.02,1,0.78,YES,YES,NO,0,0,5,YES,DI,DI
FJ219539_FJ219324,DI,LI,0.55,YES,0.5,True,0.56,YES,0,1,3.4,YES,YES,YES,0,1,3.4,YES,YES,YES,0.02,0.39,0.41,YES,DI,DI
AY565174_AY564810,DI,EF,0.57,YES,0.5,True,0.99,YES,0.02,0.84,0.0002,NO,YES,YES,0.02,0.84,0.00009,NO,YES,YES,0.03,0.47,0.57,YES,DI,DI
AY906065_AY906111,DI,ES,0.87,YES,0.5,True,1,YES,1,1,0,NO,YES,YES,1,1,0,NO,YES,YES,1,1,0,NO,DI,DI
AY906064_AY906116,DI,ES,0.87,YES,0.5,True,1,YES,0.98,0.98,0,NO,YES,YES,0.99,0.99,0,NO,YES,YES,0.99,0.99,0,NO,DI,DI
EU089010_EU088957,DI,ES,0.83,YES,0.5,True,1,YES,1,0.99,0,NO,YES,YES,1,0.99,0,NO,YES,YES,1,1,0,NO,DI,DI
AY565540_AY564959,DI,LI,0.57,YES,0.5,True,0.98,YES,0.01,0.82,0.003,YES,YES,YES,0.02,0.82,0.0008,NO,YES,YES,0.02,0.6,1.2,YES,DI,DI
AF295959_AF350477,DI,EF,0.69,YES,0,True,0.88,YES,0.86,0.99,0,NO,YES,YES,1,0.99,0,NO,YES,YES,1,0.99,0,NO,DI,DI
AF295958_AF295954,DI,EF,0.83,YES,0,True,0.87,YES,0.86,0.99,0,NO,YES,YES,1,0.99,0,NO,YES,YES,1,0.99,0,NO,DI,DI
AY779936_AY905856,DI,EF,0.6,YES,0,False,0.53,YES,0.03,0.88,0.00005,NO,YES,YES,0.03,0.88,0.00005,NO,YES,YES,0.03,0.47,0.0002,NO,DI,DI
AY779934_AY905856,DI,EF,0.6,YES,0,False,0.54,YES,0.03,0.88,0.00005,NO,YES,YES,0.03,0.88,0.00005,NO,YES,YES,0.03,0.47,0.0002,NO,DI,DI
X14569_BK004084,DI,LI,0.27,YES,0,N/A,0.22,YES,0,0.84,0.046,YES,YES,YES,0,0.84,0.036,YES,YES,YES,0,0.58,5.2,YES,DI,DI
AY906087_AY906111,DI,ES,0.87,YES,0.5,True,1,YES,0.99,0.99,0,NO,YES,YES,1,0.99,0,NO,YES,YES,0.99,0.99,0,NO,DI,DI
AY906086_AY906113,DI,ES,0.87,YES,0.5,True,1,YES,0.99,0.99,0,NO,YES,YES,1,0.99,0,NO,YES,YES,0.99,0.99,0,NO,DI,DI
AY846857_AF350486,DI,EF,0.33,YES,0,False,0.63,YES,0.58,0.99,0,NO,YES,YES,0.95,0.99,0,NO,YES,YES,0.95,1,0,NO,DI,DI
AY060414_X76208,DI,EF,0.09,NO,0,N/A,0.13,YES,0.06,0.99,0,NO,YES,YES,0.01,0.98,0,NO,YES,YES,0.29,0.68,0,NO,DI,DI
AY010574_Y09931,DI,LI,0.08,YES,0,False,0.54,YES,0.06,0.8,0.61,YES,NO,NO,0,0,5,YES,NO,NO,0,0,5,YES,DI,DI
L17133_M13570,DI,EF,0.08,YES,0,N/A,0.38,YES,0.02,0.9,0,NO,YES,YES,0.02,0.9,0,NO,YES,YES,0.08,0.53,0,NO,DI,DI
AB107280_AB107307,DI,EF,0.75,YES,0.5,True,0.88,YES,0.49,1,0,NO,YES,YES,0.68,1,0,NO,YES,YES,0.73,0.82,0,NO,DI,DI
AB107280_AB107317,DI,EF,0.75,YES,0.5,True,0.83,YES,0.47,1,0,NO,YES,YES,0.61,1,0,NO,YES,YES,0.65,0.86,0,NO,DI,DI
FJ219228_FJ219344,DI,LI,0.55,YES,0.5,True,0.31,YES,0.01,0.88,0.53,YES,YES,YES,0.01,0.88,0.53,YES,YES,YES,0.01,0.39,3,YES,DI,DI
AF350491_AY846853,DI,EF,0.35,YES,0,False,0.63,YES,0.58,0.99,0,NO,YES,YES,0.95,0.99,0,NO,YES,YES,0.95,0.99,0,NO,DI,DI
AB010793_AF019014,DI,EF,0.35,YES,0,False,0.11,YES,0.07,0.79,0,NO,YES,YES,0.79,0.77,0,NO,YES,YES,0.92,0.92,0,NO,DI,DI
AF350473_AY846855,DI,EF,0.33,YES,0,False,0.73,YES,0.59,0.99,0,NO,YES,YES,0.95,0.99,0,NO,YES,YES,0.95,1,0,NO,DI,DI
AF295937_AY370940,DI,EF,0.4,YES,0,False,0.68,YES,0.16,0.93,0,NO,YES,YES,0.08,0.96,0,NO,YES,YES,0.09,1,0,NO,DI,DI
AF295936_AY846856,DI,EF,0.33,YES,0,False,0.75,YES,0.62,0.96,0,NO,YES,YES,0.92,0.97,0,NO,YES,YES,0.94,0.99,0,NO,DI,DI
AF295936_AY846858,DI,EF,0.33,YES,0,False,0.75,YES,0.62,0.96,0,NO,YES,YES,0.92,0.97,0,NO,YES,YES,0.94,0.99,0,NO,DI,DI
AF295939_AY846852,DI,EF,0.28,YES,0,False,0.73,YES,0.6,0.95,0,NO,YES,YES,0.91,0.97,0,NO,YES,YES,0.94,0.99,0,NO,DI,DI
X68347_AY369115,DI,EF,0.15,YES,0,N/A,0.94,YES,0.02,0.93,0,NO,YES,YES,0.02,0.93,0,NO,YES,YES,0.1,0.51,0,NO,DI,DI
AF385406_BT011541,DI,EF,0.12,NO,0,False,0.82,YES,0.73,0.98,0,NO,YES,YES,1,0.99,0,NO,YES,YES,1,0.99,0,NO,DI,DI
AY905975_AY906115,DI,ES,0.87,YES,0.5,True,1,YES,0.99,0.99,0,NO,YES,YES,1,0.99,0,NO,YES,YES,0.99,0.99,0,NO,DI,DI
AY779908_AY906111,DI,EF,0.21,YES,0,False,0.01,YES,0.01,0.99,0,NO,YES,YES,0.02,0.85,1.9,YES,YES,NO,0,0,5,YES,DI,DI
AY061320_K03055,DI,LI,0.08,NO,0,N/A,0.28,YES,0.03,0.89,0.03,YES,NO,NO,0,0,5,YES,NO,NO,0,0,5,YES,DI,DI
S65640_FM244964,DI,LI,0.08,YES,0,N/A,0.34,YES,0.03,0.81,1.5,YES,YES,YES,0.03,0.81,1.5,YES,YES,YES,0.02,0.5,2.5,YES,DI,DI
Y15606_BT028860,DI,EF,0.25,NO,0,False,0.35,YES,0.04,0.77,0,NO,YES,YES,0.01,0.92,0.000002,NO,YES,YES,0.01,0.75,0.56,YES,DI,DI
AY846855_AF295934,DI,EF,0.33,YES,0,False,0.75,YES,0.62,0.95,0,NO,YES,YES,0.91,0.97,0,NO,YES,YES,0.94,0.99,0,NO,DI,DI
AY565919_AY564809,DI,LI,0.62,YES,0.5,True,0.41,YES,0.01,1,0.03,YES,YES,YES,0.02,0.87,0.38,YES,YES,YES,0.03,0.63,1.1,YES,DI,DI
DQ864141_DQ864205,DI,EF,0.5,YES,0.5,True,0.78,YES,0.02,0.9,0.00001,NO,YES,YES,0.02,0.9,0.00001,NO,YES,YES,0.01,0.55,1.4,YES,DI,DI
AY224609_AF250926,DI,LI,0.4,YES,0,False,0.55,YES,0.01,0.9,0.077,YES,YES,YES,0.01,0.9,0.012,YES,YES,YES,0.01,0.42,1.2,YES,DI,DI
U30914_U14399,DI,EF,0.31,YES,0,False,0.19,YES,0.02,0.72,0.00004,NO,YES,YES,0.01,1,0.23,YES,YES,YES,0.03,0.47,0,NO,DI,DI
X95247_X95248,DI,EF,0.86,YES,0.25,True,0.64,YES,0.27,1,0,NO,YES,YES,0.01,0.94,0.092,YES,YES,YES,0.03,0.23,1.8,YES,DI,DI
AY056870_AY437220,DI,EF,0.19,YES,0,False,0.06,YES,0.01,0.95,0.0002,NO,YES,YES,0.01,0.9,3.8,YES,YES,YES,0.01,0.67,1.3,YES,DI,DI
AY061482_X55775,DI,LI,0,NO,0,N/A,0.1,YES,0.01,1,0.14,YES,NO,NO,0,0,5,YES,NO,NO,0,0,5,YES,DI,DI
AB107310_AB107331,DI,EF,0.82,YES,0.5,True,0.77,YES,0.41,1,0,NO,YES,YES,0.51,1,0,NO,YES,YES,0.51,0.99,0,NO,DI,DI
AY070977_FM245445,DI,LI,0.2,NO,0,False,0.84,YES,0.01,1,0.066,YES,YES,YES,0.01,1,2.1,YES,YES,YES,0.06,0.39,0.0003,NO,DI,DI
AB042864_AB043042,DI,EF,0.64,YES,0.5,True,0.98,YES,0.7,0.98,0,NO,YES,YES,0.99,0.99,0,NO,YES,YES,1,0.99,0,NO,DI,DI
AB042868_L22727,DI,EF,0.58,YES,0,N/A,0.9,YES,0.7,0.99,0,NO,YES,YES,0.99,0.99,0,NO,YES,YES,1,0.99,0,NO,DI,DI
JQ686694_AY069444,DI,EF,0.18,NO,0,False,0.06,YES,0.01,1,0,NO,YES,YES,0.01,1,6.9,YES,YES,NO,0,0,5,YES,DI,DI
AB107334_AB107328,DI,EF,0.69,YES,0.5,True,0.85,YES,0.48,1,0,NO,YES,YES,0.59,1,0,NO,YES,YES,0.6,0.93,0,NO,DI,DI
AB107334_AB107290,DI,EF,0.75,YES,0.5,True,0.94,YES,0.53,0.99,0,NO,YES,YES,0.75,1,0,NO,YES,YES,0.75,1,0,NO,DI,DI
AB107336_AB107288,DI,EF,0.69,YES,0.5,True,0.77,YES,0.45,0.99,0,NO,YES,YES,0.59,1,0,NO,YES,YES,0.6,0.95,0,NO,DI,DI
AB107336_AB107311,DI,EF,0.75,YES,0.5,True,0.68,YES,0.4,0.99,0,NO,YES,YES,0.51,0.99,0,NO,YES,YES,0.51,1,0,NO,DI,DI
AB107333_AB107320,DI,EF,0.75,YES,0.5,True,0.89,YES,0.6,1,0,NO,YES,YES,0.75,1,0,NO,YES,YES,0.75,1,0,NO,DI,DI
AF145656_AF145689,DI,EF,0.6,YES,0.5,True,0.63,YES,0.01,1,0.0004,NO,YES,YES,0,1,0.037,YES,YES,YES,0.01,0.47,0.96,YES,DI,DI
AF145659_AF145668,DI,EF,0.6,YES,0.5,True,0.9,YES,0.01,0.96,0.000002,NO,YES,YES,0.01,0.82,0.51,YES,YES,YES,0.01,0.27,1.1,YES,DI,DI
AY061582_X95251,DI,EF,0,NO,0,False,0.27,YES,0.21,0.98,0,NO,YES,YES,0.01,0.88,0.19,YES,YES,YES,0.03,0.23,0.6,YES,DI,DI
Z22227_Z22223,DI,EF,0.43,YES,0.5,True,0.95,YES,0.86,0.94,0,NO,YES,YES,0.95,0.95,0,NO,YES,YES,0.96,0.96,0,NO,DI,DI
AY565453_AY564908,DI,EF,0.47,YES,0.5,True,0.98,YES,0.02,0.83,0.0002,NO,YES,YES,0.02,0.83,0.00009,NO,YES,YES,0.02,0.6,0.59,YES,DI,DI
L22716_AB043051,DI,EF,0.6,YES,0,N/A,0.71,YES,0.7,0.98,0,NO,YES,YES,0.98,0.98,0,NO,YES,YES,0.99,0.99,0,NO,DI,DI
AY905992_AY906117,DI,ES,0.87,YES,0.5,True,1,YES,1,1,0,NO,YES,YES,1,1,0,NO,YES,YES,1,1,0,NO,DI,DI
AY905993_AY906531,DI,LI,0.63,YES,0.5,True,0.66,YES,0.04,0.82,0.5,YES,YES,YES,0.04,0.82,0.41,YES,YES,YES,0.03,0.36,3.8,YES,DI,DI
AF145670_AF145637,DI,EF,0.6,YES,0.5,True,0.72,YES,0.01,1,0.00002,NO,YES,YES,0.01,1,0.062,YES,YES,YES,0.01,0.36,0.093,YES,DI,DI
AB107272_AB107343,DI,EF,0.75,YES,0.5,True,0.76,YES,0.53,0.99,0,NO,YES,YES,0.58,1,0,NO,YES,YES,0.58,1,0,NO,DI,DI
AB107274_AB107332,DI,EF,0.75,YES,0.5,True,0.68,YES,0.53,0.99,0,NO,YES,YES,0.75,1,0,NO,YES,YES,0.75,0.98,0,NO,DI,DI
AB107276_AB107337,DI,EF,0.69,YES,0.5,True,0.86,YES,0.47,0.99,0,NO,YES,YES,0.61,1,0,NO,YES,YES,0.61,0.99,0,NO,DI,DI
AB107276_AB107292,DI,EF,0.75,YES,0.5,True,0.75,YES,0.54,1,0,NO,YES,YES,0.68,1,0,NO,YES,YES,0.68,1,0,NO,DI,DI
AB107277_AB107341,DI,EF,0.69,YES,0.5,True,0.62,YES,0.44,0.99,0,NO,YES,YES,0.61,1,0,NO,YES,YES,0.65,0.86,0,NO,DI,DI
AY564812_AY564973,DI,ES,0.83,YES,0.5,True,0.97,YES,0.95,0.98,0,NO,YES,YES,0.96,0.96,0,NO,YES,YES,0.99,0.99,0,NO,DI,DI
AY564812_AY564934,DI,ES,0.83,YES,0.5,True,0.99,YES,0.97,0.97,0,NO,YES,YES,0.96,0.96,0,NO,YES,YES,0.98,0.98,0,NO,DI,DI
AY564812_AY564825,DI,ES,0.83,YES,0.5,True,1,YES,0.98,0.99,0,NO,YES,YES,0.99,0.99,0,NO,YES,YES,0.98,0.98,0,NO,DI,DI
AY564812_AY564827,DI,ES,0.83,YES,0.5,True,1,YES,0.99,0.99,0,NO,YES,YES,1,0.99,0,NO,YES,YES,0.99,0.99,0,NO,DI,DI
AY564812_AY565234,DI,EF,0.57,YES,0.5,True,0.97,YES,0.02,0.83,0.0008,NO,YES,YES,0.02,0.83,0.0003,NO,YES,YES,0.02,0.33,6,YES,DI,DI
AY565229_AY564812,DI,EF,0.57,YES,0.5,True,0.97,YES,0.02,0.83,0.0008,NO,YES,YES,0.02,0.83,0.0003,NO,YES,YES,0.02,0.53,1.8,YES,DI,DI
X54649_K03055,DI,LI,0.63,YES,0,N/A,0.35,YES,0.02,1,0.29,YES,NO,NO,0,0,5,YES,NO,NO,0,0,5,YES,DI,DI
EU088898_EU088957,DI,ES,0.83,YES,0.5,True,1,YES,0.99,0.99,0,NO,YES,YES,0.99,0.99,0,NO,YES,YES,0.99,0.99,0,NO,DI,DI
AF433868_AY093904,DI,LI,0.63,YES,0,False,0.57,YES,0.02,0.82,0.083,YES,YES,YES,0.02,0.82,0.071,YES,YES,YES,0.03,0.32,0.33,YES,DI,DI
BT023285_EU088882,DI,EF,0.13,NO,0,False,0.92,YES,0.03,0.91,0.00003,NO,YES,YES,0.03,0.91,0.00002,NO,YES,YES,0.07,0.39,0.0007,NO,DI,DI
AY565784_AY564909,DI,LI,0.62,YES,0.5,True,0.38,YES,0.01,1,0.032,YES,YES,YES,0.01,0.87,0.43,YES,YES,YES,0.07,0.33,0.011,YES,DI,DI
AY795933_K03507,DI,LI,0.08,YES,0,N/A,0.08,YES,0,0.83,0.087,YES,YES,YES,0.01,0.86,0.18,YES,YES,YES,0.34,0.99,0,NO,DI,DI
AY565207_AY564810,DI,EF,0.57,YES,0.5,True,0.99,YES,0.02,0.84,0.0002,NO,YES,YES,0.02,0.84,0.00009,NO,YES,YES,0.02,0.53,1.8,YES,DI,DI
BT032812_AY061404,DI,EF,0.5,NO,0,True,0.98,YES,0.05,0.84,0,NO,YES,YES,0.05,0.84,0,NO,YES,YES,0.27,0.29,0,NO,DI,DI
FJ218639_BT029681,DI,LI,0.13,NO,0,False,0.87,YES,0.01,0.84,1.2,YES,YES,YES,0.02,0.73,2,YES,YES,YES,0.02,0.26,0.79,YES,DI,DI
AY906038_AY906116,DI,ES,0.87,YES,0.5,True,1,YES,0.98,0.98,0,NO,YES,YES,0.99,0.99,0,NO,YES,YES,0.99,0.99,0,NO,DI,DI
EU088916_EU088953,DI,ES,0.83,YES,0.5,True,1,YES,0.99,0.99,0,NO,YES,YES,1,0.99,0,NO,YES,YES,1,1,0,NO,DI,DI
DQ305404_L38309,DI,LI,0.56,YES,0,N/A,0.47,YES,0.01,0.9,0.003,YES,YES,YES,0.01,1,0.036,YES,YES,YES,0.01,0.47,1.4,YES,DI,DI
U81550_M71248,DI,EF,0.7,YES,0,N/A,0.47,YES,0.03,0.83,0.001,YES,YES,YES,0.08,0.83,0.0003,NO,YES,YES,0.2,0.35,0,NO,DI,DI
AY906137_AY906111,DI,ES,0.87,YES,0.5,True,1,YES,1,0.99,0,NO,YES,YES,1,0.99,0,NO,YES,YES,0.99,0.99,0,NO,DI,DI
AY344331_AY344286,DI,LI,0.64,YES,0.5,True,0.94,YES,0.04,0.79,0.81,YES,YES,YES,0.02,1,1.4,YES,YES,NO,0,0,5,YES,DI,DI
K00667_K00672,DI,EF,0.4,YES,0.33,N/A,0.05,YES,0.04,0.91,0,NO,YES,YES,0.03,0.9,0,NO,YES,YES,0.96,0.96,0,NO,DI,DI
EU088955_EU089060,DI,ES,0.83,YES,0.5,True,1,YES,0.99,0.99,0,NO,YES,YES,0.99,0.99,0,NO,YES,YES,0.99,0.99,0,NO,DI,DI
EU088956_EU088955,DI,ES,0.83,YES,0.5,True,1,YES,0.99,0.99,0,NO,YES,YES,0.99,0.99,0,NO,YES,YES,0.99,0.99,0,NO,DI,DI
EU088951_EU088943,DI,ES,0.83,YES,0.5,True,1,YES,0.99,0.99,0,NO,YES,YES,0.99,0.99,0,NO,YES,YES,0.99,0.99,0,NO,DI,DI
AY906115_AY906172,DI,ES,0.87,YES,0.5,True,1,YES,1,1,0,NO,YES,YES,1,1,0,NO,YES,YES,1,1,0,NO,DI,DI
AY906114_AY906153,DI,ES,0.87,YES,0.5,True,1,YES,1,0.99,0,NO,YES,YES,1,1,0,NO,YES,YES,1,1,0,NO,DI,DI
AY906110_AY906103,DI,ES,0.87,YES,0.5,True,1,YES,0.99,0.99,0,NO,YES,YES,1,0.99,0,NO,YES,YES,0.99,0.99,0,NO,DI,DI
AY906112_AY906238,DI,ES,0.87,YES,0.5,True,1,YES,0.98,0.98,0,NO,YES,YES,1,0.99,0,NO,YES,YES,0.99,0.99,0,NO,DI,DI
AY564810_AY565214,DI,EF,0.57,YES,0.5,True,0.99,YES,0.02,0.84,0.0002,NO,YES,YES,0.02,0.84,0.00009,NO,YES,YES,0.03,0.47,0.26,YES,DI,DI
AY564813_AY565210,DI,EF,0.57,YES,0.5,True,0.97,YES,0.02,0.83,0.0008,NO,YES,YES,0.02,0.83,0.0003,NO,YES,YES,0.02,0.33,7,YES,DI,DI
AY564813_AY565182,DI,EF,0.57,YES,0.5,True,0.97,YES,0.02,0.83,0.0008,NO,YES,YES,0.02,0.83,0.0003,NO,YES,YES,0.02,0.33,6.1,YES,DI,DI
AY564813_AY564896,DI,ES,0.83,YES,0.5,True,0.99,YES,0.97,0.97,0,NO,YES,YES,0.96,0.96,0,NO,YES,YES,0.98,0.98,0,NO,DI,DI
AY564816_AY565246,DI,LI,0.57,YES,0.5,True,0.68,YES,0.01,0.94,0.08,YES,YES,YES,0.02,0.94,0.028,YES,YES,YES,0.02,0.5,8.2,YES,DI,DI
AY564816_AY565288,DI,EF,0.57,YES,0.5,True,0.98,YES,0.02,0.83,0.0008,NO,YES,YES,0.02,0.83,0.0003,NO,YES,YES,0.02,0.33,6.4,YES,DI,DI
AY564816_AY564850,DI,ES,0.83,YES,0.5,True,0.99,YES,0.98,0.98,0,NO,YES,YES,0.97,0.97,0,NO,YES,YES,1,1,0,NO,DI,DI
AB042876_L22730,DI,EF,0.58,YES,0,N/A,0.94,YES,0.7,0.98,0,NO,YES,YES,0.99,0.99,0,NO,YES,YES,0.99,0.99,0,NO,DI,DI
M28864_M28863,DI,LI,0.46,YES,0.5,N/A,0.52,YES,0.01,0.76,0.17,YES,YES,YES,0.01,0.8,0.18,YES,YES,YES,0.02,0.43,1.2,YES,DI,DI
EU088974_EU088952,DI,ES,0.83,YES,0.5,True,1,YES,0.99,0.99,0,NO,YES,YES,1,0.99,0,NO,YES,YES,1,1,0,NO,DI,DI
AF295962_AY032740,DI,EF,0.47,YES,0,False,0.5,YES,0.49,0.99,0,NO,YES,YES,1,0.99,0,NO,YES,YES,1,0.99,0,NO,DI,DI
AF295962_AF295933,DI,EF,0.57,YES,0,True,0.83,YES,0.8,0.97,0,NO,YES,YES,0.97,0.97,0,NO,YES,YES,0.99,0.99,0,NO,DI,DI
AF295962_AF295947,DI,EF,0.6,YES,0,True,0.87,YES,0.84,0.98,0,NO,YES,YES,0.99,0.99,0,NO,YES,YES,0.99,0.99,0,NO,DI,DI
AY071402_AF295103,DI,EF,0.15,NO,0,False,0.71,YES,0.07,1,0,NO,YES,YES,0.01,0.93,0.63,YES,YES,YES,0.02,0.28,2,YES,DI,DI
BT003580_BT022397,DI,EF,0.71,NO,0,True,0.72,YES,0.07,0.96,0,NO,YES,YES,0.03,0.8,0.29,YES,YES,YES,0.02,0.57,0.28,YES,DI,DI
BT021339_AY846862,DI,EF,0.12,NO,0,False,0.71,YES,0.59,0.96,0,NO,YES,YES,0.91,0.97,0,NO,YES,YES,0.94,0.99,0,NO,DI,DI
AY846864_AF350462,DI,EF,0.33,YES,0,False,0.7,YES,0.59,0.97,0,NO,YES,YES,0.91,0.97,0,NO,YES,YES,0.94,0.99,0,NO,DI,DI
AY846865_AF350463,DI,EF,0.33,YES,0,False,0.71,YES,0.58,0.96,0,NO,YES,YES,0.92,0.97,0,NO,YES,YES,0.94,0.99,0,NO,DI,DI
X55775_FM244964,DI,LI,0.08,YES,0,N/A,0.93,YES,0.04,1,0.53,YES,NO,NO,0,0,5,YES,NO,NO,0,0,5,YES,DI,DI
BT024442_AY061081,DI,EF,0.5,NO,0,True,0.73,YES,0.07,0.94,0,NO,YES,YES,0.02,1,0.12,YES,YES,YES,0.03,0.31,4,YES,DI,DI
AB107291_AB107279,DI,EF,0.75,YES,0.5,True,0.56,YES,0.49,1,0,NO,YES,YES,0.51,1,0,NO,YES,YES,0.51,0.99,0,NO,DI,DI
AB107297_AB107326,DI,EF,0.69,YES,0.5,True,1,YES,0.45,1,0,NO,YES,YES,0.6,1,0,NO,YES,YES,0.6,0.99,0,NO,DI,DI
AB107299_AB107343,DI,EF,0.69,YES,0.5,True,0.74,YES,0.53,1,0,NO,YES,YES,0.58,1,0,NO,YES,YES,0.58,0.99,0,NO,DI,DI
Z46893_AF220546,DI,EF,0.22,YES,0,False,0.45,YES,0.38,0.93,0,NO,YES,YES,0.93,0.93,0,NO,YES,YES,0.95,0.95,0,NO,DI,DI
AY438148_AY564977,DI,EF,0.38,YES,0,False,0.18,YES,0.02,0.88,0.00004,NO,YES,YES,0.06,0.88,0.00002,NO,YES,YES,0.08,0.25,0.026,YES,DI,DI
AF217399_U00145,DI,EF,0.2,YES,0,False,0.15,YES,0.09,0.99,0,NO,YES,YES,0,0.94,0.11,YES,YES,YES,0.02,0.26,1.9,YES,DI,DI
AY150722_Z21673,DI,EF,0.06,YES,0,False,0.6,YES,0.59,0.98,0,NO,YES,YES,0.98,0.98,0,NO,YES,YES,0.98,0.98,0,NO,DI,DI
AF321289_X05281,DI,LI,0.13,YES,0,False,0.05,YES,0,1,0.52,YES,NO,NO,0,0,5,YES,NO,NO,0,0,5,YES,DI,DI
FJ219233_FJ219332,DI,LI,0.55,YES,0.5,True,0.33,YES,0.01,0.88,0.5,YES,YES,YES,0.01,0.88,0.5,YES,YES,NO,0,0,5,YES,DI,DI
FJ219548_FJ219338,DI,LI,0.55,YES,0.5,True,0.56,YES,0,1,3.4,YES,YES,YES,0,1,3.4,YES,YES,YES,0.02,0.39,0.41,YES,DI,DI
AY564890_AY564810,DI,ES,0.83,YES,0.5,True,0.99,YES,0.97,0.97,0,NO,YES,YES,0.96,0.96,0,NO,YES,YES,0.98,0.98,0,NO,DI,DI
Y09935_X04570,DI,LI,0.08,YES,0,N/A,0.48,YES,0.05,0.88,0.19,YES,NO,NO,0,0,5,YES,NO,NO,0,0,5,YES,DI,DI
Y09935_AY058309,DI,LI,0,NO,0,False,0.05,YES,0,1,0.52,YES,NO,NO,0,0,5,YES,NO,NO,0,0,5,YES,DI,DI
AF350463_AY846861,DI,EF,0.33,YES,0,False,0.71,YES,0.59,0.96,0,NO,YES,YES,0.92,0.97,0,NO,YES,YES,0.94,0.99,0,NO,DI,DI
AY906058_AY906117,DI,ES,0.87,YES,0.5,True,1,YES,0.99,0.99,0,NO,YES,YES,1,0.99,0,NO,YES,YES,0.99,0.99,0,NO,DI,DI
AB107344_AB107279,DI,EF,0.69,YES,0.5,True,0.89,YES,0.7,0.99,0,NO,YES,YES,0.83,1,0,NO,YES,YES,0.83,1,0,NO,DI,DI
AB107345_AB107283,DI,EF,0.69,YES,0.5,True,0.85,YES,0.43,0.99,0,NO,YES,YES,0.47,1,0,NO,YES,YES,0.47,1,0,NO,DI,DI
AB107346_AB107311,DI,EF,0.75,YES,0.5,True,0.9,YES,0.4,0.99,0,NO,YES,YES,0.51,0.99,0,NO,YES,YES,0.51,0.99,0,NO,DI,DI
AF248040_DQ858475,DI,EF,0.56,YES,0,False,0.54,YES,0.02,0.86,0.00003,NO,YES,YES,0.03,0.86,0.00001,NO,YES,YES,0.02,0.5,2.7,YES,DI,DI
AY565340_AY564810,DI,EF,0.57,YES,0.5,True,0.99,YES,0.02,0.84,0.0002,NO,YES,YES,0.02,0.84,0.00009,NO,YES,YES,0.06,0.21,0.72,YES,DI,DI
AL132792_AY113226,DI,EF,0.22,NO,0,False,0,YES,0,1,0.000002,NO,YES,YES,0,1,1.2,YES,YES,YES,0,0.4,1.2,YES,DI,DI
U07641_AF426170,DI,LI,0.63,YES,0,False,0.31,YES,0.01,0.83,0.15,YES,YES,YES,0.02,0.83,0.044,YES,YES,YES,0.02,0.31,2.2,YES,DI,DI
FM212204_FM212196,DI,EF,0.8,YES,0.5,True,0.98,YES,0.88,0.88,0,NO,YES,YES,0.84,0.84,0,NO,YES,YES,0.81,0.81,0,NO,DI,DI
AY905991_AY906115,DI,ES,0.87,YES,0.5,True,1,YES,1,1,0,NO,YES,YES,1,1,0,NO,YES,YES,1,1,0,NO,DI,DI
AY842139_BT031097,DI,EF,0.15,NO,0,False,0.74,YES,0.03,1,0,NO,YES,YES,0.11,0.74,0,NO,YES,YES,0.47,0.48,0,NO,DI,DI
M16153_AY795934,DI,EF,0.24,YES,0,False,0.2,YES,0,0.85,0.00003,NO,YES,YES,0.01,0.78,0.001,YES,YES,YES,0.34,0.99,0,NO,DI,DI
AY905927_AY906111,DI,ES,0.87,YES,0.5,True,1,YES,1,1,0,NO,YES,YES,1,1,0,NO,YES,YES,1,1,0,NO,DI,DI
AB107303_AB107286,DI,EF,0.69,YES,0.5,True,0.83,YES,0.42,1,0,NO,YES,YES,0.58,1,0,NO,YES,YES,0.59,0.94,0,NO,DI,DI
AY906204_AY906111,DI,ES,0.87,YES,0.5,True,1,YES,0.99,0.99,0,NO,YES,YES,1,0.99,0,NO,YES,YES,0.99,0.99,0,NO,DI,DI
AY565735_AY565347,DI,LI,0.57,YES,0.5,True,0.54,YES,0.01,0.93,0.81,YES,YES,YES,0.01,0.93,0.45,YES,YES,YES,0.06,0.22,0.12,YES,DI,DI
U85765_U90950,DI,ES,1,YES,0.5,True,1,YES,1,1,0,NO,YES,YES,0.05,1,1.1,YES,YES,NO,0,0,5,YES,DI,DI
FM245366_FM244964,DI,LI,0.71,YES,0.5,True,0.17,YES,0.01,0.87,0.24,YES,YES,YES,0.01,0.87,0.24,YES,YES,NO,0,0,5,YES,DI,DI
AF145623_AF181643,DI,EF,0.56,YES,0.5,True,0.52,YES,0.01,0.88,0.0003,NO,YES,YES,0.01,1,0.33,YES,YES,YES,0.01,0.45,1.7,YES,DI,DI
AL031025_AL031883,DI,EF,0.67,YES,0,True,0.99,YES,0,0.89,0,NO,YES,YES,0,0.81,0.052,YES,YES,YES,0.01,0.4,7.5,YES,DI,DI
S65712_AB162503,DI,LI,0.08,YES,0,N/A,0.03,YES,0.01,1,0.12,YES,YES,YES,0.01,1,0.12,YES,YES,YES,0.01,1,0.6,YES,DI,DI
AY906242_AY906118,DI,ES,0.87,YES,0.5,True,1,YES,1,0.99,0,NO,YES,YES,1,0.99,0,NO,YES,YES,0.99,0.99,0,NO,DI,DI
