AL929434_AY394938,DU,DI,0.11,NO,0,False,0.01,YES,0,1,0,NO,NO,NO,0,0,5,YES,NO,NO,0,0,5,YES,DU,EF
CR382298_BC091824,DU,DI,0.09,NO,0,False,0.01,YES,0,0.96,0,NO,NO,NO,0,0,5,YES,NO,NO,0,0,5,YES,DU,EF
U31824_CR933018,DU,DI,0.06,NO,0,False,0.04,YES,0,1,2.2,YES,NO,NO,0,0,5,YES,NO,NO,0,0,5,YES,DU,LI
BX255965_BC096907,DU,DI,0.11,NO,0,False,0.01,YES,0,0.91,0,NO,NO,NO,0,0,5,YES,NO,NO,0,0,5,YES,DU,EF
AJ252024_BX510366,DU,DI,0,NO,0,False,0.01,YES,0,0.97,0,NO,NO,NO,0,0,5,YES,NO,NO,0,0,5,YES,DU,EF
CABZ01071131_CR354434,DU,DI,0.06,NO,0,False,0.02,YES,0,0.85,0,NO,NO,NO,0,0,5,YES,NO,NO,0,0,5,YES,DU,EF
CABZ01071130_CR354434,DU,DI,0.06,NO,0,False,0.01,YES,0,0.87,0,NO,NO,NO,0,0,5,YES,NO,NO,0,0,5,YES,DU,EF
CABZ01071132_CR354434,DU,DI,0.06,NO,0,False,0.08,YES,0,0.88,0,NO,NO,NO,0,0,5,YES,NO,NO,0,0,5,YES,DU,EF
CABZ01071134_CR354434,DU,DI,0.06,NO,0,False,0.08,YES,0,0.85,0,NO,NO,NO,0,0,5,YES,NO,NO,0,0,5,YES,DU,EF
CR853286_BC095808,DU,DI,0.05,NO,0,False,0.02,YES,0,0.77,0,NO,NO,NO,0,0,5,YES,NO,NO,0,0,5,YES,DU,EF
AF042108_AF068771,DU,DI,0.07,YES,0,False,0.57,YES,0,0.88,1.5,YES,YES,YES,0.01,0.88,0.36,YES,YES,YES,0.01,0.33,0.75,YES,DU,LI
CABZ01076017_CU468254,DU,DI,0.06,NO,0,False,0.16,YES,0.01,0.75,0,NO,NO,NO,0,0,5,YES,NO,NO,0,0,5,YES,DU,EF
CABZ01076016_CU468254,DU,DI,0.06,NO,0,False,0.02,YES,0,0.83,0,NO,NO,NO,0,0,5,YES,NO,NO,0,0,5,YES,DU,EF
CABZ01076015_CU915569,DU,DI,0.06,NO,0,False,0.31,YES,0.02,0.86,0,NO,NO,NO,0,0,5,YES,NO,NO,0,0,5,YES,DU,EF
CABZ01076015_CU468254,DU,DI,0.06,NO,0,False,0.07,YES,0,0.89,0,NO,NO,NO,0,0,5,YES,NO,NO,0,0,5,YES,DU,EF
CABZ01076014_CU468254,DU,DI,0.06,NO,0,False,0.02,YES,0,0.73,0,NO,NO,NO,0,0,5,YES,NO,NO,0,0,5,YES,DU,EF
CABZ01076013_CU915569,DU,DI,0.06,NO,0,False,0.19,YES,0.02,0.86,0,NO,NO,NO,0,0,5,YES,NO,NO,0,0,5,YES,DU,EF
CABZ01076013_CU468254,DU,DI,0.06,NO,0,False,0.04,YES,0,0.86,0,NO,NO,NO,0,0,5,YES,NO,NO,0,0,5,YES,DU,EF
CABZ01076012_CU468254,DU,DI,0.06,NO,0,False,0.02,YES,0,0.83,0,NO,NO,NO,0,0,5,YES,NO,NO,0,0,5,YES,DU,EF
CABZ01076011_CU915569,DU,DI,0.06,NO,0,False,0.4,YES,0.02,0.81,0,NO,NO,NO,0,0,5,YES,NO,NO,0,0,5,YES,DU,EF
CABZ01076010_CU915569,DU,DI,0.06,NO,0,False,0.4,YES,0.01,0.88,0,NO,NO,NO,0,0,5,YES,NO,NO,0,0,5,YES,DU,EF
CABZ01076010_CU468254,DU,DI,0.06,NO,0,False,0.09,YES,0,0.8,0,NO,NO,NO,0,0,5,YES,NO,NO,0,0,5,YES,DU,EF
CABZ01076018_CU468254,DU,DI,0.06,NO,0,False,0.03,YES,0,0.76,0,NO,NO,NO,0,0,5,YES,NO,NO,0,0,5,YES,DU,EF
AL731861_BC107845,DU,DI,0.03,NO,0,False,0.01,YES,0,1,0.006,YES,YES,YES,0,1,0.002,YES,YES,YES,0.01,0.39,2,YES,DU,LI
BX247873_CU458752,DU,DI,0.07,NO,0,False,0.01,YES,0,0.95,0,NO,NO,NO,0,0,5,YES,NO,NO,0,0,5,YES,DU,EF
BX649588_BC076083,DU,DI,0.11,NO,0,False,0.03,YES,0,1,0,NO,NO,NO,0,0,5,YES,NO,NO,0,0,5,YES,DU,EF
AY398341_BX571960,DU,DI,0.13,NO,0,False,0.01,YES,0,1,0,NO,NO,NO,0,0,5,YES,NO,NO,0,0,5,YES,DU,EF
AL954831_BC085457,DU,DI,0.09,NO,0,False,0,YES,0,0.97,0,NO,NO,NO,0,0,5,YES,NO,NO,0,0,5,YES,DU,EF
AL845512_BC065987,DU,DI,0.11,NO,0,False,0.01,YES,0,1,0.0003,NO,NO,NO,0,0,5,YES,NO,NO,0,0,5,YES,DU,EF
BC058055_FP360035,DU,DI,0.08,NO,0,False,0.06,YES,0,0.87,0.0002,NO,NO,NO,0,0,5,YES,NO,NO,0,0,5,YES,DU,EF
BX547928_BC146742,DU,DI,0.05,NO,0,False,0.01,YES,0,0.97,0,NO,NO,NO,0,0,5,YES,NO,NO,0,0,5,YES,DU,EF
BC078395_CR753874,DU,DI,0.09,NO,0,False,0.01,YES,0,0.97,0,NO,NO,NO,0,0,5,YES,NO,NO,0,0,5,YES,DU,EF
AL929041_AY929290,DU,DI,0.06,NO,0,False,0.02,YES,0,0.97,0,NO,NO,NO,0,0,5,YES,NO,NO,0,0,5,YES,DU,EF
AL929559_BC067142,DU,DI,0.11,NO,0,False,0.05,YES,0,0.88,0,NO,NO,NO,0,0,5,YES,NO,NO,0,0,5,YES,DU,EF
BC071374_AL929108,DU,DI,0.14,NO,0,False,0.01,YES,0,0.94,0,NO,NO,NO,0,0,5,YES,NO,NO,0,0,5,YES,DU,EF
AL928951_BC097219,DU,DI,0.11,NO,0,False,0,YES,0,0.97,0,NO,NO,NO,0,0,5,YES,NO,NO,0,0,5,YES,DU,EF
CU207239_BC044157,DU,DI,0.05,NO,0,False,0.01,YES,0,0.82,0.004,YES,NO,NO,0,0,5,YES,NO,NO,0,0,5,YES,DU,LI
BX548061_BC093306,DU,DI,0.11,NO,0,False,0.01,YES,0,0.97,0,NO,NO,NO,0,0,5,YES,NO,NO,0,0,5,YES,DU,EF
BX323010_BC135059,DU,DI,0.11,NO,0,False,0.01,YES,0,1,0.001,YES,NO,NO,0,0,5,YES,NO,NO,0,0,5,YES,DU,LI
CR354434_CABZ01071109,DU,DI,0.06,NO,0,False,0.09,YES,0,0.86,0,NO,NO,NO,0,0,5,YES,NO,NO,0,0,5,YES,DU,EF
CR354434_CABZ01071113,DU,DI,0.06,NO,0,False,0.08,YES,0,0.86,0,NO,NO,NO,0,0,5,YES,NO,NO,0,0,5,YES,DU,EF
CR354434_CABZ01071111,DU,DI,0.06,NO,0,False,0.02,YES,0,0.81,0,NO,NO,NO,0,0,5,YES,NO,NO,0,0,5,YES,DU,EF
CR354434_CABZ01071110,DU,DI,0.06,NO,0,False,0.07,YES,0,0.82,0,NO,NO,NO,0,0,5,YES,NO,NO,0,0,5,YES,DU,EF
CR354434_CABZ01071117,DU,DI,0.06,NO,0,False,0.06,YES,0,0.87,0,NO,NO,NO,0,0,5,YES,NO,NO,0,0,5,YES,DU,EF
CR354434_CABZ01071116,DU,DI,0.06,NO,0,False,0.02,YES,0,0.82,0,NO,NO,NO,0,0,5,YES,NO,NO,0,0,5,YES,DU,EF
CR354434_CABZ01071115,DU,DI,0.06,NO,0,False,0.18,YES,0,0.87,0,NO,NO,NO,0,0,5,YES,NO,NO,0,0,5,YES,DU,EF
CR354434_CABZ01071114,DU,DI,0.06,NO,0,False,0.06,YES,0,0.86,0,NO,NO,NO,0,0,5,YES,NO,NO,0,0,5,YES,DU,EF
CR354434_CABZ01071119,DU,DI,0.06,NO,0,False,0.01,YES,0,0.87,0,NO,NO,NO,0,0,5,YES,NO,NO,0,0,5,YES,DU,EF
CR354434_CABZ01071118,DU,DI,0.06,NO,0,False,0.05,YES,0,0.86,0,NO,NO,NO,0,0,5,YES,NO,NO,0,0,5,YES,DU,EF
CR354434_CABZ01071128,DU,DI,0.06,NO,0,False,0.03,YES,0,0.87,0,NO,NO,NO,0,0,5,YES,NO,NO,0,0,5,YES,DU,EF
CR354434_CABZ01071126,DU,DI,0.06,NO,0,False,0.05,YES,0,0.85,0,NO,NO,NO,0,0,5,YES,NO,NO,0,0,5,YES,DU,EF
CR354434_CABZ01071127,DU,DI,0.06,NO,0,False,0.06,YES,0,0.8,0,NO,NO,NO,0,0,5,YES,NO,NO,0,0,5,YES,DU,EF
CR354434_CABZ01071124,DU,DI,0.06,NO,0,False,0.06,YES,0,0.9,0,NO,NO,NO,0,0,5,YES,NO,NO,0,0,5,YES,DU,EF
CR354434_CABZ01071125,DU,DI,0.06,NO,0,False,0.02,YES,0,0.82,0,NO,NO,NO,0,0,5,YES,NO,NO,0,0,5,YES,DU,EF
CR354434_CABZ01071122,DU,DI,0.06,NO,0,False,0.06,YES,0,0.85,0,NO,NO,NO,0,0,5,YES,NO,NO,0,0,5,YES,DU,EF
CR354434_CABZ01071120,DU,DI,0.06,NO,0,False,0.01,YES,0,0.85,0,NO,NO,NO,0,0,5,YES,NO,NO,0,0,5,YES,DU,EF
CR354434_CABZ01071121,DU,DI,0.06,NO,0,False,0.01,YES,0,0.82,0,NO,NO,NO,0,0,5,YES,NO,NO,0,0,5,YES,DU,EF
BX465864_U93479,DU,DI,0,NO,0,False,0,YES,0,0.93,0,NO,NO,NO,0,0,5,YES,NO,NO,0,0,5,YES,DU,EF
AL935332_BC122265,DU,DI,0.11,NO,0,False,0.01,YES,0,1,0,NO,NO,NO,0,0,5,YES,NO,NO,0,0,5,YES,DU,EF
BX323839_BC075994,DU,DI,0.1,NO,0,False,0.01,YES,0,0.95,0,NO,NO,NO,0,0,5,YES,NO,NO,0,0,5,YES,DU,EF
CU570787_BC081384,DU,DI,0.11,NO,0,False,0.01,YES,0,1,0,NO,NO,NO,0,0,5,YES,NO,NO,0,0,5,YES,DU,EF
CR759968_AY646887,DU,DI,0.06,NO,0,False,0.01,YES,0,0.97,0,NO,NO,NO,0,0,5,YES,NO,NO,0,0,5,YES,DU,EF
BX005261_BC050493,DU,DI,0.1,NO,0,False,0.01,YES,0,0.82,0,NO,NO,NO,0,0,5,YES,NO,NO,0,0,5,YES,DU,EF
BC162508_AL627170,DU,DI,0.36,NO,0,False,0.02,YES,0,1,0,NO,YES,YES,0,1,1.9,YES,YES,YES,0.01,0.36,0.43,YES,DU,EF
AY335193_BX537156,DU,DI,0.12,NO,0,False,0.01,YES,0,1,0,NO,NO,NO,0,0,5,YES,NO,NO,0,0,5,YES,DU,EF
BX936336_BC076108,DU,DI,0.05,NO,0,False,0,YES,0,0.74,0.00004,NO,NO,NO,0,0,5,YES,NO,NO,0,0,5,YES,DU,EF
BX936336_BC115144,DU,DI,0.05,NO,0,False,0,YES,0,0.75,0.015,YES,NO,NO,0,0,5,YES,NO,NO,0,0,5,YES,DU,LI
BX936336_BC095122,DU,DI,0.05,NO,0,False,0,YES,0,0.74,0.00004,NO,NO,NO,0,0,5,YES,NO,NO,0,0,5,YES,DU,EF
CABZ01030040_CR936540,DU,DI,0.06,NO,0,False,0.01,YES,0,0.9,0,NO,NO,NO,0,0,5,YES,NO,NO,0,0,5,YES,DU,EF
CABZ01030041_CR936540,DU,DI,0.06,NO,0,False,0.04,YES,0,0.84,0,NO,NO,NO,0,0,5,YES,NO,NO,0,0,5,YES,DU,EF
BX511190_AF321194,DU,DI,0.07,NO,0,False,0.01,YES,0,0.9,0.55,YES,NO,NO,0,0,5,YES,NO,NO,0,0,5,YES,DU,LI
BX511190_AB050496,DU,DI,0.06,NO,0,False,0.01,YES,0,0.9,0.57,YES,NO,NO,0,0,5,YES,NO,NO,0,0,5,YES,DU,LI
BX322577_BC085563,DU,DI,0.11,NO,0,False,0,YES,0,0.97,0,NO,NO,NO,0,0,5,YES,NO,NO,0,0,5,YES,DU,EF
AF424786_BX510366,DU,DI,0,NO,0,False,0,YES,0,0.94,1.1,YES,NO,NO,0,0,5,YES,NO,NO,0,0,5,YES,DU,LI
BC139880_CR628394,DU,DI,0.1,NO,0,False,0.02,YES,0,0.97,0,NO,NO,NO,0,0,5,YES,NO,NO,0,0,5,YES,DU,EF
CU634022_BC090186,DU,DI,0.11,NO,0,False,0.03,YES,0,1,0,NO,NO,NO,0,0,5,YES,NO,NO,0,0,5,YES,DU,EF
U93463_CR751602,DU,DI,0,NO,0,False,0,YES,0,0.96,0,NO,NO,NO,0,0,5,YES,NO,NO,0,0,5,YES,DU,EF
BC044434_AL935145,DU,DI,0.09,NO,0,False,0.01,YES,0,0.82,0,NO,NO,NO,0,0,5,YES,NO,NO,0,0,5,YES,DU,EF
CR936375_BX255879,DU,DI,0.2,NO,0,False,0.14,YES,0,0.78,0,NO,NO,NO,0,0,5,YES,NO,NO,0,0,5,YES,DU,EF
CR936375_BC134890,DU,DI,0.08,NO,0,False,0.07,YES,0,1,0.00002,NO,NO,NO,0,0,5,YES,NO,NO,0,0,5,YES,DU,EF
CR759887_JX291154,DU,DI,0.04,NO,0,False,0.02,YES,0,0.88,0.77,YES,NO,NO,0,0,5,YES,NO,NO,0,0,5,YES,DU,LI
CR759887_JX291155,DU,DI,0.04,NO,0,False,0.02,YES,0,0.88,0.61,YES,NO,NO,0,0,5,YES,NO,NO,0,0,5,YES,DU,LI
CR759887_JX291156,DU,DI,0.04,NO,0,False,0.01,YES,0,0.88,0.55,YES,NO,NO,0,0,5,YES,NO,NO,0,0,5,YES,DU,LI
CR759887_JX291157,DU,DI,0.04,NO,0,False,0.02,YES,0,0.88,0.61,YES,NO,NO,0,0,5,YES,NO,NO,0,0,5,YES,DU,LI
CR759887_HM151006,DU,DI,0.05,NO,0,False,0.02,YES,0,0.88,0.66,YES,NO,NO,0,0,5,YES,NO,NO,0,0,5,YES,DU,LI
CR759887_BC122221,DU,DI,0.11,NO,0,False,0.01,YES,0,0.97,0,NO,NO,NO,0,0,5,YES,NO,NO,0,0,5,YES,DU,EF
AL845306_BC096847,DU,DI,0.08,NO,0,False,0.01,YES,0,0.97,0,NO,NO,NO,0,0,5,YES,NO,NO,0,0,5,YES,DU,EF
AL845306_BC053297,DU,DI,0.09,NO,0,False,0.01,YES,0,0.96,0,NO,NO,NO,0,0,5,YES,NO,NO,0,0,5,YES,DU,EF
AL591593_BC109473,DU,DI,0.06,NO,0,False,0.01,YES,0,1,0,NO,YES,YES,0,0.86,0.71,YES,YES,YES,0.02,0.35,0.79,YES,DU,EF
AL591593_BC107845,DU,DI,0.03,NO,0,False,0.01,YES,0,0.95,0,NO,YES,YES,0,0.89,0.13,YES,YES,YES,0.02,0.5,5.3,YES,DU,EF
AL591593_AL672166,DU,DI,0.23,NO,0,True,0.62,YES,0.01,0.79,0,NO,YES,YES,0,1,2.9,YES,YES,YES,0.03,0.3,0.4,YES,DU,EF
BC071485_BX465225,DU,DI,0.11,NO,0,False,0.01,YES,0,1,0,NO,NO,NO,0,0,5,YES,NO,NO,0,0,5,YES,DU,EF
BX005210_BC076190,DU,DI,0.11,NO,0,False,0.01,YES,0,1,0.0001,NO,NO,NO,0,0,5,YES,NO,NO,0,0,5,YES,DU,EF
BX901896_BC077079,DU,DI,0.09,NO,0,False,0.01,YES,0,0.92,0,NO,NO,NO,0,0,5,YES,NO,NO,0,0,5,YES,DU,EF
BC067154_CR457457,DU,DI,0.05,NO,0,False,0.04,YES,0,0.78,0.00004,NO,NO,NO,0,0,5,YES,NO,NO,0,0,5,YES,DU,EF
BX088688_AY833405,DU,DI,0,NO,0,False,0.01,YES,0,0.94,2.5,YES,NO,NO,0,0,5,YES,NO,NO,0,0,5,YES,DU,LI
BC053195_BX004983,DU,DI,0.09,NO,0,False,0.01,YES,0,0.96,0,NO,NO,NO,0,0,5,YES,NO,NO,0,0,5,YES,DU,EF
BX119923_BC081393,DU,DI,0.11,NO,0,False,0.01,YES,0,1,0,NO,NO,NO,0,0,5,YES,NO,NO,0,0,5,YES,DU,EF
AF443870_BX510366,DU,DI,0,NO,0,False,0,YES,0,0.95,0.003,YES,NO,NO,0,0,5,YES,NO,NO,0,0,5,YES,DU,LI
AF068771_BC065359,DU,DI,0.05,YES,0,False,0.57,YES,0,1,1.5,YES,YES,YES,0.01,0.88,0.36,YES,YES,YES,0.01,0.33,0.81,YES,DU,LI
AF068771_L35587,DU,DI,0.07,YES,0,False,0.07,YES,0,1,0.59,YES,YES,YES,0.01,1,0.17,YES,YES,YES,0.01,0.5,1.5,YES,DU,LI
CU138549_BC124642,DU,DI,0.11,NO,0,False,0.01,YES,0,0.97,0,NO,NO,NO,0,0,5,YES,NO,NO,0,0,5,YES,DU,EF
BX323451_BC044534,DU,DI,0.05,NO,0,False,0.01,YES,0,0.97,0,NO,YES,YES,0,0.89,0.36,YES,YES,YES,0,0.35,0.78,YES,DU,EF
AL935131_U89515,DU,DI,0.07,NO,0,False,0.01,YES,0,1,0,NO,YES,YES,0,1,0.45,YES,YES,YES,0.01,0.4,0.19,YES,DU,EF
AF091593_BX465184,DU,DI,0,NO,0,False,0.01,YES,0,0.74,0,NO,NO,NO,0,0,5,YES,NO,NO,0,0,5,YES,DU,EF
CR751234_BC055626,DU,DI,0.09,NO,0,False,0.01,YES,0,0.94,0,NO,NO,NO,0,0,5,YES,NO,NO,0,0,5,YES,DU,EF
Y13945_DQ060536,DU,DI,0.3,YES,0,False,0.4,YES,0.02,0.93,0.02,YES,YES,YES,0.02,0.93,0.019,YES,YES,YES,0.02,0.31,0.073,YES,DU,LI
BX510907_AB630366,DU,DI,0.06,NO,0,False,0.6,YES,0,0.83,1,YES,NO,NO,0,0,5,YES,NO,NO,0,0,5,YES,DU,LI
BX649444_BC085429,DU,DI,0.11,NO,0,False,0.02,YES,0,0.97,0,NO,NO,NO,0,0,5,YES,NO,NO,0,0,5,YES,DU,EF
BC056552_AL845366,DU,DI,0.12,NO,0,False,0.01,YES,0,1,0,NO,NO,NO,0,0,5,YES,NO,NO,0,0,5,YES,DU,EF
BC091876_BX323467,DU,DI,0.11,NO,0,False,0.02,YES,0,0.88,0.0001,NO,NO,NO,0,0,5,YES,NO,NO,0,0,5,YES,DU,EF
L35586_CR381646,DU,DI,0,NO,0,False,0,YES,0,0.96,0,NO,NO,NO,0,0,5,YES,NO,NO,0,0,5,YES,DU,EF
BC127405_BX470068,DU,DI,0.11,NO,0,False,0.01,YES,0,1,0,NO,NO,NO,0,0,5,YES,NO,NO,0,0,5,YES,DU,EF
BC127405_FP102309,DU,DI,0.11,NO,0,False,0.02,YES,0,1,0,NO,NO,NO,0,0,5,YES,NO,NO,0,0,5,YES,DU,EF
CR382323_BX005029,DU,DI,0.28,NO,0,False,0.9,YES,0.01,1,0,NO,YES,YES,0.01,0.82,0,NO,YES,YES,0.01,0.27,1.2,YES,DU,EF
CR377211_BC092837,DU,DI,0.11,NO,0,False,0.01,YES,0,0.96,0,NO,NO,NO,0,0,5,YES,NO,NO,0,0,5,YES,DU,EF
BX005029_AL929590,DU,DI,0.23,NO,0,False,0.79,YES,0.01,1,0,NO,YES,YES,0.01,0.95,0,NO,YES,YES,0.01,0.29,1.5,YES,DU,EF
BC081379_AL772163,DU,DI,0.08,NO,0,False,0.05,YES,0,1,0.0002,NO,NO,NO,0,0,5,YES,NO,NO,0,0,5,YES,DU,EF
BX323467_BC129285,DU,DI,0.1,NO,0,False,0.01,YES,0,0.92,0.0002,NO,NO,NO,0,0,5,YES,NO,NO,0,0,5,YES,DU,EF
BC045298_AL935145,DU,DI,0.09,NO,0,False,0.01,YES,0,0.85,0,NO,NO,NO,0,0,5,YES,NO,NO,0,0,5,YES,DU,EF
BC059427_AL935145,DU,DI,0.09,NO,0,False,0.01,YES,0,0.82,0,NO,NO,NO,0,0,5,YES,NO,NO,0,0,5,YES,DU,EF
BX649476_AF067202,DU,DI,0.06,NO,0,False,0.01,YES,0,0.97,0,NO,NO,NO,0,0,5,YES,NO,NO,0,0,5,YES,DU,EF
BX284619_BC108066,DU,DI,0.11,NO,0,False,0.01,YES,0,0.97,0,NO,NO,NO,0,0,5,YES,NO,NO,0,0,5,YES,DU,EF
DQ524846_BX957279,DU,DI,0.07,NO,0,False,0.01,YES,0,0.97,0,NO,NO,NO,0,0,5,YES,NO,NO,0,0,5,YES,DU,EF
CR382334_U93487,DU,DI,0,NO,0,False,0,YES,0,1,0.15,YES,NO,NO,0,0,5,YES,NO,NO,0,0,5,YES,DU,LI
CR382334_AF302242,DU,DI,0,NO,0,False,0.01,YES,0,0.89,1.1,YES,NO,NO,0,0,5,YES,NO,NO,0,0,5,YES,DU,LI
CU076107_BC134890,DU,DI,0.08,NO,0,False,0.04,YES,0,0.95,0.001,YES,NO,NO,0,0,5,YES,NO,NO,0,0,5,YES,DU,LI
AL929190_BC152243,DU,DI,0.1,NO,0,False,0.01,YES,0,0.97,0,NO,NO,NO,0,0,5,YES,NO,NO,0,0,5,YES,DU,EF
AL929190_BC122319,DU,DI,0.1,NO,0,False,0.01,YES,0,0.97,0,NO,NO,NO,0,0,5,YES,NO,NO,0,0,5,YES,DU,EF
CU468254_CABZ01076009,DU,DI,0.06,NO,0,False,0.12,YES,0.01,0.9,0,NO,NO,NO,0,0,5,YES,NO,NO,0,0,5,YES,DU,EF
Y14534_DQ060549,DU,DI,0.3,YES,0,False,0.78,YES,0.02,1,0.63,YES,YES,YES,0.03,1,0.4,YES,YES,YES,0.05,0.31,4.3,YES,DU,LI
AY648769_BX571960,DU,DI,0.11,NO,0,False,0.01,YES,0,1,0,NO,NO,NO,0,0,5,YES,NO,NO,0,0,5,YES,DU,EF
CU915569_CABZ01076009,DU,DI,0.06,NO,0,False,0.53,YES,0.01,0.84,0,NO,NO,NO,0,0,5,YES,NO,NO,0,0,5,YES,DU,EF
BX088533_BC068328,DU,DI,0.08,NO,0,False,0.01,YES,0,0.95,0,NO,YES,YES,0,0.89,0.8,YES,YES,NO,0,0,5,YES,DU,EF
BX901962_BC076552,DU,DI,0.11,NO,0,False,0.02,YES,0,1,0,NO,NO,NO,0,0,5,YES,NO,NO,0,0,5,YES,DU,EF
BC049339_BX470167,DU,DI,0.11,NO,0,False,0.01,YES,0,0.97,0,NO,NO,NO,0,0,5,YES,NO,NO,0,0,5,YES,DU,EF
BX908400_JX291155,DU,DI,0.04,NO,0,False,0.02,YES,0,1,0.39,YES,NO,NO,0,0,5,YES,NO,NO,0,0,5,YES,DU,LI
BX908400_JX291156,DU,DI,0.04,NO,0,False,0.02,YES,0,1,0.35,YES,NO,NO,0,0,5,YES,NO,NO,0,0,5,YES,DU,LI
BX908400_JX291157,DU,DI,0.04,NO,0,False,0.02,YES,0,1,0.39,YES,NO,NO,0,0,5,YES,NO,NO,0,0,5,YES,DU,LI
BX248242_BX088688,DU,DI,0.25,NO,0,False,0.58,YES,0,0.85,0,NO,NO,NO,0,0,5,YES,NO,NO,0,0,5,YES,DU,EF
BC045918_AF191562,DU,DI,0.37,YES,0,False,0.99,YES,0.01,0.94,0.27,YES,YES,YES,0.01,0.93,0.47,YES,YES,YES,0.02,0.27,0.66,YES,DU,LI
BC045918_CR749763,DU,DI,0.09,NO,0,False,0.02,YES,0,1,0.0006,NO,NO,NO,0,0,5,YES,NO,NO,0,0,5,YES,DU,EF
BX649467_BC109416,DU,DI,0.11,NO,0,False,0.02,YES,0,1,0,NO,NO,NO,0,0,5,YES,NO,NO,0,0,5,YES,DU,EF
BX649264_BC135054,DU,DI,0.11,NO,0,False,0.01,YES,0,1,0.0004,NO,NO,NO,0,0,5,YES,NO,NO,0,0,5,YES,DU,EF
AL672211_AY078361,DU,DI,0.07,NO,0,False,0.04,YES,0.04,0.99,0,NO,YES,YES,0.01,1,0.1,YES,YES,YES,0.04,0.22,0.58,YES,DU,EF
AY394945_BX510992,DU,DI,0.1,NO,0,False,0.01,YES,0,0.97,0,NO,NO,NO,0,0,5,YES,NO,NO,0,0,5,YES,DU,EF
BX548163_BC129432,DU,DI,0.05,NO,0,False,0.01,YES,0,0.92,0.003,YES,NO,NO,0,0,5,YES,NO,NO,0,0,5,YES,DU,LI
BX323062_EF030482,DU,DI,0.06,NO,0,False,0.01,YES,0,0.84,0.003,YES,NO,NO,0,0,5,YES,NO,NO,0,0,5,YES,DU,LI
BX323062_BC129226,DU,DI,0.11,NO,0,False,0.01,YES,0,1,0,NO,NO,NO,0,0,5,YES,NO,NO,0,0,5,YES,DU,EF
BC068339_AL935145,DU,DI,0.09,NO,0,False,0.01,YES,0,0.82,0,NO,NO,NO,0,0,5,YES,NO,NO,0,0,5,YES,DU,EF
BX004966_BC124674,DU,DI,0.11,NO,0,False,0.01,YES,0,0.85,0,NO,NO,NO,0,0,5,YES,NO,NO,0,0,5,YES,DU,EF
BC065877_BX005261,DU,DI,0.11,NO,0,False,0.01,YES,0,0.84,0,NO,NO,NO,0,0,5,YES,NO,NO,0,0,5,YES,DU,EF
AL954384_BC086810,DU,DI,0.09,NO,0,False,0.01,YES,0,0.97,0,NO,NO,NO,0,0,5,YES,NO,NO,0,0,5,YES,DU,EF
CT737125_BC092858,DU,DI,0.11,NO,0,False,0.01,YES,0,0.94,0,NO,NO,NO,0,0,5,YES,NO,NO,0,0,5,YES,DU,EF
BC059618_CABZ01076172,DU,DI,0.08,YES,0,False,0.68,YES,0.01,0.82,0.31,YES,NO,NO,0,0,5,YES,NO,NO,0,0,5,YES,DU,LI
BC066752_AL935145,DU,DI,0.09,NO,0,False,0.01,YES,0,0.81,0,NO,NO,NO,0,0,5,YES,NO,NO,0,0,5,YES,DU,EF
Y14547_DQ069273,DU,DI,0.5,YES,0,False,0.99,YES,0.02,1,0.8,YES,YES,YES,0.02,1,0.53,YES,YES,NO,0,0,5,YES,DU,LI
CR376863_BC152130,DU,DI,0.1,NO,0,False,0,YES,0,0.96,0,NO,NO,NO,0,0,5,YES,NO,NO,0,0,5,YES,DU,EF
CR376863_BC092949,DU,DI,0.11,NO,0,False,0.01,YES,0,0.96,0,NO,NO,NO,0,0,5,YES,NO,NO,0,0,5,YES,DU,EF
BX928742_BC061955,DU,DI,0.09,NO,0,False,0.02,YES,0,0.93,0,NO,NO,NO,0,0,5,YES,NO,NO,0,0,5,YES,DU,EF
BX928742_BC066543,DU,DI,0.09,NO,0,False,0.02,YES,0,0.93,0,NO,NO,NO,0,0,5,YES,NO,NO,0,0,5,YES,DU,EF
AF013751_AF013752,DU,DI,0.45,YES,0,True,0.2,YES,0,1,1.7,YES,YES,YES,0,1,1.1,YES,YES,YES,0.04,0.3,0.0001,NO,DU,LI
AL672176_U93483,DU,DI,0.02,NO,0,False,0,YES,0,0.86,0.009,YES,YES,YES,0.01,0.82,0.041,YES,YES,YES,0.02,1,2.5,YES,DU,LI
AY166826_CR933018,DU,DI,0,NO,0,False,0.1,YES,0,0.94,0.42,YES,NO,NO,0,0,5,YES,NO,NO,0,0,5,YES,DU,LI
BC128660_CT027751,DU,DI,0.11,NO,0,False,0.02,YES,0,1,0,NO,NO,NO,0,0,5,YES,NO,NO,0,0,5,YES,DU,EF
BX927163_U93487,DU,DI,0,NO,0,False,0,YES,0,0.95,0,NO,NO,NO,0,0,5,YES,NO,NO,0,0,5,YES,DU,EF
U51403_Y14542,DU,DI,0.3,YES,0,False,0.56,YES,0.02,0.86,1.3,YES,YES,YES,0.02,0.86,0.52,YES,YES,NO,0,0,5,YES,DU,LI
EB935770_BX510940,DU,DI,0.13,NO,0,N/A,0,YES,0,1,0,NO,NO,NO,0,0,5,YES,NO,NO,0,0,5,YES,DU,EF
BC090186_FP089511,DU,DI,0.11,NO,0,False,0.02,YES,0,1,0,NO,NO,NO,0,0,5,YES,NO,NO,0,0,5,YES,DU,EF
Y14543_DQ069272,DU,DI,0.5,YES,0,False,0.78,YES,0.02,1,0.62,YES,YES,YES,0.04,0.92,0.24,YES,YES,YES,0.04,0.67,3,YES,DU,LI
Y14544_DQ060555,DU,DI,0.3,YES,0,False,0.79,YES,0.03,0.86,0.62,YES,YES,YES,0.04,0.86,0.34,YES,YES,YES,0.03,0.75,2.3,YES,DU,LI
BX322661_Y14542,DU,DI,0,NO,0,False,0,YES,0,0.97,0,NO,NO,NO,0,0,5,YES,NO,NO,0,0,5,YES,DU,EF
BC075899_CU138502,DU,DI,0.11,NO,0,False,0.01,YES,0,1,0,NO,NO,NO,0,0,5,YES,NO,NO,0,0,5,YES,DU,EF
BX510992_BC097010,DU,DI,0.1,NO,0,False,0.01,YES,0,1,0.00005,NO,NO,NO,0,0,5,YES,NO,NO,0,0,5,YES,DU,EF
CABZ01071838_JQ653419,DU,DI,0.14,YES,0,False,0.59,YES,0.01,0.84,0.13,YES,NO,NO,0,0,5,YES,NO,NO,0,0,5,YES,DU,LI
BC115047_BX649347,DU,DI,0.11,NO,0,False,0.01,YES,0,0.95,0,NO,NO,NO,0,0,5,YES,NO,NO,0,0,5,YES,DU,EF
BC135101_CR361548,DU,DI,0.05,NO,0,False,0.02,YES,0,0.78,0.099,YES,NO,NO,0,0,5,YES,NO,NO,0,0,5,YES,DU,LI
BX890617_U93483,DU,DI,0.02,NO,0,False,0,YES,0,0.9,0,NO,YES,YES,0,0.74,0.042,YES,YES,NO,0,0,5,YES,DU,EF
AL807244_BC083532,DU,DI,0.07,NO,0,False,0.01,YES,0,0.97,0,NO,NO,NO,0,0,5,YES,NO,NO,0,0,5,YES,DU,EF
AL953887_BC083517,DU,DI,0.11,NO,0,False,0.01,YES,0,0.93,0,NO,NO,NO,0,0,5,YES,NO,NO,0,0,5,YES,DU,EF
AL953887_BC097228,DU,DI,0.05,NO,0,False,0,YES,0,0.97,0,NO,NO,NO,0,0,5,YES,NO,NO,0,0,5,YES,DU,EF
BX572627_BC076092,DU,DI,0.09,NO,0,False,0,YES,0,0.97,0,NO,NO,NO,0,0,5,YES,NO,NO,0,0,5,YES,DU,EF
CABZ01086767_KC996731,DU,DI,0.14,YES,0,False,0.26,YES,0,1,0,NO,NO,NO,0,0,5,YES,NO,NO,0,0,5,YES,DU,EF
CU855800_BC097107,DU,DI,0.08,NO,0,False,0.29,YES,0,0.77,0.0005,NO,NO,NO,0,0,5,YES,NO,NO,0,0,5,YES,DU,EF
X58880_X58881,DU,DI,0.71,YES,0.5,True,0.11,YES,0.01,0.92,0.83,YES,NO,NO,0,0,5,YES,NO,NO,0,0,5,YES,DU,LI
AL935145_BC097062,DU,DI,0.1,NO,0,False,0,YES,0,0.85,0,NO,NO,NO,0,0,5,YES,NO,NO,0,0,5,YES,DU,EF
AL935145_BC054600,DU,DI,0.09,NO,0,False,0.01,YES,0,0.85,0,NO,NO,NO,0,0,5,YES,NO,NO,0,0,5,YES,DU,EF
AL935145_BC053150,DU,DI,0.1,NO,0,False,0.01,YES,0,0.85,0,NO,NO,NO,0,0,5,YES,NO,NO,0,0,5,YES,DU,EF
BX681417_BC059430,DU,DI,0.14,NO,0,False,0.01,YES,0,1,0,NO,NO,NO,0,0,5,YES,NO,NO,0,0,5,YES,DU,EF
CR936464_EU380770,DU,DI,0.06,NO,0,False,0.1,YES,0,1,0.38,YES,NO,NO,0,0,5,YES,NO,NO,0,0,5,YES,DU,LI
CABZ01061337_BX511173,DU,DI,0.06,NO,0,False,0.03,YES,0,0.72,0,NO,NO,NO,0,0,5,YES,NO,NO,0,0,5,YES,DU,EF
BC135054_BX649299,DU,DI,0.11,NO,0,False,0.01,YES,0,0.92,0.004,YES,NO,NO,0,0,5,YES,NO,NO,0,0,5,YES,DU,LI
BX279523_BC078435,DU,DI,0.11,NO,0,False,0.01,YES,0,1,0,NO,NO,NO,0,0,5,YES,NO,NO,0,0,5,YES,DU,EF
BC071404_AL935145,DU,DI,0.09,NO,0,False,0.01,YES,0,0.85,0,NO,NO,NO,0,0,5,YES,NO,NO,0,0,5,YES,DU,EF
CR792454_BC076190,DU,DI,0.11,NO,0,False,0.01,YES,0,1,0,NO,NO,NO,0,0,5,YES,NO,NO,0,0,5,YES,DU,EF
BX255951_AY157571,DU,DI,0.05,NO,0,False,0,YES,0,0.71,0,NO,NO,NO,0,0,5,YES,NO,NO,0,0,5,YES,DU,EF
BX255951_AY157567,DU,DI,0.05,NO,0,False,0.01,YES,0,0.71,0,NO,NO,NO,0,0,5,YES,NO,NO,0,0,5,YES,DU,EF
BX255951_AY157565,DU,DI,0.05,NO,0,False,0,YES,0,0.71,0,NO,NO,NO,0,0,5,YES,NO,NO,0,0,5,YES,DU,EF
BX255951_AY157568,DU,DI,0.05,NO,0,False,0,YES,0,0.71,0,NO,NO,NO,0,0,5,YES,NO,NO,0,0,5,YES,DU,EF
BX255951_AY157569,DU,DI,0.05,NO,0,False,0,YES,0,0.71,0,NO,NO,NO,0,0,5,YES,NO,NO,0,0,5,YES,DU,EF
BX255951_AY157570,DU,DI,0.05,NO,0,False,0,YES,0,0.71,0,NO,NO,NO,0,0,5,YES,NO,NO,0,0,5,YES,DU,EF
CABZ01030039_CR936540,DU,DI,0.06,NO,0,False,0.25,YES,0,0.86,0,NO,NO,NO,0,0,5,YES,NO,NO,0,0,5,YES,DU,EF
CABZ01030038_CR936540,DU,DI,0.06,NO,0,False,0.07,YES,0,0.81,0,NO,NO,NO,0,0,5,YES,NO,NO,0,0,5,YES,DU,EF
BX322637_AL772198,DU,DI,0.41,NO,0,False,0.84,YES,0.01,1,0,NO,YES,YES,0,0.9,0,NO,YES,YES,0.01,0.27,2.9,YES,DU,EF
BX465225_AY398355,DU,DI,0.12,NO,0,False,0.01,YES,0,1,0,NO,NO,NO,0,0,5,YES,NO,NO,0,0,5,YES,DU,EF
BC124770_BX927210,DU,DI,0.11,NO,0,False,0.01,YES,0,1,0,NO,NO,NO,0,0,5,YES,NO,NO,0,0,5,YES,DU,EF
BX936461_AY398347,DU,DI,0.12,NO,0,False,0.01,YES,0,0.97,0,NO,NO,NO,0,0,5,YES,NO,NO,0,0,5,YES,DU,EF
AY648713_FP360035,DU,DI,0.07,NO,0,False,0.03,YES,0,0.88,0.18,YES,NO,NO,0,0,5,YES,NO,NO,0,0,5,YES,DU,LI
BX927241_BC124652,DU,DI,0.1,NO,0,False,0.27,YES,0.01,0.89,0,NO,NO,NO,0,0,5,YES,NO,NO,0,0,5,YES,DU,EF
CT563248_BC093167,DU,DI,0.05,NO,0,False,0.09,YES,0,1,0.006,YES,NO,NO,0,0,5,YES,NO,NO,0,0,5,YES,DU,LI
FP017289_CABZ01068106,DU,DI,0.06,NO,0,False,0.41,YES,0.01,0.96,0,NO,NO,NO,0,0,5,YES,NO,NO,0,0,5,YES,DU,EF
FP017289_CABZ01109567,DU,DI,0.06,NO,0,False,0.51,YES,0.01,0.95,0,NO,NO,NO,0,0,5,YES,NO,NO,0,0,5,YES,DU,EF
BC097244_BX005121,DU,DI,0.11,NO,0,False,0.01,YES,0,1,0,NO,NO,NO,0,0,5,YES,NO,NO,0,0,5,YES,DU,EF
AL954746_BC122136,DU,DI,0.11,NO,0,False,0.01,YES,0,1,0,NO,NO,NO,0,0,5,YES,NO,NO,0,0,5,YES,DU,EF
U93479_BX546466,DU,DI,0,NO,0,False,0,YES,0,0.83,1.1,YES,NO,NO,0,0,5,YES,NO,NO,0,0,5,YES,DU,LI
AL929434_BC090314,DI,DU,0.07,NO,0,False,0.02,YES,0,1,0.000001,NO,NO,NO,0,0,5,YES,NO,NO,0,0,5,YES,DI,DI
BC163563_BX548157,DI,DU,0.08,NO,0,False,0.02,YES,0,1,0.000003,NO,NO,NO,0,0,5,YES,NO,NO,0,0,5,YES,DI,DI
BX936317_BC077079,DI,DU,0.09,NO,0,False,0.01,YES,0,1,0,NO,NO,NO,0,0,5,YES,NO,NO,0,0,5,YES,DI,DI
BX548071_BC067373,DI,DU,0.09,NO,0,False,0.01,YES,0,1,0,NO,NO,NO,0,0,5,YES,NO,NO,0,0,5,YES,DI,DI
BX323550_BC055535,DI,DU,0.08,NO,0,False,0.01,YES,0,1,0,NO,NO,NO,0,0,5,YES,NO,NO,0,0,5,YES,DI,DI
BC124392_BX927289,DI,DU,0.09,NO,0,False,0.01,YES,0,1,0,NO,NO,NO,0,0,5,YES,NO,NO,0,0,5,YES,DI,DI
CR391936_BC124507,DI,DU,0.08,NO,0,False,0.03,YES,0,1,0.000002,NO,NO,NO,0,0,5,YES,NO,NO,0,0,5,YES,DI,DI
BC066667_BX001023,DI,DU,0.1,NO,0,False,0.01,YES,0,1,0,NO,NO,NO,0,0,5,YES,NO,NO,0,0,5,YES,DI,DI
BC065854_BX470207,DI,DU,0.08,NO,0,False,0.03,YES,0,1,0,NO,NO,NO,0,0,5,YES,NO,NO,0,0,5,YES,DI,DI
BC055235_CR854915,DI,DU,0.09,NO,0,False,0.04,YES,0,1,0.00001,NO,NO,NO,0,0,5,YES,NO,NO,0,0,5,YES,DI,DI
BC058300_CR925716,DI,DU,0.04,NO,0,False,0.01,YES,0,1,0,NO,NO,NO,0,0,5,YES,NO,NO,0,0,5,YES,DI,DI
BX510324_BC115186,DI,DU,0.08,NO,0,False,0.01,YES,0,1,0.000001,NO,NO,NO,0,0,5,YES,NO,NO,0,0,5,YES,DI,DI
CABZ01071110_CABZ01076171,DI,DU,0.82,YES,0.5,True,0.44,YES,0.01,0.72,0,NO,NO,NO,0,0,5,YES,NO,NO,0,0,5,YES,DI,DI
CABZ01071110_AY064213,DI,DU,0.14,YES,0,False,0.3,YES,0,1,0.099,YES,NO,NO,0,0,5,YES,NO,NO,0,0,5,YES,DI,DI
BX465864_AF157110,DI,DU,0,NO,0,False,0.01,YES,0,1,0,NO,NO,NO,0,0,5,YES,NO,NO,0,0,5,YES,DI,DI
Y12236_BX119918,DI,DU,0,NO,0,False,0.01,YES,0,1,0.000001,NO,NO,NO,0,0,5,YES,NO,NO,0,0,5,YES,DI,DI
Y12236_BX908747,DI,DU,0,NO,0,False,0,YES,0,1,0.000002,NO,NO,NO,0,0,5,YES,NO,NO,0,0,5,YES,DI,DI
BC083169_BX470207,DI,DU,0.09,NO,0,False,0.02,YES,0,1,0.00001,NO,NO,NO,0,0,5,YES,NO,NO,0,0,5,YES,DI,DI
BC065312_AL928920,DI,DU,0.09,NO,0,False,0.01,YES,0,1,0.000001,NO,NO,NO,0,0,5,YES,NO,NO,0,0,5,YES,DI,DI
BX247868_AY884208,DI,DU,0.07,NO,0,False,0.01,YES,0,1,0,NO,NO,NO,0,0,5,YES,NO,NO,0,0,5,YES,DI,DI
AY513131_BX890572,DI,DU,0.06,NO,0,False,0.02,YES,0,1,0.000006,NO,NO,NO,0,0,5,YES,NO,NO,0,0,5,YES,DI,DI
BC162766_BC153516,DI,DU,0.67,YES,0.5,True,0.85,YES,0.04,0.79,0.004,YES,YES,YES,0.04,1,0.84,YES,YES,YES,0.07,0.42,1.2,YES,DI,DI
BC078188_BX248136,DI,DU,0.04,NO,0,False,0.01,YES,0,1,0,NO,NO,NO,0,0,5,YES,NO,NO,0,0,5,YES,DI,DI
BX936330_BC054600,DI,DU,0.09,NO,0,False,0.02,YES,0,1,0,NO,NO,NO,0,0,5,YES,NO,NO,0,0,5,YES,DI,DI
CABZ01030042_BC134194,DI,DU,0.08,YES,0,False,0.08,YES,0.01,0.75,0,NO,NO,NO,0,0,5,YES,NO,NO,0,0,5,YES,DI,DI
CABZ01030042_U50382,DI,DU,0.13,NO,0,False,0.07,YES,0,0.98,0,NO,NO,NO,0,0,5,YES,NO,NO,0,0,5,YES,DI,DI
BC066544_BX897719,DI,DU,0.1,NO,0,False,0.01,YES,0,1,0,NO,NO,NO,0,0,5,YES,NO,NO,0,0,5,YES,DI,DI
BC133965_CU013549,DI,DU,0.1,NO,0,False,0.02,YES,0,1,0,NO,NO,NO,0,0,5,YES,NO,NO,0,0,5,YES,DI,DI
BC154300_CR450788,DI,DU,0.1,NO,0,False,0.01,YES,0,1,0,NO,NO,NO,0,0,5,YES,NO,NO,0,0,5,YES,DI,DI
BX548053_BC068398,DI,DU,0.11,NO,0,False,0.01,YES,0,0.98,0,NO,NO,NO,0,0,5,YES,NO,NO,0,0,5,YES,DI,DI
BX908722_BC059699,DI,DU,0.09,NO,0,False,0,YES,0,1,0,NO,NO,NO,0,0,5,YES,NO,NO,0,0,5,YES,DI,DI
AF414111_CR388090,DI,DU,0.06,NO,0,False,0.05,YES,0,0.98,0,NO,NO,NO,0,0,5,YES,NO,NO,0,0,5,YES,DI,DI
BC129207_BX005252,DI,DU,0.1,NO,0,False,0.01,YES,0,1,0,NO,NO,NO,0,0,5,YES,NO,NO,0,0,5,YES,DI,DI
BC153556_BX004971,DI,DU,0.1,NO,0,False,0.01,YES,0,1,0.000003,NO,NO,NO,0,0,5,YES,NO,NO,0,0,5,YES,DI,DI
BC124515_BX005254,DI,DU,0.05,NO,0,False,0.01,YES,0,1,0,NO,NO,NO,0,0,5,YES,NO,NO,0,0,5,YES,DI,DI
BX957279_BC055630,DI,DU,0.11,NO,0,False,0,YES,0,0.98,0,NO,NO,NO,0,0,5,YES,NO,NO,0,0,5,YES,DI,DI
CT033837_BC056695,DI,DU,0.1,NO,0,False,0.02,YES,0,1,0,NO,NO,NO,0,0,5,YES,NO,NO,0,0,5,YES,DI,DI
CT033837_U51268,DI,DU,0.07,NO,0,False,0.03,YES,0,1,0.000004,NO,NO,NO,0,0,5,YES,NO,NO,0,0,5,YES,DI,DI
BC071480_BX649644,DI,DU,0.09,NO,0,False,0.01,YES,0,1,0,NO,NO,NO,0,0,5,YES,NO,NO,0,0,5,YES,DI,DI
BX936438_CR293511,DI,DU,0.8,NO,0,False,0.95,YES,0,0.82,0,NO,NO,NO,0,0,5,YES,NO,NO,0,0,5,YES,DI,DI
BC115186_CR450804,DI,DU,0.08,NO,0,False,0.01,YES,0,1,0,NO,NO,NO,0,0,5,YES,NO,NO,0,0,5,YES,DI,DI
BX890562_BC134890,DI,DU,0.08,NO,0,False,0.01,YES,0,1,0,NO,NO,NO,0,0,5,YES,NO,NO,0,0,5,YES,DI,DI
BX890565_BC051619,DI,DU,0.09,NO,0,False,0.02,YES,0,1,0.000001,NO,NO,NO,0,0,5,YES,NO,NO,0,0,5,YES,DI,DI
BX890565_BC090512,DI,DU,0.06,NO,0,False,0.01,YES,0,1,0.000001,NO,NO,NO,0,0,5,YES,NO,NO,0,0,5,YES,DI,DI
BX901896_CR318632,DI,DU,0.8,NO,0,False,0.7,YES,0,0.84,0,NO,NO,NO,0,0,5,YES,NO,NO,0,0,5,YES,DI,DI
BX901896_BC057248,DI,DU,0.08,NO,0,False,0.02,YES,0,1,0,NO,NO,NO,0,0,5,YES,NO,NO,0,0,5,YES,DI,DI
BC095378_BX323586,DI,DU,0.09,NO,0,False,0.01,YES,0,1,0,NO,NO,NO,0,0,5,YES,NO,NO,0,0,5,YES,DI,DI
BC065592_BX897685,DI,DU,0.1,NO,0,False,0.01,YES,0,1,0.000001,NO,NO,NO,0,0,5,YES,NO,NO,0,0,5,YES,DI,DI
BC056557_BX649350,DI,DU,0.05,NO,0,False,0.03,YES,0,1,0,NO,NO,NO,0,0,5,YES,NO,NO,0,0,5,YES,DI,DI
BC056559_CU929184,DI,DU,0.1,NO,0,False,0.07,YES,0,1,0.000007,NO,NO,NO,0,0,5,YES,NO,NO,0,0,5,YES,DI,DI
BC162416_DQ069273,DI,DU,0.25,YES,0,False,0.99,YES,0.04,0.84,0.066,YES,YES,YES,0.04,0.84,0.03,YES,YES,YES,0.05,0.46,1.1,YES,DI,DI
CT027987_BX572627,DI,DU,0.8,NO,0,False,0.85,YES,0.01,0.88,0,NO,NO,NO,0,0,5,YES,NO,NO,0,0,5,YES,DI,DI
BC125938_CR790380,DI,DU,0.11,NO,0,False,0.01,YES,0,0.99,0,NO,NO,NO,0,0,5,YES,NO,NO,0,0,5,YES,DI,DI
AB088068_CU207239,DI,DU,0.08,NO,0,False,0.03,YES,0,0.99,0,NO,NO,NO,0,0,5,YES,NO,NO,0,0,5,YES,DI,DI
BX323861_BC092181,DI,DU,0.05,NO,0,False,0.02,YES,0,1,0,NO,NO,NO,0,0,5,YES,NO,NO,0,0,5,YES,DI,DI
BX908398_AF146429,DI,DU,0.07,NO,0,False,0.03,YES,0,1,0,NO,NO,NO,0,0,5,YES,NO,NO,0,0,5,YES,DI,DI
BX908398_BC085551,DI,DU,0.1,NO,0,False,0.01,YES,0,1,0,NO,NO,NO,0,0,5,YES,NO,NO,0,0,5,YES,DI,DI
BX470070_BC055174,DI,DU,0.08,NO,0,False,0.01,YES,0,1,0.000001,NO,NO,NO,0,0,5,YES,NO,NO,0,0,5,YES,DI,DI
BC046037_BX511005,DI,DU,0.08,NO,0,False,0.01,YES,0,0.98,0,NO,NO,NO,0,0,5,YES,NO,NO,0,0,5,YES,DI,DI
BC133072_BX901918,DI,DU,0.08,NO,0,False,0.02,YES,0,1,0,NO,NO,NO,0,0,5,YES,NO,NO,0,0,5,YES,DI,DI
DQ524846_BX649644,DI,DU,0.07,NO,0,False,0.01,YES,0,1,0,NO,NO,NO,0,0,5,YES,NO,NO,0,0,5,YES,DI,DI
BX571830_BX255894,DI,DU,0.8,NO,0,False,0.79,YES,0.01,0.88,0,NO,NO,NO,0,0,5,YES,NO,NO,0,0,5,YES,DI,DI
AL954357_CT025875,DI,DU,0.8,NO,0,False,0.88,YES,0.01,0.91,0,NO,NO,NO,0,0,5,YES,NO,NO,0,0,5,YES,DI,DI
BC124742_CR376863,DI,DU,0.1,NO,0,False,0.01,YES,0,1,0,NO,NO,NO,0,0,5,YES,NO,NO,0,0,5,YES,DI,DI
U51421_X87751,DI,DU,0.1,YES,0,False,0.33,YES,0.16,0.68,0,NO,YES,YES,0.16,0.68,0,NO,YES,YES,0.17,0.56,0,NO,DI,DI
BC049467_CR405685,DI,DU,0.09,NO,0,False,0.02,YES,0,1,0.000001,NO,NO,NO,0,0,5,YES,NO,NO,0,0,5,YES,DI,DI
AL929344_CABZ01088541,DI,DU,0.06,NO,0,False,0.03,YES,0.01,0.79,0,NO,NO,NO,0,0,5,YES,NO,NO,0,0,5,YES,DI,DI
CR450710_BC071348,DI,DU,0.1,NO,0,False,0,YES,0,1,0,NO,NO,NO,0,0,5,YES,NO,NO,0,0,5,YES,DI,DI
AL928901_BC062839,DI,DU,0.09,NO,0,False,0.01,YES,0,1,0,NO,NO,NO,0,0,5,YES,NO,NO,0,0,5,YES,DI,DI
AL928901_BC059530,DI,DU,0.1,NO,0,False,0,YES,0,1,0.000003,NO,NO,NO,0,0,5,YES,NO,NO,0,0,5,YES,DI,DI
AL928901_BC090429,DI,DU,0.05,NO,0,False,0.01,YES,0,1,0.000001,NO,NO,NO,0,0,5,YES,NO,NO,0,0,5,YES,DI,DI
BX901918_BC133863,DI,DU,0.08,NO,0,False,0.01,YES,0,1,0,NO,NO,NO,0,0,5,YES,NO,NO,0,0,5,YES,DI,DI
BC054596_BX005395,DI,DU,0.1,NO,0,False,0.01,YES,0,1,0.000003,NO,NO,NO,0,0,5,YES,NO,NO,0,0,5,YES,DI,DI
BX571825_BC053137,DI,DU,0.07,NO,0,False,0.01,YES,0,1,0,NO,NO,NO,0,0,5,YES,NO,NO,0,0,5,YES,DI,DI
BX649634_BC065446,DI,DU,0.09,NO,0,False,0.01,YES,0,1,0,NO,NO,NO,0,0,5,YES,NO,NO,0,0,5,YES,DI,DI
BC125962_CT027743,DI,DU,0.1,NO,0,False,0.03,YES,0,1,0.000001,NO,NO,NO,0,0,5,YES,NO,NO,0,0,5,YES,DI,DI
AL935038_BC054562,DI,DU,0.08,NO,0,False,0.02,YES,0,1,0,NO,NO,NO,0,0,5,YES,NO,NO,0,0,5,YES,DI,DI
CR381676_BC056743,DI,DU,0.09,NO,0,False,0.01,YES,0,0.98,0,NO,NO,NO,0,0,5,YES,NO,NO,0,0,5,YES,DI,DI
CU856363_BC055257,DI,DU,0.05,NO,0,False,0.03,YES,0,1,0,NO,NO,NO,0,0,5,YES,NO,NO,0,0,5,YES,DI,DI
BC049045_CR377211,DI,DU,0.1,NO,0,False,0,YES,0,1,0,NO,NO,NO,0,0,5,YES,NO,NO,0,0,5,YES,DI,DI
BC059549_BX950182,DI,DU,0.1,NO,0,False,0.01,YES,0,1,0,NO,NO,NO,0,0,5,YES,NO,NO,0,0,5,YES,DI,DI
BC066722_CT573346,DI,DU,0.09,NO,0,False,0.03,YES,0,1,0,NO,NO,NO,0,0,5,YES,NO,NO,0,0,5,YES,DI,DI
BC125970_BX255937,DI,DU,0.09,NO,0,False,0.02,YES,0,1,0,NO,NO,NO,0,0,5,YES,NO,NO,0,0,5,YES,DI,DI
BC061955_AL929305,DI,DU,0.04,NO,0,False,0.01,YES,0,1,0,NO,NO,NO,0,0,5,YES,NO,NO,0,0,5,YES,DI,DI
AL928674_BC068187,DI,DU,0.1,NO,0,False,0.01,YES,0,1,0,NO,NO,NO,0,0,5,YES,NO,NO,0,0,5,YES,DI,DI
BX510999_AF170069,DI,DU,0.07,NO,0,False,0.01,YES,0,1,0,NO,NO,NO,0,0,5,YES,NO,NO,0,0,5,YES,DI,DI
CR391967_BC066609,DI,DU,0.1,NO,0,False,0.02,YES,0,1,0,NO,NO,NO,0,0,5,YES,NO,NO,0,0,5,YES,DI,DI
BC063949_BX908748,DI,DU,0.1,NO,0,False,0.01,YES,0,1,0.000001,NO,NO,NO,0,0,5,YES,NO,NO,0,0,5,YES,DI,DI
BC049059_CR536616,DI,DU,0.09,NO,0,False,0.01,YES,0,1,0.000001,NO,NO,NO,0,0,5,YES,NO,NO,0,0,5,YES,DI,DI
BX908751_BC059493,DI,DU,0.08,NO,0,False,0.01,YES,0,1,0.000002,NO,NO,NO,0,0,5,YES,NO,NO,0,0,5,YES,DI,DI
BX601644_BC142799,DI,DU,0.08,NO,0,False,0.01,YES,0,1,0,NO,NO,NO,0,0,5,YES,NO,NO,0,0,5,YES,DI,DI
CR388090_CT737125,DI,DU,0.8,NO,0,False,0.8,YES,0,0.83,0,NO,NO,NO,0,0,5,YES,NO,NO,0,0,5,YES,DI,DI
BX649350_BC075952,DI,DU,0.09,NO,0,False,0.02,YES,0,1,0.000001,NO,NO,NO,0,0,5,YES,NO,NO,0,0,5,YES,DI,DI
CR536616_BC080217,DI,DU,0.09,NO,0,False,0.01,YES,0,1,0.000001,NO,NO,NO,0,0,5,YES,NO,NO,0,0,5,YES,DI,DI
AF281076_CU019631,DI,DU,0.07,NO,0,False,0.01,YES,0,1,0.000003,NO,NO,NO,0,0,5,YES,NO,NO,0,0,5,YES,DI,DI
BC049500_BX927210,DI,DU,0.1,NO,0,False,0.01,YES,0,1,0,NO,NO,NO,0,0,5,YES,NO,NO,0,0,5,YES,DI,DI
BX897719_BC146746,DI,DU,0.11,NO,0,False,0.02,YES,0,0.98,0,NO,NO,NO,0,0,5,YES,NO,NO,0,0,5,YES,DI,DI
BX470166_BC075914,DI,DU,0.1,NO,0,False,0.01,YES,0,1,0,NO,NO,NO,0,0,5,YES,NO,NO,0,0,5,YES,DI,DI
BC152140_BX927260,DI,DU,0.1,NO,0,False,0.02,YES,0,1,0,NO,NO,NO,0,0,5,YES,NO,NO,0,0,5,YES,DI,DI
BC056708_CR735121,DI,DU,0.08,NO,0,False,0.03,YES,0,1,0,NO,NO,NO,0,0,5,YES,NO,NO,0,0,5,YES,DI,DI
BC056708_BX890574,DI,DU,0.08,NO,0,False,0.05,YES,0,0.98,0,NO,NO,NO,0,0,5,YES,NO,NO,0,0,5,YES,DI,DI
BX548023_BC124321,DI,DU,0.05,NO,0,False,0.02,YES,0,1,0.00001,NO,NO,NO,0,0,5,YES,NO,NO,0,0,5,YES,DI,DI
BC086734_BX005228,DI,DU,0.1,NO,0,False,0.01,YES,0,1,0,NO,NO,NO,0,0,5,YES,NO,NO,0,0,5,YES,DI,DI
BC075994_CR926137,DI,DU,0.1,NO,0,False,0.01,YES,0,1,0,NO,NO,NO,0,0,5,YES,NO,NO,0,0,5,YES,DI,DI
BC092947_CR790380,DI,DU,0.05,NO,0,False,0.01,YES,0,1,0,NO,NO,NO,0,0,5,YES,NO,NO,0,0,5,YES,DI,DI
CR352301_BC049459,DI,DU,0.07,NO,0,False,0.01,YES,0,1,0,NO,NO,NO,0,0,5,YES,NO,NO,0,0,5,YES,DI,DI
BC114268_CR786571,DI,DU,0.08,NO,0,False,0.01,YES,0,1,0,NO,NO,NO,0,0,5,YES,NO,NO,0,0,5,YES,DI,DI
BX927276_BX294165,DI,DU,0.8,NO,0,False,0.75,YES,0,0.83,0,NO,NO,NO,0,0,5,YES,NO,NO,0,0,5,YES,DI,DI
BX927276_BC115268,DI,DU,0.04,NO,0,False,0.01,YES,0,1,0,NO,NO,NO,0,0,5,YES,NO,NO,0,0,5,YES,DI,DI
AL929108_BC056527,DI,DU,0.04,NO,0,False,0.01,YES,0,1,0.000001,NO,NO,NO,0,0,5,YES,NO,NO,0,0,5,YES,DI,DI
BX936460_BC072704,DI,DU,0.05,NO,0,False,0.02,YES,0,1,0,NO,NO,NO,0,0,5,YES,NO,NO,0,0,5,YES,DI,DI
X59125_Y07698,DI,DU,0.25,YES,0,False,0.99,YES,0.19,0.83,0,NO,NO,NO,0,0,5,YES,NO,NO,0,0,5,YES,DI,DI
BX005395_BC045900,DI,DU,0.08,NO,0,False,0.01,YES,0,1,0.000001,NO,NO,NO,0,0,5,YES,NO,NO,0,0,5,YES,DI,DI
BX005395_BC083282,DI,DU,0.05,NO,0,False,0.01,YES,0,1,0,NO,NO,NO,0,0,5,YES,NO,NO,0,0,5,YES,DI,DI
BC057248_FP360035,DI,DU,0.08,NO,0,False,0.02,YES,0,1,0.000002,NO,NO,NO,0,0,5,YES,NO,NO,0,0,5,YES,DI,DI
BC134851_BX897712,DI,DU,0.08,NO,0,False,0.02,YES,0,1,0.000009,NO,NO,NO,0,0,5,YES,NO,NO,0,0,5,YES,DI,DI
BC045965_CR855299,DI,DU,0.1,NO,0,False,0,YES,0,1,0,NO,NO,NO,0,0,5,YES,NO,NO,0,0,5,YES,DI,DI
AL954327_DQ062095,DI,DU,0.05,NO,0,False,0,YES,0,1,0.000005,NO,NO,NO,0,0,5,YES,NO,NO,0,0,5,YES,DI,DI
BC092992_CR759794,DI,DU,0.08,NO,0,False,0.01,YES,0,1,0,NO,NO,NO,0,0,5,YES,NO,NO,0,0,5,YES,DI,DI
AL929282_BC096787,DI,DU,0.1,NO,0,False,0.01,YES,0,1,0.000002,NO,NO,NO,0,0,5,YES,NO,NO,0,0,5,YES,DI,DI
BX908796_BC092957,DI,DU,0.1,NO,0,False,0.01,YES,0,1,0,NO,NO,NO,0,0,5,YES,NO,NO,0,0,5,YES,DI,DI
CR318619_BC153570,DI,DU,0.1,NO,0,False,0.05,YES,0,1,0,NO,NO,NO,0,0,5,YES,NO,NO,0,0,5,YES,DI,DI
CU459175_BC114271,DI,DU,0.05,NO,0,False,0.04,YES,0,1,0.000001,NO,NO,NO,0,0,5,YES,NO,NO,0,0,5,YES,DI,DI
CU459175_BC092922,DI,DU,0.09,NO,0,False,0.04,YES,0,1,0.000008,NO,NO,NO,0,0,5,YES,NO,NO,0,0,5,YES,DI,DI
BC092743_BX571961,DI,DU,0.09,NO,0,False,0.01,YES,0,1,0,NO,NO,NO,0,0,5,YES,NO,NO,0,0,5,YES,DI,DI
CR954298_BC059641,DI,DU,0.09,NO,0,False,0.02,YES,0,1,0.00001,NO,NO,NO,0,0,5,YES,NO,NO,0,0,5,YES,DI,DI
