Z93376_AL132949,DU,DI,0.5,YES,0.5,False,0.07,YES,0,0.84,0,NO,NO,NO,0,0,5,YES,NO,NO,0,0,5,YES,DU,EF
Z81140_Z54282,DU,DI,0.71,YES,0.5,False,0.66,YES,0.01,0.83,0,NO,NO,NO,0,0,5,YES,NO,NO,0,0,5,YES,DU,EF
Z81146_Z70308,DU,DI,0.71,YES,0.5,False,0.87,YES,0,0.71,0.002,YES,NO,NO,0,0,5,YES,NO,NO,0,0,5,YES,DU,LI
Z46266_Z37140,DU,DI,0.71,YES,0.5,True,0.86,YES,0,0.92,0.008,YES,NO,NO,0,0,5,YES,NO,NO,0,0,5,YES,DU,LI
Z46266_AB011278,DU,DI,0.2,YES,0,False,0.02,YES,0,1,0.34,YES,NO,NO,0,0,5,YES,NO,NO,0,0,5,YES,DU,LI
Z46266_AB011277,DU,DI,0.2,YES,0,False,0.02,YES,0,1,0.32,YES,NO,NO,0,0,5,YES,NO,NO,0,0,5,YES,DU,LI
Z82052_AL021507,DU,DI,0.5,YES,0.5,False,0.04,YES,0,0.88,0.035,YES,NO,NO,0,0,5,YES,NO,NO,0,0,5,YES,DU,LI
Z82052_AL021572,DU,DI,0.71,YES,0.5,False,0.41,YES,0,0.75,0.0002,NO,NO,NO,0,0,5,YES,NO,NO,0,0,5,YES,DU,EF
Z92967_AL021572,DU,DI,0.71,YES,0.5,False,0.42,YES,0,0.72,0.00002,NO,NO,NO,0,0,5,YES,NO,NO,0,0,5,YES,DU,EF
Z78546_AL023830,DU,DI,0.5,YES,0.5,False,0.49,YES,0,0.94,0,NO,NO,NO,0,0,5,YES,NO,NO,0,0,5,YES,DU,EF
Z78540_Z72501,DU,DI,0.71,YES,0.5,False,0.85,YES,0.01,0.81,0,NO,NO,NO,0,0,5,YES,NO,NO,0,0,5,YES,DU,EF
J01045_X16800,DU,DI,0.18,YES,0,N/A,0.14,YES,0.01,0.86,0.004,YES,NO,NO,0,0,5,YES,NO,NO,0,0,5,YES,DU,LI
Z35663_Z35719,DU,DI,0.71,YES,0.5,False,0.82,YES,0,0.73,0,NO,NO,NO,0,0,5,YES,NO,NO,0,0,5,YES,DU,EF
FO081551_Z70750,DU,DI,0.71,YES,0.5,False,0.84,YES,0,0.9,0,NO,NO,NO,0,0,5,YES,NO,NO,0,0,5,YES,DU,EF
Z72501_AJ133838,DU,DI,0.2,YES,0,False,0.06,YES,0,0.83,0.97,YES,NO,NO,0,0,5,YES,NO,NO,0,0,5,YES,DU,LI
Z69902_Z69904,DU,DI,0.71,YES,0.5,True,0.76,YES,0,0.82,0,NO,NO,NO,0,0,5,YES,NO,NO,0,0,5,YES,DU,EF
Z82288_Z81102,DU,DI,0.71,YES,0.5,False,0.75,YES,0,0.91,0,NO,NO,NO,0,0,5,YES,NO,NO,0,0,5,YES,DU,EF
AB206836_FO081246,DU,DI,0.3,YES,0,False,0.23,YES,0,1,0.21,YES,NO,NO,0,0,5,YES,NO,NO,0,0,5,YES,DU,LI
Z82093_AF016854,DU,DI,0.33,YES,0,False,0.12,YES,0,0.72,0.00008,NO,NO,NO,0,0,5,YES,NO,NO,0,0,5,YES,DU,EF
Z82093_AL032638,DU,DI,0.5,YES,0.5,False,0.7,YES,0.01,0.72,0,NO,NO,NO,0,0,5,YES,NO,NO,0,0,5,YES,DU,EF
Z82064_AL032638,DU,DI,0.5,YES,0.5,False,0.79,YES,0.01,0.74,0,NO,NO,NO,0,0,5,YES,NO,NO,0,0,5,YES,DU,EF
Z46793_Z34801,DU,DI,0.71,YES,0.5,False,0.59,YES,0.01,0.82,0,NO,NO,NO,0,0,5,YES,NO,NO,0,0,5,YES,DU,EF
Z68222_AF273780,DU,DI,0.14,YES,0,False,0.06,YES,0,0.8,0.045,YES,NO,NO,0,0,5,YES,NO,NO,0,0,5,YES,DU,LI
AL031630_Z81453,DU,DI,0.5,YES,0.5,False,0.61,YES,0,0.84,0,NO,NO,NO,0,0,5,YES,NO,NO,0,0,5,YES,DU,EF
AB011278_Z37140,DU,DI,0.2,YES,0,False,0.03,YES,0,1,1,YES,NO,NO,0,0,5,YES,NO,NO,0,0,5,YES,DU,LI
AB011278_AB011285,DU,DI,0.71,YES,0.5,True,0.97,YES,0.01,1,0.3,YES,YES,YES,0.01,1,0.29,YES,YES,NO,0,0,5,YES,DU,LI
AB011278_AB011284,DU,DI,0.71,YES,0.5,True,0.36,YES,0.01,0.86,1.4,YES,YES,YES,0.01,0.86,1.3,YES,YES,YES,0.02,0.31,2.5,YES,DU,LI
AB011279_Z37140,DU,DI,0.2,YES,0,False,0.07,YES,0,0.86,0.019,YES,NO,NO,0,0,5,YES,NO,NO,0,0,5,YES,DU,LI
AB011277_AB011285,DU,DI,0.71,YES,0.5,True,0.97,YES,0.01,1,0.29,YES,YES,YES,0.01,1,0.28,YES,YES,YES,0.02,0.3,0.087,YES,DU,LI
Z81511_AJ012356,DU,DI,0.12,YES,0,False,0,YES,0,0.94,0.095,YES,NO,NO,0,0,5,YES,NO,NO,0,0,5,YES,DU,LI
Z81511_M37115,DU,DI,0.13,YES,0,N/A,0,YES,0,0.93,0.74,YES,NO,NO,0,0,5,YES,NO,NO,0,0,5,YES,DU,LI
Z81511_M37117,DU,DI,0.13,YES,0,N/A,0,YES,0,0.93,0.34,YES,NO,NO,0,0,5,YES,NO,NO,0,0,5,YES,DU,LI
Z81511_M37116,DU,DI,0.13,YES,0,N/A,0.01,YES,0,0.83,0.13,YES,NO,NO,0,0,5,YES,NO,NO,0,0,5,YES,DU,LI
Z81511_M37119,DU,DI,0.17,YES,0,N/A,0.07,YES,0,0.85,0.0003,NO,NO,NO,0,0,5,YES,NO,NO,0,0,5,YES,DU,EF
Z81511_M37118,DU,DI,0.13,YES,0,N/A,0.01,YES,0,0.94,0.21,YES,NO,NO,0,0,5,YES,NO,NO,0,0,5,YES,DU,LI
Z81512_AL033515,DU,DI,0.5,YES,0.5,False,0.12,YES,0.01,0.7,0,NO,NO,NO,0,0,5,YES,NO,NO,0,0,5,YES,DU,EF
AL132898_AL132863,DU,DI,0.71,YES,0.5,False,0.23,YES,0,0.9,0,NO,NO,NO,0,0,5,YES,NO,NO,0,0,5,YES,DU,EF
AF273824_Z70211,DU,DI,0.14,YES,0,False,0.04,YES,0,0.95,0.003,YES,NO,NO,0,0,5,YES,NO,NO,0,0,5,YES,DU,LI
Z37979_AB011285,DU,DI,0.2,YES,0,False,0.03,YES,0,0.83,0.022,YES,NO,NO,0,0,5,YES,NO,NO,0,0,5,YES,DU,LI
Z37979_AB011284,DU,DI,0.2,YES,0,False,0.01,YES,0,0.76,0.34,YES,NO,NO,0,0,5,YES,NO,NO,0,0,5,YES,DU,LI
AF020343_FO080113,DU,DI,0.21,YES,0,False,0.25,YES,0,0.87,0.0001,NO,NO,NO,0,0,5,YES,NO,NO,0,0,5,YES,DU,EF
AF020344_FO080113,DU,DI,0.21,YES,0,False,0.23,YES,0,0.87,0.0001,NO,NO,NO,0,0,5,YES,NO,NO,0,0,5,YES,DU,EF
Z68301_Z70718,DU,DI,0.71,YES,0.5,False,0.83,YES,0.01,0.71,0,NO,NO,NO,0,0,5,YES,NO,NO,0,0,5,YES,DU,EF
AF032112_FO080113,DU,DI,0.33,YES,0,False,0.3,YES,0,0.87,0.0002,NO,NO,NO,0,0,5,YES,NO,NO,0,0,5,YES,DU,EF
AL132949_Z82279,DU,DI,0.5,YES,0.5,False,0.18,YES,0,0.76,0,NO,NO,NO,0,0,5,YES,NO,NO,0,0,5,YES,DU,EF
Z69791_Z69793,DU,DI,0.71,YES,0.5,False,0.63,YES,0,0.85,0,NO,NO,NO,0,0,5,YES,NO,NO,0,0,5,YES,DU,EF
Z82096_Z81511,DU,DI,0.71,YES,0.5,False,0.83,YES,0.01,0.75,0,NO,NO,NO,0,0,5,YES,NO,NO,0,0,5,YES,DU,EF
Z82096_M37114,DU,DI,0.13,YES,0,N/A,0.01,YES,0,0.77,0.062,YES,NO,NO,0,0,5,YES,NO,NO,0,0,5,YES,DU,LI
Z30974_Z30423,DU,DI,0.71,YES,0.5,False,0.68,YES,0,0.81,0,NO,NO,NO,0,0,5,YES,NO,NO,0,0,5,YES,DU,EF
AL031635_Z81134,DU,DI,0.5,YES,0.5,False,0.42,YES,0,0.74,0,NO,NO,NO,0,0,5,YES,NO,NO,0,0,5,YES,DU,EF
AF016854_AL032638,DU,DI,0.33,YES,0,False,0.18,YES,0,0.9,0.096,YES,NO,NO,0,0,5,YES,NO,NO,0,0,5,YES,DU,LI
Z68117_M37233,DU,DI,0.18,YES,0,N/A,0.03,YES,0,0.86,0.31,YES,NO,NO,0,0,5,YES,NO,NO,0,0,5,YES,DU,LI
Z68117_M37236,DU,DI,0,YES,0,N/A,0.01,YES,0,1,0.03,YES,NO,NO,0,0,5,YES,NO,NO,0,0,5,YES,DU,LI
Z68119_M37235,DU,DI,0,YES,0,N/A,0.03,YES,0,0.9,0.086,YES,NO,NO,0,0,5,YES,NO,NO,0,0,5,YES,DU,LI
Z49908_Z81573,DU,DI,0.71,YES,0.5,False,0.57,YES,0,0.79,0,NO,NO,NO,0,0,5,YES,NO,NO,0,0,5,YES,DU,EF
X16800_X16799,DU,DI,0.27,YES,0.5,N/A,0.15,YES,0.01,0.86,0.004,YES,NO,NO,0,0,5,YES,NO,NO,0,0,5,YES,DU,LI
AL590342_AL032627,DU,DI,0.71,YES,0.5,False,0.21,YES,0,0.78,0,NO,NO,NO,0,0,5,YES,NO,NO,0,0,5,YES,DU,EF
Z93395_AF132883,DU,DI,0.18,YES,0,False,0.11,YES,0,0.86,0.0001,NO,NO,NO,0,0,5,YES,NO,NO,0,0,5,YES,DU,EF
Z81031_AY836558,DU,DI,0.23,YES,0,False,0.08,YES,0,0.75,0.015,YES,NO,NO,0,0,5,YES,NO,NO,0,0,5,YES,DU,LI
Z81031_AY836556,DU,DI,0.23,YES,0,False,0.07,YES,0,0.75,0.014,YES,NO,NO,0,0,5,YES,NO,NO,0,0,5,YES,DU,LI
FO080701_AJ561213,DU,DI,0.17,YES,0,False,0.01,YES,0,0.88,0.92,YES,NO,NO,0,0,5,YES,NO,NO,0,0,5,YES,DU,LI
Z81499_V01494,DU,DI,0.11,YES,0,False,0.02,YES,0,0.93,3.5,YES,NO,NO,0,0,5,YES,NO,NO,0,0,5,YES,DU,LI
AY349016_FO080407,DU,DI,0.2,YES,0,False,0.17,YES,0,0.86,0,NO,NO,NO,0,0,5,YES,NO,NO,0,0,5,YES,DU,EF
AY349015_FO080407,DU,DI,0.2,YES,0,False,0.18,YES,0,0.89,0.11,YES,NO,NO,0,0,5,YES,NO,NO,0,0,5,YES,DU,LI
AB011281_Z37140,DU,DI,0.2,YES,0,False,0.02,YES,0,1,0.93,YES,NO,NO,0,0,5,YES,NO,NO,0,0,5,YES,DU,LI
AB011280_Z37140,DU,DI,0.33,YES,0,False,0.12,YES,0,0.83,0.033,YES,NO,NO,0,0,5,YES,NO,NO,0,0,5,YES,DU,LI
AB011283_Z37140,DU,DI,0.2,YES,0,False,0.02,YES,0,0.89,0.26,YES,NO,NO,0,0,5,YES,NO,NO,0,0,5,YES,DU,LI
AB011282_Z37140,DU,DI,0.2,YES,0,False,0.02,YES,0,1,0.9,YES,NO,NO,0,0,5,YES,NO,NO,0,0,5,YES,DU,LI
AB011285_Z37140,DU,DI,0.2,YES,0,False,0.02,YES,0,0.9,0.082,YES,NO,NO,0,0,5,YES,NO,NO,0,0,5,YES,DU,LI
AB011284_Z37140,DU,DI,0.2,YES,0,False,0.01,YES,0,0.89,0.1,YES,NO,NO,0,0,5,YES,NO,NO,0,0,5,YES,DU,LI
Z74473_U20168,DU,DI,0.3,YES,0,False,0.13,YES,0.01,0.73,0,NO,NO,NO,0,0,5,YES,NO,NO,0,0,5,YES,DU,EF
AY652944_Z81114,DU,DI,0.25,YES,0,False,0.06,YES,0.01,0.79,0,NO,NO,NO,0,0,5,YES,NO,NO,0,0,5,YES,DU,EF
AF020342_FO080113,DU,DI,0.21,YES,0,False,0.25,YES,0,0.87,0.0001,NO,NO,NO,0,0,5,YES,NO,NO,0,0,5,YES,DU,EF
M37233_M37235,DU,DI,0.63,YES,0.5,N/A,1,YES,0.01,1,0.1,YES,YES,YES,0.01,1,0.098,YES,YES,YES,0.03,0.54,0.1,YES,DU,LI
M37233_M37236,DU,DI,0.3,YES,0.5,N/A,0.35,YES,0.02,0.88,0.12,YES,YES,YES,0.01,0.86,0.25,YES,YES,NO,0,0,5,YES,DU,LI
M37234_Z71261,DU,DI,0,YES,0,N/A,0.03,YES,0,0.9,0.066,YES,NO,NO,0,0,5,YES,NO,NO,0,0,5,YES,DU,LI
M37235_M37236,DU,DI,0.5,YES,0.5,N/A,0.35,YES,0.01,1,0.12,YES,YES,YES,0.01,0.86,0.25,YES,YES,YES,0.01,0.5,2.6,YES,DU,LI
Z66562_Z66567,DU,DI,0.71,YES,0.5,False,0.9,YES,0.01,0.75,0,NO,NO,NO,0,0,5,YES,NO,NO,0,0,5,YES,DU,EF
Z36237_M38013,DU,DI,0,YES,0,N/A,0.01,YES,0,0.94,1.5,YES,NO,NO,0,0,5,YES,NO,NO,0,0,5,YES,DU,LI
Z71266_M37232,DU,DI,0.2,YES,0,N/A,0.03,YES,0,0.87,0.083,YES,NO,NO,0,0,5,YES,NO,NO,0,0,5,YES,DU,LI
AL031254_Z81058,DU,DI,0.5,YES,0.5,False,0.35,YES,0,0.77,0,NO,NO,NO,0,0,5,YES,NO,NO,0,0,5,YES,DU,EF
Z81063_Z81473,DU,DI,0.71,YES,0.5,True,0.97,YES,0,0.94,0,NO,NO,NO,0,0,5,YES,NO,NO,0,0,5,YES,DU,EF
Z79694_Z73912,DU,DI,0.71,YES,0.5,True,0.72,YES,0,0.82,0.00001,NO,NO,NO,0,0,5,YES,NO,NO,0,0,5,YES,DU,EF
Z35599_Z34802,DU,DI,0.71,YES,0.5,False,0.9,YES,0,0.71,0,NO,NO,NO,0,0,5,YES,NO,NO,0,0,5,YES,DU,EF
Z75953_U00965,DU,DI,0.13,YES,0,False,0.09,YES,0,0.85,0.18,YES,NO,NO,0,0,5,YES,NO,NO,0,0,5,YES,DU,LI
Z81128_Z81033,DU,DI,0.71,YES,0.5,False,0.55,YES,0,0.93,0.0003,NO,NO,NO,0,0,5,YES,NO,NO,0,0,5,YES,DU,EF
Z81128_Z68336,DU,DI,0.71,YES,0.5,False,0.88,YES,0.01,0.82,0,NO,NO,NO,0,0,5,YES,NO,NO,0,0,5,YES,DU,EF
Z19153_AF220525,DU,DI,0.15,YES,0,False,0.03,YES,0,1,0.03,YES,NO,NO,0,0,5,YES,NO,NO,0,0,5,YES,DU,LI
Z19153_AY303580,DU,DI,0.23,YES,0,False,0.03,YES,0,1,0.39,YES,NO,NO,0,0,5,YES,NO,NO,0,0,5,YES,DU,LI
FO081456_FO081620,DU,DI,0.5,YES,0.5,False,0.48,YES,0,0.88,0,NO,NO,NO,0,0,5,YES,NO,NO,0,0,5,YES,DU,EF
Z73912_U50735,DU,DI,0.2,YES,0,False,0.12,YES,0,0.83,0.0006,NO,NO,NO,0,0,5,YES,NO,NO,0,0,5,YES,DU,EF
Z81550_Z70211,DU,DI,0.71,YES,0.5,False,0.8,YES,0,0.96,0,NO,NO,NO,0,0,5,YES,NO,NO,0,0,5,YES,DU,EF
X78554_X78553,DU,DI,0.67,YES,0.5,True,0.09,YES,0,1,0.095,YES,NO,NO,0,0,5,YES,NO,NO,0,0,5,YES,DU,LI
AL033514_AL110501,DU,DI,0.71,YES,0.5,False,0.22,YES,0,0.94,0,NO,NO,NO,0,0,5,YES,NO,NO,0,0,5,YES,DU,EF
AJ561206_Z69791,DU,DI,0.17,YES,0,False,0.01,YES,0,0.89,0.052,YES,NO,NO,0,0,5,YES,NO,NO,0,0,5,YES,DU,LI
Z92822_AF143244,DU,DI,0.25,YES,0,False,0.06,YES,0,0.79,0.005,YES,NO,NO,0,0,5,YES,NO,NO,0,0,5,YES,DU,LI
Z92822_AF143243,DU,DI,0.25,YES,0,False,0.07,YES,0,0.79,0.006,YES,NO,NO,0,0,5,YES,NO,NO,0,0,5,YES,DU,LI
Z92822_AF145376,DU,DI,0.33,YES,0,False,0.06,YES,0,1,0.06,YES,NO,NO,0,0,5,YES,NO,NO,0,0,5,YES,DU,LI
Z19122_AF308445,DI,DU,0.33,YES,0,False,0.42,YES,0,1,0.000006,NO,YES,YES,0,0.89,0.087,YES,YES,YES,0.01,0.27,0.63,YES,DI,DI
Z69792_Z81140,DI,DU,0.71,YES,0.5,False,0.97,YES,0.01,0.88,0,NO,NO,NO,0,0,5,YES,NO,NO,0,0,5,YES,DI,DI
AF332204_AY185494,DI,DU,0.14,YES,0,False,0.85,YES,0.02,0.79,0,NO,YES,YES,0.01,1,0.44,YES,YES,YES,0.02,0.26,3.7,YES,DI,DI
Z47072_Z48178,DI,DU,0.71,YES,0.5,True,0.84,YES,0,1,0,NO,NO,NO,0,0,5,YES,NO,NO,0,0,5,YES,DI,DI
FO081483_FO080958,DI,DU,0.5,YES,0.5,False,0.89,YES,0.01,0.87,0,NO,NO,NO,0,0,5,YES,NO,NO,0,0,5,YES,DI,DI
AF492694_AL132862,DI,DU,0.17,YES,0,False,0.01,YES,0,0.93,0,NO,NO,NO,0,0,5,YES,NO,NO,0,0,5,YES,DI,DI
AL132860_AY204166,DI,DU,0.14,YES,0,False,0.01,YES,0,0.72,0.000004,NO,NO,NO,0,0,5,YES,NO,NO,0,0,5,YES,DI,DI
U50735_L21758,DI,DU,0.44,YES,0,N/A,0.3,YES,0.01,0.83,0.000002,NO,YES,YES,0.01,0.85,0.22,YES,YES,YES,0.01,0.43,6.2,YES,DI,DI
FO080949_FO080602,DI,DU,0.71,YES,0.5,False,0.95,YES,0.01,0.91,0,NO,NO,NO,0,0,5,YES,NO,NO,0,0,5,YES,DI,DI
FO080941_FO080437,DI,DU,0.71,YES,0.5,False,0.73,YES,0.01,0.88,0,NO,NO,NO,0,0,5,YES,NO,NO,0,0,5,YES,DI,DI
FO080230_Z82277,DI,DU,0.71,YES,0.5,False,0.82,YES,0,1,0.00002,NO,NO,NO,0,0,5,YES,NO,NO,0,0,5,YES,DI,DI
FO081128_Z81522,DI,DU,0.71,YES,0.5,False,0.64,YES,0,1,0,NO,NO,NO,0,0,5,YES,NO,NO,0,0,5,YES,DI,DI
U05038_Z29560,DI,DU,0.25,YES,0,False,0.02,YES,0,1,0.00005,NO,NO,NO,0,0,5,YES,NO,NO,0,0,5,YES,DI,DI
Z77659_FO081256,DI,DU,0.71,YES,0.5,False,0.78,YES,0.01,0.95,0,NO,NO,NO,0,0,5,YES,NO,NO,0,0,5,YES,DI,DI
Z77652_Z99268,DI,DU,0.5,YES,0.5,False,0.08,YES,0.01,0.82,0,NO,NO,NO,0,0,5,YES,NO,NO,0,0,5,YES,DI,DI
AY305831_Z81046,DI,DU,0.23,YES,0,False,0.05,YES,0,1,0.000002,NO,NO,NO,0,0,5,YES,NO,NO,0,0,5,YES,DI,DI
AL031633_L36965,DI,DU,0.23,YES,0,N/A,0.01,YES,0,0.86,0.000006,NO,NO,NO,0,0,5,YES,NO,NO,0,0,5,YES,DI,DI
Z68135_Z81512,DI,DU,0.71,YES,0.5,False,0.94,YES,0.01,0.87,0,NO,NO,NO,0,0,5,YES,NO,NO,0,0,5,YES,DI,DI
Y12499_U89308,DI,DU,0.23,NO,0,False,0.25,YES,0.01,1,0.000006,NO,YES,YES,0.01,1,0.055,YES,YES,YES,0.02,0.39,0.58,YES,DI,DI
U33058_S47164,DI,DU,0.33,YES,0,N/A,0,YES,0,0.91,0.002,YES,YES,YES,0,0.91,0.002,YES,YES,YES,0,0.4,0,NO,DI,DI
FO081818_AF427474,DI,DU,0.21,YES,0,False,0.01,YES,0,0.87,0.000001,NO,NO,NO,0,0,5,YES,NO,NO,0,0,5,YES,DI,DI
Z79598_Z69885,DI,DU,0.71,YES,0.5,False,0.58,YES,0.01,0.85,0,NO,NO,NO,0,0,5,YES,NO,NO,0,0,5,YES,DI,DI
FO080368_Z70680,DI,DU,0.71,YES,0.5,False,0.83,YES,0.03,0.98,0,NO,NO,NO,0,0,5,YES,NO,NO,0,0,5,YES,DI,DI
FO080782_FO080481,DI,DU,0.5,YES,0.5,False,0.3,YES,0.01,0.88,0,NO,NO,NO,0,0,5,YES,NO,NO,0,0,5,YES,DI,DI
AF273780_AF273782,DI,DU,0.54,YES,0.5,True,0.99,YES,0.01,0.85,0.00007,NO,YES,YES,0.02,0.78,0.002,YES,YES,YES,0.1,0.41,0,NO,DI,DI
AY171204_AY171167,DI,DU,0.35,YES,0.5,True,0.18,YES,0.01,0.8,0.0003,NO,YES,YES,0.02,0.91,0.001,YES,YES,YES,0.02,0.6,2.3,YES,DI,DI
FO080977_FO081716,DI,DU,0.71,YES,0.5,False,0.82,YES,0.01,0.85,0,NO,NO,NO,0,0,5,YES,NO,NO,0,0,5,YES,DI,DI
AF273800_AJ561219,DI,DU,0.38,YES,0,False,0.17,YES,0.02,0.94,0.001,YES,YES,YES,0.02,0.94,0.001,YES,YES,YES,0.01,0.44,8.4,YES,DI,DI
FO081512_FO081096,DI,DU,0.71,YES,0.5,False,0.88,YES,0.02,0.84,0,NO,NO,NO,0,0,5,YES,NO,NO,0,0,5,YES,DI,DI
AL034364_FO080674,DI,DU,0.71,YES,0.5,False,0.44,YES,0.01,0.94,0,NO,NO,NO,0,0,5,YES,NO,NO,0,0,5,YES,DI,DI
AL021497_AF021905,DI,DU,0.3,YES,0,False,0.01,YES,0,1,0.000002,NO,NO,NO,0,0,5,YES,NO,NO,0,0,5,YES,DI,DI
AY171173_U29515,DI,DU,0.25,YES,0,False,0.3,YES,0.01,0.82,0.00002,NO,YES,YES,0.02,0.82,0.00001,NO,YES,NO,0,0,5,YES,DI,DI
AL021487_FO081669,DI,DU,0.5,YES,0.5,False,0.69,YES,0.02,0.93,0,NO,NO,NO,0,0,5,YES,NO,NO,0,0,5,YES,DI,DI
AF500489_M93256,DI,DU,0.43,YES,0,N/A,0.29,YES,0.01,0.86,0.000003,NO,YES,YES,0.01,0.86,0.11,YES,YES,YES,0.01,0.28,4.6,YES,DI,DI
U67737_Z83230,DI,DU,0.25,YES,0,False,0.12,YES,0.01,0.85,0,NO,NO,NO,0,0,5,YES,NO,NO,0,0,5,YES,DI,DI
AL021571_Z95559,DI,DU,0.5,YES,0.5,False,0.13,YES,0,0.99,0,NO,NO,NO,0,0,5,YES,NO,NO,0,0,5,YES,DI,DI
FO080639_Z93393,DI,DU,0.5,YES,0.5,False,0.3,YES,0.01,0.83,0,NO,NO,NO,0,0,5,YES,NO,NO,0,0,5,YES,DI,DI
FO080706_FO081642,DI,DU,0.5,YES,0.5,False,0.9,YES,0.01,0.89,0,NO,NO,NO,0,0,5,YES,NO,NO,0,0,5,YES,DI,DI
FO081473_AL032626,DI,DU,0.5,YES,0.5,False,0.52,YES,0.01,0.95,0,NO,NO,NO,0,0,5,YES,NO,NO,0,0,5,YES,DI,DI
U34955_U34354,DI,DU,0.64,YES,0.33,True,0.96,YES,0.29,0.65,0,NO,YES,YES,0.3,0.65,0,NO,YES,YES,0.48,0.52,0,NO,DI,DI
AB073209_X85790,DI,DU,0.09,YES,0,False,0.2,YES,0.01,0.86,0.00006,NO,YES,YES,0,0.93,1.1,YES,YES,YES,0,0.33,1.4,YES,DI,DI
Z74030_FO080216,DI,DU,0.71,YES,0.5,False,0.94,YES,0.01,0.93,0,NO,NO,NO,0,0,5,YES,NO,NO,0,0,5,YES,DI,DI
FO080340_FO081441,DI,DU,0.71,YES,0.5,True,0.75,YES,0,1,0.00006,NO,NO,NO,0,0,5,YES,NO,NO,0,0,5,YES,DI,DI
FO080276_FO081642,DI,DU,0.5,YES,0.5,False,0.46,YES,0.01,0.95,0,NO,NO,NO,0,0,5,YES,NO,NO,0,0,5,YES,DI,DI
FO081297_AL021480,DI,DU,0.5,YES,0.5,False,0.92,YES,0.01,0.92,0,NO,NO,NO,0,0,5,YES,NO,NO,0,0,5,YES,DI,DI
U51163_FO081418,DI,DU,0.25,YES,0,False,0.29,YES,0.01,0.83,0,NO,NO,NO,0,0,5,YES,NO,NO,0,0,5,YES,DI,DI
Z92825_Z68336,DI,DU,0.71,YES,0.5,False,0.82,YES,0.01,0.9,0,NO,NO,NO,0,0,5,YES,NO,NO,0,0,5,YES,DI,DI
