X04891_M10791,DU,DI,0.33,YES,0,N/A,0.42,YES,0.06,1,0,NO,YES,YES,0.03,1,0.082,YES,YES,NO,0,0,5,YES,DU,EF
X02397_D00021,DU,DI,0.31,YES,0,N/A,0.14,YES,0.06,1,0,NO,NO,NO,0,0,5,YES,NO,NO,0,0,5,YES,DU,EF
X02397_X03632,DU,DI,0.36,YES,0,N/A,0.14,YES,0.06,1,0,NO,YES,YES,0.01,0.92,0.33,YES,YES,YES,0.01,0.56,8.6,YES,DU,EF
D90039_AB027308,DU,DI,0.07,YES,0,N/A,0.08,YES,0.05,0.99,0,NO,YES,YES,0.01,0.83,0.36,YES,YES,NO,0,0,5,YES,DU,EF
M35282_X13560,DU,DI,0.08,YES,0,N/A,0.31,YES,0.05,0.99,0,NO,YES,YES,0.01,0.94,0.045,YES,YES,YES,0.01,0.22,0.52,YES,DU,EF
M95287_AY214164,DU,DI,0.11,YES,0,False,0.07,YES,0.02,0.99,0,NO,YES,YES,0.02,0.88,0.21,YES,YES,YES,0.04,0.33,0.29,YES,DU,EF
M95287_AF550679,DU,DI,0.11,YES,0,False,0.06,YES,0.02,0.99,0,NO,YES,YES,0.02,1,0.25,YES,YES,YES,0.02,0.38,4.9,YES,DU,EF
X15024_AY214164,DU,DI,0.14,YES,0,False,0.02,YES,0.02,0.99,0,NO,YES,YES,0.01,0.92,1.1,YES,YES,YES,0.01,0.8,5,YES,DU,EF
X58425_AF205943,DU,DI,0.03,YES,0,False,0.16,YES,0.07,0.99,0,NO,YES,YES,0.01,1,0.45,YES,YES,YES,0.05,0.27,2.1,YES,DU,EF
X58425_U42226,DU,DI,0.04,YES,0,False,0.24,YES,0.05,1,0,NO,YES,YES,0.02,0.89,0.15,YES,YES,YES,0.03,0.5,1,YES,DU,EF
X58425_AY214164,DU,DI,0,YES,0,False,0.02,YES,0.01,0.99,0,NO,YES,YES,0.01,0.92,0.54,YES,YES,NO,0,0,5,YES,DU,EF
X58425_AY339625,DU,DI,0,YES,0,False,0.14,YES,0.06,0.99,0,NO,YES,YES,0.01,1,0.45,YES,YES,YES,0.03,0.36,0.52,YES,DU,EF
X58425_AF550679,DU,DI,0,YES,0,False,0.02,YES,0.01,0.99,0,NO,YES,YES,0.03,0.92,0.63,YES,YES,NO,0,0,5,YES,DU,EF
Z11699_M35637,DU,DI,0.08,YES,0,N/A,0.89,YES,0.01,1,0.92,YES,YES,YES,0.01,1,1.9,YES,YES,YES,0.02,0.57,1.6,YES,DU,LI
Z11699_M29376,DU,DI,0.09,YES,0,N/A,0.94,YES,0.07,1,0,NO,YES,YES,0.02,0.82,0.049,YES,YES,YES,0.01,0.57,1.9,YES,DU,EF
Z11699_Z11710,DU,DI,0.08,YES,0,True,0.24,YES,0,0.93,0.36,YES,YES,YES,0.1,1,1.3,YES,YES,NO,0,0,5,YES,DU,LI
X02302_X12587,DU,DI,0.17,YES,0,N/A,0.13,YES,0.12,0.9,0,NO,YES,YES,0.03,1,0.69,YES,YES,NO,0,0,5,YES,DU,EF
AY339625_AY214164,DU,DI,0.31,YES,0,False,0.14,YES,0.02,0.99,0,NO,YES,YES,0.01,1,3.1,YES,YES,NO,0,0,5,YES,DU,EF
S54065_M10597,DU,DI,0.32,YES,0,N/A,0.33,YES,0.09,0.98,0,NO,YES,YES,0.04,0.83,2,YES,YES,NO,0,0,5,YES,DU,EF
S54065_V00359,DU,DI,0,YES,0,N/A,0.15,YES,0.11,0.99,0,NO,YES,YES,0.02,1,2.5,YES,YES,NO,0,0,5,YES,DU,EF
AB255435_U15573,DU,DI,0.36,YES,0,False,0.01,YES,0.01,1,0,NO,YES,YES,0.01,1,0.58,YES,YES,YES,0.01,0.41,1.5,YES,DU,EF
A07921_AY214164,DU,DI,0.09,YES,0,N/A,0.02,YES,0.02,0.99,0,NO,YES,YES,0.01,0.92,1.1,YES,YES,YES,0.01,0.8,5,YES,DU,EF
M10596_M65202,DU,DI,0.1,YES,0,N/A,0.07,YES,0.07,0.96,0,NO,YES,YES,0.06,1,0.063,YES,YES,NO,0,0,5,YES,DU,EF
M10596_V00359,DU,DI,0.17,YES,0,N/A,0.05,YES,0.05,1,0,NO,YES,YES,0.02,1,0.55,YES,YES,NO,0,0,5,YES,DU,EF
M10596_V00293,DU,DI,0.16,YES,0,N/A,0.48,YES,0.03,1,0.08,YES,YES,YES,0.02,1,0.55,YES,YES,NO,0,0,5,YES,DU,LI
AF205943_AY214164,DU,DI,0.09,YES,0,False,0.12,YES,0.02,0.99,0,NO,YES,YES,0.01,1,3.1,YES,YES,NO,0,0,5,YES,DU,EF
U42226_AY214164,DU,DI,0.04,YES,0,False,0.08,YES,0.04,0.99,0,NO,YES,YES,0.01,0.92,1.1,YES,YES,YES,0.02,0.54,4.8,YES,DU,EF
U42226_AF174129,DU,DI,0.04,YES,0,False,0.65,YES,0.07,1,0,NO,YES,YES,0.01,0.93,0.36,YES,YES,YES,0.02,0.5,2.2,YES,DU,EF
U42226_AY339625,DU,DI,0,YES,0,False,0.6,YES,0.08,1,0,NO,YES,YES,0.01,0.92,0.87,YES,YES,YES,0.03,0.28,5.1,YES,DU,EF
AP000342_U51859,DU,DI,0.1,YES,0,False,0.04,YES,0.04,0.99,0,NO,YES,YES,0.03,0.86,0.6,YES,YES,NO,0,0,5,YES,DU,EF
AP000342_M13054,DU,DI,0.13,YES,0,N/A,0.01,YES,0.01,1,0,NO,YES,YES,0.03,0.92,0.84,YES,YES,YES,0.06,0.4,0.24,YES,DU,EF
J01730_AY458016,DU,DI,0.11,YES,0,N/A,0.06,YES,0.01,0.99,0,NO,YES,YES,0,1,1.2,YES,YES,YES,0.01,0.37,1,YES,DU,EF
J01730_DQ364638,DU,DI,0.11,YES,0,N/A,0.06,YES,0.05,0.99,0,NO,YES,YES,0.02,1,0.17,YES,YES,YES,0.03,0.45,0.71,YES,DU,EF
AY214164_AF174129,DU,DI,0.33,YES,0,False,0.13,YES,0.02,0.93,0,NO,YES,YES,0.01,0.88,0.37,YES,YES,YES,0.02,0.4,2.4,YES,DU,EF
X61239_AF481883,DU,DI,0.09,YES,0,False,0.01,YES,0.01,1,0,NO,YES,YES,0.04,1,0.025,YES,YES,NO,0,0,5,YES,DU,EF
X61239_X51704,DU,DI,0.22,YES,0,False,0.05,YES,0.05,1,0,NO,YES,YES,0.02,0.88,0.68,YES,YES,NO,0,0,5,YES,DU,EF
X61239_M16202,DU,DI,0.33,YES,0,N/A,0.06,YES,0.06,1,0,NO,YES,YES,0.03,1,0.31,YES,YES,NO,0,0,5,YES,DU,EF
X61367_X01299,DU,DI,0.29,YES,0,False,0.04,YES,0.04,1,0,NO,YES,YES,0.01,0.86,0.58,YES,YES,NO,0,0,5,YES,DU,EF
M35637_Z11710,DU,DI,0.27,YES,0,N/A,0.21,YES,0,0.89,0.091,YES,YES,YES,0.02,1,0.003,YES,YES,YES,0.02,1,0.092,YES,DU,LI
AF071413_AY214164,DU,DI,0.06,YES,0,False,0.19,YES,0.04,0.99,0,NO,YES,YES,0.01,0.94,0.007,YES,YES,YES,0.01,0.36,1.4,YES,DU,EF
AF071413_U04277,DU,DI,0.05,YES,0,False,0.09,YES,0.06,1,0,NO,YES,YES,0,1,1.1,YES,YES,YES,0.01,0.36,0.55,YES,DU,EF
AF071413_AB061794,DU,DI,0.04,YES,0,False,0.41,YES,0.07,1,0,NO,YES,YES,0,0.88,1.3,YES,YES,YES,0.02,0.23,0.16,YES,DU,EF
X89856_X01385,DU,DI,0,YES,0,False,0.63,YES,0.05,0.99,0,NO,YES,YES,0.01,0.92,1.2,YES,YES,YES,0.02,0.33,3.4,YES,DU,EF
X89857_X01385,DU,DI,0,YES,0,False,0.63,YES,0.05,0.99,0,NO,YES,YES,0.01,0.92,1.2,YES,YES,YES,0.02,0.33,3.4,YES,DU,EF
V00609_AY458016,DU,DI,0.11,YES,0,N/A,0.01,YES,0.01,0.99,0,NO,YES,YES,0.01,0.83,2.2,YES,YES,YES,0.01,0.56,0.42,YES,DU,EF
X56001_M35282,DU,DI,0.15,YES,0,N/A,0.97,YES,0.01,1,0.24,YES,YES,YES,0.01,1,0.36,YES,YES,NO,0,0,5,YES,DU,LI
Y00358_X17479,DU,DI,0.24,YES,0,False,0.9,YES,0.03,0.88,0.11,YES,YES,YES,0.06,0.87,0.74,YES,YES,NO,0,0,5,YES,DU,LI
M59825_L40585,DU,DI,0.05,YES,0,N/A,0.24,YES,0.06,1,0,NO,YES,YES,0.02,0.89,0.024,YES,YES,YES,0.03,0.5,0.47,YES,DU,EF
AY655485_AY214164,DU,DI,0.33,YES,0,False,0.03,YES,0.01,1,0,NO,YES,YES,0.02,0.87,0.82,YES,YES,YES,0.02,0.63,5.8,YES,DU,EF
AY655485_AF071413,DU,DI,0.05,YES,0,False,0.16,YES,0.06,1,0,NO,YES,YES,0,1,2.9,YES,YES,YES,0.01,0.38,0.99,YES,DU,EF
Z37980_Z47799,DU,DI,0.25,YES,0,False,0.05,YES,0.05,0.99,0,NO,YES,YES,0.02,0.87,0.51,YES,YES,YES,0.03,0.37,1.1,YES,DU,EF
Z37980_S56952,DU,DI,0.06,YES,0,N/A,0.07,YES,0.06,0.97,0,NO,YES,YES,0.02,0.89,1.4,YES,YES,NO,0,0,5,YES,DU,EF
X17693_V00620,DU,DI,0.2,YES,0,N/A,0.11,YES,0.06,1,0,NO,YES,YES,0.01,1,1.5,YES,YES,YES,0.05,0.2,0.007,YES,DU,EF
X17693_M37393,DU,DI,0.19,YES,0,N/A,0.02,YES,0.02,0.99,0,NO,YES,YES,0.02,0.88,0.46,YES,YES,NO,0,0,5,YES,DU,EF
X17693_M37392,DU,DI,0.19,YES,0,N/A,0.01,YES,0.01,1,0,NO,YES,YES,0.01,1,1,YES,YES,NO,0,0,5,YES,DU,EF
X17693_X03474,DU,DI,0.2,YES,0,N/A,0.07,YES,0.06,1,0,NO,YES,YES,0.01,1,0.92,YES,YES,NO,0,0,5,YES,DU,EF
AB061794_AY214164,DU,DI,0.21,YES,0,False,0.08,YES,0.01,1,0,NO,YES,YES,0.01,0.88,0.37,YES,YES,YES,0.02,0.4,2.3,YES,DU,EF
Z11700_M35637,DU,DI,0.06,YES,0,N/A,0.21,YES,0,0.89,0.091,YES,YES,YES,0.02,1,0.003,YES,YES,YES,0.02,1,0.092,YES,DU,LI
AY224185_AY214164,DU,DI,0.1,YES,0,False,0.05,YES,0.02,0.99,0,NO,YES,YES,0.02,0.88,0.27,YES,YES,YES,0.02,0.43,2,YES,DU,EF
J02967_X03043,DU,DI,0.14,YES,0,N/A,0.67,YES,0.06,0.96,0,NO,YES,YES,0.01,0.92,1.2,YES,YES,YES,0.04,0.3,0.038,YES,DU,EF
J02967_Y00358,DU,DI,0.08,YES,0,False,0.22,YES,0.05,0.99,0,NO,YES,YES,0.01,0.92,0.27,YES,YES,YES,0.03,0.23,0.3,YES,DU,EF
J02967_X17479,DU,DI,0.26,YES,0,False,0.2,YES,0.01,0.79,0.5,YES,YES,YES,0.01,1,0.34,YES,YES,YES,0.02,0.33,3.4,YES,DU,LI
V00617_AB255435,DU,DI,0,YES,0,N/A,0.01,YES,0.01,0.99,0,NO,YES,YES,0.01,1,0.58,YES,YES,YES,0.01,0.41,1.5,YES,DU,EF
DQ364638_V00609,DU,DI,0.11,YES,0,N/A,0.01,YES,0.01,1,0,NO,YES,YES,0.02,1,3.9,YES,YES,YES,0.07,0.32,0.17,YES,DU,EF
S74736_U14003,DU,DI,0.14,YES,0,N/A,0,YES,0,0.94,0,NO,YES,YES,0.04,0.82,0.77,YES,YES,YES,0.05,0.67,0.33,YES,DU,EF
AF113597_FM201464,DU,DI,0.11,YES,0,False,0.05,YES,0.05,0.99,0,NO,YES,YES,0.02,0.8,0.1,YES,YES,YES,0.01,0.63,0.41,YES,DU,EF
AF113597_FM201463,DU,DI,0.11,YES,0,False,0.05,YES,0.05,0.99,0,NO,YES,YES,0.01,1,0.086,YES,YES,YES,0.01,0.2,0.49,YES,DU,EF
M26840_X12587,DU,DI,0.14,YES,0,N/A,0.04,YES,0.03,0.9,0,NO,YES,YES,0.03,1,2.2,YES,YES,NO,0,0,5,YES,DU,EF
M26840_J01770,DU,DI,0.06,YES,0,N/A,0.08,YES,0.07,0.98,0,NO,NO,NO,0,0,5,YES,NO,NO,0,0,5,YES,DU,EF
M12373_M14424,DU,DI,0.5,YES,0,N/A,0.3,YES,0.01,0.87,0.62,YES,YES,YES,0.01,0.87,0.52,YES,YES,YES,0.04,0.41,0.65,YES,DU,LI
M12373_AF109125,DU,DI,0.11,YES,0,N/A,0.39,YES,0.01,1,0.14,YES,YES,YES,0.04,0.86,0.46,YES,YES,YES,0.08,0.39,0.6,YES,DU,LI
M12373_M15950,DU,DI,0.38,YES,0,N/A,0.81,YES,0.02,1,0.8,YES,YES,YES,0.05,0.81,0.085,YES,YES,NO,0,0,5,YES,DU,LI
AJ223631_AF062847,DU,DI,0.12,YES,0,False,0.05,YES,0.05,0.99,0,NO,YES,YES,0.03,0.86,0.47,YES,YES,YES,0.07,0.33,0.14,YES,DU,EF
AJ223631_AF062844,DU,DI,0.12,YES,0,False,0.05,YES,0.05,1,0,NO,YES,YES,0.03,0.86,0.47,YES,YES,YES,0.07,0.33,0.14,YES,DU,EF
AJ223631_AF062846,DU,DI,0.12,YES,0,False,0.05,YES,0.05,1,0,NO,YES,YES,0.03,0.86,0.47,YES,YES,YES,0.07,0.33,0.14,YES,DU,EF
AJ223631_AF062852,DU,DI,0.12,YES,0,False,0.05,YES,0.05,0.99,0,NO,YES,YES,0.03,0.86,0.47,YES,YES,YES,0.04,0.63,7.1,YES,DU,EF
AJ223631_AF062858,DU,DI,0.12,YES,0,False,0.05,YES,0.05,1,0,NO,YES,YES,0.03,0.86,0.47,YES,YES,YES,0.07,0.33,0.14,YES,DU,EF
AJ223631_AF062849,DU,DI,0.12,YES,0,False,0.05,YES,0.05,0.99,0,NO,YES,YES,0.03,0.86,0.47,YES,YES,YES,0.04,0.63,7.1,YES,DU,EF
AJ223631_AF062848,DU,DI,0.12,YES,0,False,0.05,YES,0.05,0.99,0,NO,YES,YES,0.03,0.86,0.47,YES,YES,YES,0.07,0.33,0.14,YES,DU,EF
AJ223631_AF062845,DU,DI,0.12,YES,0,False,0.05,YES,0.05,0.99,0,NO,YES,YES,0.03,0.86,0.47,YES,YES,YES,0.04,0.63,7.1,YES,DU,EF
AJ223631_AF062853,DU,DI,0.12,YES,0,False,0.05,YES,0.05,0.99,0,NO,YES,YES,0.03,0.86,0.47,YES,YES,YES,0.04,0.63,7.1,YES,DU,EF
AJ223631_AF062850,DU,DI,0.12,YES,0,False,0.05,YES,0.05,0.99,0,NO,YES,YES,0.03,0.86,0.47,YES,YES,YES,0.04,0.63,7.1,YES,DU,EF
AJ223631_AF062851,DU,DI,0.12,YES,0,False,0.05,YES,0.05,0.99,0,NO,YES,YES,0.03,0.86,0.47,YES,YES,YES,0.04,0.63,7.1,YES,DU,EF
AJ223631_AF062856,DU,DI,0.12,YES,0,False,0.05,YES,0.05,1,0,NO,YES,YES,0.03,0.86,0.47,YES,YES,YES,0.07,0.33,0.14,YES,DU,EF
AJ223631_AF062857,DU,DI,0.12,YES,0,False,0.05,YES,0.05,1,0,NO,YES,YES,0.03,0.86,0.47,YES,YES,YES,0.07,0.33,0.14,YES,DU,EF
AJ223631_AF062854,DU,DI,0.12,YES,0,False,0.05,YES,0.05,1,0,NO,YES,YES,0.03,0.86,0.47,YES,YES,YES,0.07,0.33,0.14,YES,DU,EF
AJ223631_AF062855,DU,DI,0.12,YES,0,False,0.05,YES,0.05,1,0,NO,YES,YES,0.03,0.86,0.47,YES,YES,YES,0.07,0.33,0.14,YES,DU,EF
AY545598_AF218073,DU,DI,0.24,YES,0,False,0.06,YES,0.04,0.99,0,NO,YES,YES,0.01,0.83,0.4,YES,YES,YES,0.01,0.42,0.36,YES,DU,EF
AY545598_AY280856,DU,DI,0.15,YES,0,False,0.01,YES,0.01,0.99,0,NO,YES,YES,0.01,0.84,0.18,YES,YES,YES,0.01,0.75,0.18,YES,DU,EF
V00621_AF498082,DU,DI,0.09,NO,0,N/A,0.2,YES,0.07,0.99,0,NO,YES,YES,0.01,0.92,1.1,YES,YES,YES,0.02,0.64,0.46,YES,DU,EF
V00621_V00293,DU,DI,0.42,YES,0,N/A,0.29,YES,0.01,1,0.6,YES,YES,YES,0.01,1,1.6,YES,YES,NO,0,0,5,YES,DU,LI
L06418_AF550679,DU,DI,0.4,YES,0,False,0.06,YES,0.01,1,0,NO,YES,YES,0.01,0.92,1.5,YES,YES,YES,0.02,0.4,1.7,YES,DU,EF
J01762_X12587,DU,DI,0.05,YES,0,N/A,0.07,YES,0.07,0.9,0,NO,YES,YES,0.02,1,0.85,YES,YES,YES,0.04,0.4,4,YES,DU,EF
X01009_K02071,DU,DI,0.2,YES,0,N/A,0.09,YES,0.09,1,0,NO,YES,YES,0.02,0.88,0.009,YES,YES,NO,0,0,5,YES,DU,EF
U05773_L27758,DU,DI,0.13,YES,0,N/A,0.03,YES,0.03,1,0,NO,NO,NO,0,0,5,YES,NO,NO,0,0,5,YES,DU,EF
X55815_U50703,DU,DI,0.06,YES,0,False,0.04,YES,0.04,0.99,0,NO,YES,YES,0.04,0.73,0.039,YES,YES,YES,0.02,0.43,1.4,YES,DU,EF
X55815_U50701,DU,DI,0.06,YES,0,False,0.04,YES,0.04,0.99,0,NO,YES,YES,0.04,0.73,0.039,YES,YES,YES,0.02,0.43,1.4,YES,DU,EF
X55815_M38047,DU,DI,0.12,YES,0,N/A,0.12,YES,0.06,0.91,0,NO,YES,YES,0.01,0.85,0.33,YES,YES,NO,0,0,5,YES,DU,EF
X55815_U50692,DU,DI,0.06,YES,0,False,0.04,YES,0.04,0.99,0,NO,YES,YES,0.04,0.73,0.039,YES,YES,YES,0.02,0.43,1.4,YES,DU,EF
X55815_M15196,DU,DI,0.2,YES,0,N/A,0.08,YES,0.08,1,0,NO,YES,YES,0.04,0.73,0.05,YES,YES,YES,0.05,0.24,2.1,YES,DU,EF
X17478_X17479,DU,DI,0.36,YES,0.5,True,0.35,YES,0.01,1,0.99,YES,YES,YES,0.02,1,0.14,YES,YES,YES,0.05,0.33,2.1,YES,DU,LI
AF047479_AY214164,DU,DI,0.06,YES,0,False,0.08,YES,0.02,1,0,NO,YES,YES,0.01,0.88,0.37,YES,YES,YES,0.02,0.4,2.4,YES,DU,EF
X74567_S76943,DU,DI,0.14,YES,0,N/A,0.1,YES,0.1,1,0,NO,YES,YES,0.01,1,0.45,YES,YES,NO,0,0,5,YES,DU,EF
J01770_X12587,DU,DI,0.21,YES,0,N/A,0.46,YES,0.02,1,0.2,YES,NO,NO,0,0,5,YES,NO,NO,0,0,5,YES,DU,LI
L18919_M62846,DU,DI,0.06,YES,0,N/A,0.77,YES,0.04,1,0,NO,YES,YES,0.01,1,0.26,YES,YES,NO,0,0,5,YES,DU,EF
L18919_M62426,DU,DI,0.14,YES,0,N/A,0.75,YES,0.04,1,0,NO,YES,YES,0.01,1,0.26,YES,YES,NO,0,0,5,YES,DU,EF
M29885_D00021,DU,DI,0.28,YES,0,N/A,0.15,YES,0.12,0.99,0,NO,NO,NO,0,0,5,YES,NO,NO,0,0,5,YES,DU,EF
X67290_U14003,DU,DI,0,YES,0,False,0,YES,0,0.94,0,NO,YES,YES,0.04,0.82,0.77,YES,YES,YES,0.05,0.67,0.33,YES,DU,EF
AF070068_AJ277443,DU,DI,0.11,YES,0,False,0.05,YES,0.05,0.99,0,NO,YES,YES,0.02,0.79,5.5,YES,YES,NO,0,0,5,YES,DU,EF
M20941_K03090,DU,DI,0.25,YES,0,N/A,0.33,YES,0.03,1,0,NO,YES,YES,0.02,1,0.25,YES,YES,NO,0,0,5,YES,DU,EF
M20941_AP000342,DU,DI,0.17,YES,0,N/A,0.01,YES,0.01,0.99,0,NO,YES,YES,0.03,0.79,1.1,YES,YES,NO,0,0,5,YES,DU,EF
AF132728_FM201464,DU,DI,0.13,NO,0,False,0.03,YES,0.03,0.99,0,NO,YES,YES,0.02,0.8,0.1,YES,YES,YES,0.01,0.63,0.41,YES,DU,EF
AF132728_FM201463,DU,DI,0.13,NO,0,False,0.03,YES,0.03,1,0,NO,YES,YES,0.01,1,0.086,YES,YES,YES,0.01,0.2,0.49,YES,DU,EF
X72585_X04128,DU,DI,0.14,YES,0,N/A,0.07,YES,0.07,0.98,0,NO,YES,YES,0.01,0.85,0.57,YES,YES,YES,0.01,0.63,2.6,YES,DU,EF
X12870_AY214164,DU,DI,0.07,YES,0,False,0.04,YES,0.02,0.99,0,NO,YES,YES,0.01,0.88,0.37,YES,YES,YES,0.02,0.4,2.4,YES,DU,EF
X12870_Y00358,DU,DI,0.05,YES,0,False,0.14,YES,0.05,1,0,NO,YES,YES,0.01,0.92,0.27,YES,YES,YES,0.03,0.23,0.3,YES,DU,EF
X12870_AF550679,DU,DI,0.07,YES,0,False,0.03,YES,0.02,1,0,NO,YES,YES,0.01,0.92,1.5,YES,YES,YES,0.02,0.4,1.7,YES,DU,EF
U67194_M94367,DU,DI,0.31,YES,0,N/A,0.01,YES,0.01,0.99,0,NO,YES,YES,0.04,0.79,0.042,YES,YES,YES,0.05,0.31,2.2,YES,DU,EF
U67194_X04128,DU,DI,0.14,YES,0,N/A,0.01,YES,0.01,0.98,0,NO,YES,YES,0.02,0.93,0.018,YES,YES,YES,0.03,0.33,4.1,YES,DU,EF
U67194_M25422,DU,DI,0.18,YES,0,N/A,0.01,YES,0.01,1,0,NO,YES,YES,0.01,1,0.47,YES,YES,YES,0.02,0.67,0.75,YES,DU,EF
M10597_V00293,DU,DI,0.14,YES,0,N/A,0.25,YES,0.01,0.88,0.2,YES,YES,YES,0.04,0.82,0.46,YES,YES,YES,0.07,0.36,0.01,YES,DU,LI
J01574_D00021,DU,DI,0.5,YES,0,N/A,0.13,YES,0.13,1,0,NO,NO,NO,0,0,5,YES,NO,NO,0,0,5,YES,DU,EF
M29849_M27273,DU,DI,0.29,YES,0,N/A,0.24,YES,0.02,0.99,0,NO,YES,YES,0.01,1,0.92,YES,YES,YES,0.01,0.27,0.49,YES,DU,EF
J01749_J01564,DU,DI,0,YES,0,N/A,0.05,YES,0.04,0.95,0,NO,YES,YES,0.01,1,0.32,YES,YES,YES,0.01,0.67,3.1,YES,DU,EF
Y00529_M16202,DU,DI,0.08,YES,0,N/A,0.24,YES,0.06,1,0,NO,YES,YES,0.05,0.88,0.78,YES,YES,NO,0,0,5,YES,DU,EF
Y00529_AF481883,DU,DI,0.27,YES,0,False,0.03,YES,0.03,1,0,NO,YES,YES,0.09,0.81,0.19,YES,YES,NO,0,0,5,YES,DU,EF
AP002527_X04534,DU,DI,0,YES,0,N/A,0.03,YES,0.03,1,0,NO,YES,YES,0.01,1,0.11,YES,YES,NO,0,0,5,YES,DU,EF
AP002527_V00620,DU,DI,0.06,YES,0,N/A,0.01,YES,0.01,1,0,NO,YES,YES,0.02,1,0.32,YES,YES,NO,0,0,5,YES,DU,EF
AP002527_M37393,DU,DI,0,YES,0,N/A,0,YES,0,0.99,0,NO,YES,YES,0.06,1,0.36,YES,YES,NO,0,0,5,YES,DU,EF
AP002527_M37392,DU,DI,0,YES,0,N/A,0,YES,0,1,0,NO,YES,YES,0.07,1,2.7,YES,YES,NO,0,0,5,YES,DU,EF
AP002527_X03474,DU,DI,0.06,YES,0,N/A,0.01,YES,0.01,1,0,NO,YES,YES,0.09,1,0.34,YES,YES,NO,0,0,5,YES,DU,EF
AP002527_M37391,DU,DI,0,YES,0,N/A,0.02,YES,0.02,0.99,0,NO,YES,YES,0.01,1,0.058,YES,YES,NO,0,0,5,YES,DU,EF
AP002527_X04492,DU,DI,0,YES,0,N/A,0.01,YES,0.01,1,0,NO,YES,YES,0.01,0.9,2.7,YES,YES,NO,0,0,5,YES,DU,EF
U04277_AY214164,DU,DI,0.31,YES,0,False,0.02,YES,0.01,1,0,NO,YES,YES,0.02,0.83,0.32,YES,YES,YES,0.03,0.36,5.1,YES,DU,EF
M24253_X07875,DU,DI,0.19,YES,0,N/A,0.54,YES,0.08,1,0,NO,YES,YES,0.02,0.92,0.75,YES,YES,NO,0,0,5,YES,DU,EF
AF550679_AF047479,DU,DI,0.06,YES,0,False,0.07,YES,0.01,1,0,NO,YES,YES,0.02,0.77,1.5,YES,YES,YES,0.02,0.4,1.7,YES,DU,EF
AF550679_AF205943,DU,DI,0.09,YES,0,False,0.1,YES,0.02,0.99,0,NO,YES,YES,0.02,0.92,1,YES,YES,YES,0.03,0.36,0.14,YES,DU,EF
AF550679_U42226,DU,DI,0.04,YES,0,False,0.07,YES,0.01,1,0,NO,YES,YES,0.02,0.75,1.2,YES,YES,YES,0.04,0.3,0.081,YES,DU,EF
AF550679_J01730,DU,DI,0.11,YES,0,N/A,0.05,YES,0.01,0.99,0,NO,YES,YES,0.07,0.79,0.11,YES,YES,NO,0,0,5,YES,DU,EF
AF550679_AF071413,DU,DI,0.06,YES,0,False,0.16,YES,0.02,1,0,NO,YES,YES,0,1,0.35,YES,YES,YES,0.01,0.56,0.003,YES,DU,EF
AF550679_V00609,DU,DI,0.11,YES,0,N/A,0.01,YES,0.01,0.99,0,NO,YES,YES,0.03,0.81,0.06,YES,YES,YES,0.02,0.44,1.5,YES,DU,EF
AF550679_AF174129,DU,DI,0.33,YES,0,False,0.1,YES,0.02,0.96,0,NO,YES,YES,0.02,0.77,1.5,YES,YES,YES,0.02,0.4,1.7,YES,DU,EF
AF550679_X15024,DU,DI,0.14,YES,0,False,0.01,YES,0.01,0.99,0,NO,YES,YES,0.02,0.75,1.2,YES,YES,YES,0.04,0.3,0.081,YES,DU,EF
AF550679_AY655485,DU,DI,0.33,YES,0,False,0.03,YES,0.01,1,0,NO,YES,YES,0.02,0.87,0.27,YES,YES,NO,0,0,5,YES,DU,EF
AF550679_AY259086,DU,DI,0.42,YES,0,False,0.12,YES,0.02,0.91,0,NO,YES,YES,0.02,0.77,1.5,YES,YES,YES,0.02,0.4,1.7,YES,DU,EF
AF550679_AY259085,DU,DI,0.42,YES,0,False,0.11,YES,0.02,0.91,0,NO,YES,YES,0.02,0.77,1.5,YES,YES,YES,0.02,0.4,1.7,YES,DU,EF
AF550679_U04277,DU,DI,0.31,YES,0,False,0.01,YES,0.01,1,0,NO,YES,YES,0.04,0.92,0.37,YES,YES,NO,0,0,5,YES,DU,EF
AF550679_AY339625,DU,DI,0.31,YES,0,False,0.11,YES,0.02,1,0,NO,YES,YES,0.01,1,1,YES,YES,YES,0.03,0.36,0.13,YES,DU,EF
AF550679_AB061794,DU,DI,0.21,YES,0,False,0.06,YES,0.01,1,0,NO,YES,YES,0.02,0.77,1.5,YES,YES,YES,0.02,0.4,1.7,YES,DU,EF
AF550679_AY260546,DU,DI,0.24,YES,0,False,0.08,YES,0.03,0.93,0,NO,YES,YES,0.01,1,1,YES,YES,YES,0.03,0.36,0.13,YES,DU,EF
AF550679_AY224185,DU,DI,0.1,YES,0,False,0.04,YES,0.02,0.99,0,NO,YES,YES,0.02,0.77,1.1,YES,YES,YES,0.02,0.4,1.2,YES,DU,EF
AF550679_X12868,DU,DI,0.09,YES,0,False,0.02,YES,0.01,0.98,0,NO,YES,YES,0.02,0.77,1.5,YES,YES,YES,0.02,0.4,1.6,YES,DU,EF
AF550679_A07921,DU,DI,0.09,YES,0,N/A,0.01,YES,0.01,0.99,0,NO,YES,YES,0.02,0.75,1.2,YES,YES,YES,0.04,0.3,0.081,YES,DU,EF
AF550679_U12441,DU,DI,0.45,YES,0,False,0.05,YES,0.02,0.99,0,NO,YES,YES,0.02,1,0.27,YES,YES,NO,0,0,5,YES,DU,EF
AY260546_AY214164,DU,DI,0.24,YES,0,False,0.1,YES,0.02,0.99,0,NO,YES,YES,0.01,1,3.1,YES,YES,NO,0,0,5,YES,DU,EF
X12868_AF205943,DU,DI,0.05,YES,0,False,0.22,YES,0.07,1,0,NO,YES,YES,0.02,0.82,0.087,YES,YES,YES,0.02,0.32,2.3,YES,DU,EF
X12868_U42226,DU,DI,0.04,YES,0,False,0.31,YES,0.05,1,0,NO,YES,YES,0.02,0.89,0.36,YES,YES,YES,0.04,0.24,0.58,YES,DU,EF
X12868_AY214164,DU,DI,0.09,YES,0,False,0.03,YES,0.02,0.91,0,NO,YES,YES,0.01,0.88,0.37,YES,YES,YES,0.02,0.4,2.4,YES,DU,EF
K02071_M13820,DU,DI,0.18,YES,0,N/A,0.07,YES,0.07,1,0,NO,YES,YES,0.02,0.88,0.009,YES,YES,NO,0,0,5,YES,DU,EF
M86913_Y00358,DU,DI,0,YES,0,N/A,0.15,YES,0.05,1,0,NO,YES,YES,0.01,0.92,0.27,YES,YES,YES,0.03,0.23,0.3,YES,DU,EF
M86913_X17479,DU,DI,0,YES,0,N/A,0.14,YES,0.08,0.98,0,NO,YES,YES,0.01,1,0.34,YES,YES,YES,0.02,0.33,3.3,YES,DU,EF
M15196_M38048,DI,DU,0.33,YES,0,N/A,0.42,YES,0.31,0.99,0,NO,YES,YES,0.02,0.93,0.05,YES,YES,NO,0,0,5,YES,DI,DI
X87835_J01563,DI,DU,0.22,YES,0,N/A,0.84,YES,0.13,0.78,0,NO,YES,YES,0.18,0.78,0,NO,YES,YES,0.48,0.52,0,NO,DI,DI
M21404_M30445,DI,DU,0.42,YES,0,N/A,0.88,YES,0.15,0.88,0,NO,YES,YES,0.22,0.94,0,NO,YES,YES,0.29,0.75,0,NO,DI,DI
Z50802_X12870,DI,DU,0,YES,0,False,0.82,YES,0.19,0.99,0,NO,YES,YES,0.01,1,0.74,YES,YES,YES,0.02,0.35,0.061,YES,DI,DI
X53082_M25423,DI,DU,0.21,YES,0,N/A,0.77,YES,0.02,0.93,0.18,YES,YES,YES,0.27,0.88,0.31,YES,YES,NO,0,0,5,YES,DI,DI
X55815_DQ364638,DI,DU,0.07,YES,0,False,0.13,YES,0.13,0.99,0,NO,YES,YES,0.01,1,0.47,YES,YES,YES,0.05,0.33,0.66,YES,DI,DI
X75562_A07921,DI,DU,0.11,YES,0,N/A,0.72,YES,0.18,1,0,NO,YES,YES,0.01,1,3.5,YES,YES,NO,0,0,5,YES,DI,DI
X04466_X03631,DI,DU,0.09,YES,0,N/A,0.04,YES,0.01,0.76,0,NO,YES,YES,0.55,0.76,0,NO,YES,YES,0.47,0.79,0,NO,DI,DI
M18273_V00319,DI,DU,0.1,YES,0,N/A,0.38,YES,0.38,1,0,NO,YES,YES,0.04,1,0.23,YES,YES,NO,0,0,5,YES,DI,DI
